Weighted_Round_Robin_IP_Full_Flow/OUTPUT/verif/weighted_round_robin_proj/run/testbench_weighted_round_robin_minimum_and_maximum_priority_update_during_grant_acknowledgment_test.vcd
$date
	Fri Sep  5 09:09:10 2025
$end

$version
	Synopsys VCS version W-2024.09_Full64
$end

$timescale
	1ns
$end

$comment Csum: 1 11bb74c8e4a897ed $end


$scope module weighted_round_robin_tb_top $end

$scope begin unnamed$$_0 $end
$upscope $end


$scope begin unnamed$$_vcs_0 $end
$upscope $end


$scope module clk_rst_if_inst $end
$var reg 1 ! clk $end
$var reg 1 " rst $end
$var reg 1 # clk_div $end
$upscope $end


$scope module rr_request_if_inst $end
$var reg 1 $ rst $end
$var reg 32 % req [31:0] $end
$var reg 1 & ack $end
$var reg 1 ' clk $end
$upscope $end


$scope module rr_grant_if_inst $end
$var reg 1 $ rst $end
$var reg 32 ( gnt_w [31:0] $end
$var reg 5 ) gnt_id [4:0] $end
$var reg 1 ' clk $end
$upscope $end


$scope module prio_update_if_inst $end
$var reg 1 $ rst $end
$var reg 4 * prio [3:0] $end
$var reg 5 + prio_id [4:0] $end
$var reg 1 , prio_upt $end
$var reg 1 ' clk $end
$upscope $end


$scope module weighted_round_robin_inst $end
$var wire 1 - clk $end
$var wire 1 . rst $end
$var wire 32 / req [31:0] $end
$var wire 1 0 ack $end
$var reg 32 1 gnt_w [31:0] $end
$var reg 5 2 gnt_id [4:0] $end
$var wire 4 3 prio [3:0] $end
$var wire 5 4 prio_id [4:0] $end
$var wire 1 5 prio_upt $end
$var reg 5 6 pointer_r [4:0] $end
$var reg 5 7 pointer_n [4:0] $end

$scope begin wrr_next_state $end
$var reg 32 8 k [31:0] $end
$var reg 32 9 j [31:0] $end
$var reg 1 : found $end
$var reg 5 ; idx [4:0] $end

$scope begin ack_set_loop $end

$scope begin ack_set_loop_req $end
$upscope $end

$upscope $end


$scope begin match_found $end

$scope begin update_credits $end
$var reg 5 < index [4:0] $end
$upscope $end

$upscope $end


$scope begin update_credits $end
$var reg 5 = index [4:0] $end
$upscope $end

$upscope $end


$scope begin unnamed$$_0 $end
$upscope $end


$scope begin unnamed$$_1 $end
$upscope $end

$upscope $end

$upscope $end

$enddefinitions $end

#0
$dumpvars
bxxxxxxxxxxxxxxxxxxxxxxxxxxxxxxxx %
b00000 )
b00000000000000000000000000000000 (
bxxxxx +
bxxxx *
0:
b00000 2
b00000000000000000000000000000000 1
bxxxxx 7
bxxxxx 6
bxxxxx ;
bxxxxx <
bxxxxx =
b00000000000000000000000000100000 8
b00000000000000000000000000000000 9
bxxxxxxxxxxxxxxxxxxxxxxxxxxxxxxxx /
bxxxx 3
bxxxxx 4
0!
0#
1"
0'
0-
1$
1.
x0
x5
x&
x,
$end
#3
1!
1'
1-
b00000 6
b11111 ;
b00000 7
b11111 =
#4
b0000 *
b00000 +
0,
05
b00000000000000000000000000000000 %
0&
00
b0000 3
b00000 4
b00000000000000000000000000000000 /
#6
1#
0!
0'
0-
#9
1!
1'
1-
#10
0#
#12
0!
0'
0-
#14
1#
#15
1!
1'
1-
#18
0#
0!
0'
0-
#21
1!
1'
1-
#22
1#
#24
0!
0'
0-
#26
0#
#27
1!
1'
1-
#30
1#
0!
0'
0-
#33
1!
1'
1-
#34
0#
#36
0!
0'
0-
#38
1#
#39
1!
1'
1-
#42
0#
0!
0'
0-
#45
1!
1'
1-
#46
1#
#48
0!
0'
0-
#50
0#
#51
1!
1'
1-
#54
1#
0!
0'
0-
0"
0$
0.
#57
1!
1'
1-
#58
0#
#60
0!
0'
0-
#62
1#
#63
1!
1'
1-
#66
0#
0!
0'
0-
#69
1!
1'
1-
#70
1#
#72
0!
0'
0-
#74
0#
#75
1!
1'
1-
#78
1#
0!
0'
0-
#81
1!
1'
1-
#82
0#
#84
0!
0'
0-
#86
1#
#87
1!
1'
1-
#90
0#
0!
0'
0-
#93
1!
1'
1-
#94
1#
#96
0!
0'
0-
#98
0#
#99
1!
1'
1-
#102
1#
0!
0'
0-
#105
1!
1'
1-
#106
0#
1,
15
#108
0!
0'
0-
#110
1#
#111
1!
1'
1-
#112
0,
05
#114
0#
0!
0'
0-
#117
1!
1'
1-
#118
1#
#120
0!
0'
0-
#122
0#
#123
1!
1'
1-
#124
b00000000000000000000000000000001 %
b00001 +
1,
15
b00000000000000000000000000000001 /
b00001 4
b00000 ;
1:
b00000000000000000000000000000001 1
b00000000000000000000000000000001 (
b00001 7
b11111 <
#126
1#
0!
0'
0-
#129
1!
1'
1-
#130
0#
b00000 +
0,
05
1&
10
b00000 4
#132
0!
0'
0-
#134
1#
#135
1!
1'
1-
#136
b00000000000000000000000000000000 %
0&
00
b00000000000000000000000000000000 /
b11111 ;
0:
b00000000000000000000000000000000 1
b00000000000000000000000000000000 (
b00000 7
#137
b00001 6
b00000 ;
b00001 7
b00000 =
#138
0#
0!
0'
0-
#141
1!
1'
1-
#142
1#
b00010 +
1,
15
b00000000000000000000000000000010 %
b00010 4
b00000000000000000000000000000010 /
b00001 ;
1:
b00001 2
b00001 )
b00000000000000000000000000000010 1
b00000000000000000000000000000010 (
b00010 7
b00000 <
#144
0!
0'
0-
#146
0#
#147
1!
1'
1-
#148
1&
10
b00000 +
0,
05
b00000 4
#150
1#
0!
0'
0-
#153
1!
1'
1-
#154
0#
b00000000000000000000000000000000 %
0&
00
b00000000000000000000000000000000 /
b00000 ;
0:
b00000 2
b00000 )
b00000000000000000000000000000000 1
b00000000000000000000000000000000 (
b00001 7
#155
b00010 6
b00001 ;
b00010 7
b00001 =
#156
0!
0'
0-
#158
1#
#159
1!
1'
1-
#160
b00000000000000000000000000000100 %
b00011 +
1,
15
b00000000000000000000000000000100 /
b00011 4
b00010 ;
1:
b00010 2
b00010 )
b00000000000000000000000000000100 1
b00000000000000000000000000000100 (
b00011 7
b00001 <
#162
0#
0!
0'
0-
#165
1!
1'
1-
#166
1#
b00000 +
0,
05
1&
10
b00000 4
#168
0!
0'
0-
#170
0#
#171
1!
1'
1-
#172
b00000000000000000000000000000000 %
0&
00
b00000000000000000000000000000000 /
b00001 ;
0:
b00000 2
b00000 )
b00000000000000000000000000000000 1
b00000000000000000000000000000000 (
b00010 7
#173
b00011 6
b00010 ;
b00011 7
b00010 =
#174
1#
0!
0'
0-
#177
1!
1'
1-
#178
0#
b00100 +
1,
15
b00000000000000000000000000001000 %
b00100 4
b00000000000000000000000000001000 /
b00011 ;
1:
b00011 2
b00011 )
b00000000000000000000000000001000 1
b00000000000000000000000000001000 (
b00100 7
b00010 <
#180
0!
0'
0-
#182
1#
#183
1!
1'
1-
#184
1&
10
b00000 +
0,
05
b00000 4
#186
0#
0!
0'
0-
#189
1!
1'
1-
#190
1#
b00000000000000000000000000000000 %
0&
00
b00000000000000000000000000000000 /
b00010 ;
0:
b00000 2
b00000 )
b00000000000000000000000000000000 1
b00000000000000000000000000000000 (
b00011 7
#191
b00100 6
b00011 ;
b00100 7
b00011 =
#192
0!
0'
0-
#194
0#
#195
1!
1'
1-
#196
b00000000000000000000000000010000 %
b00101 +
1,
15
b00000000000000000000000000010000 /
b00101 4
b00100 ;
1:
b00100 2
b00100 )
b00000000000000000000000000010000 1
b00000000000000000000000000010000 (
b00101 7
b00011 <
#198
1#
0!
0'
0-
#201
1!
1'
1-
#202
0#
b00000 +
0,
05
1&
10
b00000 4
#204
0!
0'
0-
#206
1#
#207
1!
1'
1-
#208
b00000000000000000000000000000000 %
0&
00
b00000000000000000000000000000000 /
b00011 ;
0:
b00000 2
b00000 )
b00000000000000000000000000000000 1
b00000000000000000000000000000000 (
b00100 7
#209
b00101 6
b00100 ;
b00101 7
b00100 =
#210
0#
0!
0'
0-
#213
1!
1'
1-
#214
1#
b00110 +
1,
15
b00000000000000000000000000100000 %
b00110 4
b00000000000000000000000000100000 /
b00101 ;
1:
b00101 2
b00101 )
b00000000000000000000000000100000 1
b00000000000000000000000000100000 (
b00110 7
b00100 <
#216
0!
0'
0-
#218
0#
#219
1!
1'
1-
#220
1&
10
b00000 +
0,
05
b00000 4
#222
1#
0!
0'
0-
#225
1!
1'
1-
#226
0#
b00000000000000000000000000000000 %
0&
00
b00000000000000000000000000000000 /
b00100 ;
0:
b00000 2
b00000 )
b00000000000000000000000000000000 1
b00000000000000000000000000000000 (
b00101 7
#227
b00110 6
b00101 ;
b00110 7
b00101 =
#228
0!
0'
0-
#230
1#
#231
1!
1'
1-
#232
b00000000000000000000000001000000 %
b00111 +
1,
15
b00000000000000000000000001000000 /
b00111 4
b00110 ;
1:
b00110 2
b00110 )
b00000000000000000000000001000000 1
b00000000000000000000000001000000 (
b00111 7
b00101 <
#234
0#
0!
0'
0-
#237
1!
1'
1-
#238
1#
b00000 +
0,
05
1&
10
b00000 4
#240
0!
0'
0-
#242
0#
#243
1!
1'
1-
#244
b00000000000000000000000000000000 %
0&
00
b00000000000000000000000000000000 /
b00101 ;
0:
b00000 2
b00000 )
b00000000000000000000000000000000 1
b00000000000000000000000000000000 (
b00110 7
#245
b00111 6
b00110 ;
b00111 7
b00110 =
#246
1#
0!
0'
0-
#249
1!
1'
1-
#250
0#
b01000 +
1,
15
b00000000000000000000000010000000 %
b01000 4
b00000000000000000000000010000000 /
b00111 ;
1:
b00111 2
b00111 )
b00000000000000000000000010000000 1
b00000000000000000000000010000000 (
b01000 7
b00110 <
#252
0!
0'
0-
#254
1#
#255
1!
1'
1-
#256
1&
10
b00000 +
0,
05
b00000 4
#258
0#
0!
0'
0-
#261
1!
1'
1-
#262
1#
b00000000000000000000000000000000 %
0&
00
b00000000000000000000000000000000 /
b00110 ;
0:
b00000 2
b00000 )
b00000000000000000000000000000000 1
b00000000000000000000000000000000 (
b00111 7
#263
b01000 6
b00111 ;
b01000 7
b00111 =
#264
0!
0'
0-
#266
0#
#267
1!
1'
1-
#268
b00000000000000000000000100000000 %
b01001 +
1,
15
b00000000000000000000000100000000 /
b01001 4
b01000 ;
1:
b01000 2
b01000 )
b00000000000000000000000100000000 1
b00000000000000000000000100000000 (
b01001 7
b00111 <
#270
1#
0!
0'
0-
#273
1!
1'
1-
#274
0#
b00000 +
0,
05
1&
10
b00000 4
#276
0!
0'
0-
#278
1#
#279
1!
1'
1-
#280
b00000000000000000000000000000000 %
0&
00
b00000000000000000000000000000000 /
b00111 ;
0:
b00000 2
b00000 )
b00000000000000000000000000000000 1
b00000000000000000000000000000000 (
b01000 7
#281
b01001 6
b01000 ;
b01001 7
b01000 =
#282
0#
0!
0'
0-
#285
1!
1'
1-
#286
1#
b01010 +
1,
15
b00000000000000000000001000000000 %
b01010 4
b00000000000000000000001000000000 /
b01001 ;
1:
b01001 2
b01001 )
b00000000000000000000001000000000 1
b00000000000000000000001000000000 (
b01010 7
b01000 <
#288
0!
0'
0-
#290
0#
#291
1!
1'
1-
#292
1&
10
b00000 +
0,
05
b00000 4
#294
1#
0!
0'
0-
#297
1!
1'
1-
#298
0#
b00000000000000000000000000000000 %
0&
00
b00000000000000000000000000000000 /
b01000 ;
0:
b00000 2
b00000 )
b00000000000000000000000000000000 1
b00000000000000000000000000000000 (
b01001 7
#299
b01010 6
b01001 ;
b01010 7
b01001 =
#300
0!
0'
0-
#302
1#
#303
1!
1'
1-
#304
b00000000000000000000010000000000 %
b01011 +
1,
15
b00000000000000000000010000000000 /
b01011 4
b01010 ;
1:
b01010 2
b01010 )
b00000000000000000000010000000000 1
b00000000000000000000010000000000 (
b01011 7
b01001 <
#306
0#
0!
0'
0-
#309
1!
1'
1-
#310
1#
b00000 +
0,
05
1&
10
b00000 4
#312
0!
0'
0-
#314
0#
#315
1!
1'
1-
#316
b00000000000000000000000000000000 %
0&
00
b00000000000000000000000000000000 /
b01001 ;
0:
b00000 2
b00000 )
b00000000000000000000000000000000 1
b00000000000000000000000000000000 (
b01010 7
#317
b01011 6
b01010 ;
b01011 7
b01010 =
#318
1#
0!
0'
0-
#321
1!
1'
1-
#322
0#
b01100 +
1,
15
b00000000000000000000100000000000 %
b01100 4
b00000000000000000000100000000000 /
b01011 ;
1:
b01011 2
b01011 )
b00000000000000000000100000000000 1
b00000000000000000000100000000000 (
b01100 7
b01010 <
#324
0!
0'
0-
#326
1#
#327
1!
1'
1-
#328
1&
10
b00000 +
0,
05
b00000 4
#330
0#
0!
0'
0-
#333
1!
1'
1-
#334
1#
b00000000000000000000000000000000 %
0&
00
b00000000000000000000000000000000 /
b01010 ;
0:
b00000 2
b00000 )
b00000000000000000000000000000000 1
b00000000000000000000000000000000 (
b01011 7
#335
b01100 6
b01011 ;
b01100 7
b01011 =
#336
0!
0'
0-
#338
0#
#339
1!
1'
1-
#340
b00000000000000000001000000000000 %
b01101 +
1,
15
b00000000000000000001000000000000 /
b01101 4
b01100 ;
1:
b01100 2
b01100 )
b00000000000000000001000000000000 1
b00000000000000000001000000000000 (
b01101 7
b01011 <
#342
1#
0!
0'
0-
#345
1!
1'
1-
#346
0#
b00000 +
0,
05
1&
10
b00000 4
#348
0!
0'
0-
#350
1#
#351
1!
1'
1-
#352
b00000000000000000000000000000000 %
0&
00
b00000000000000000000000000000000 /
b01011 ;
0:
b00000 2
b00000 )
b00000000000000000000000000000000 1
b00000000000000000000000000000000 (
b01100 7
#353
b01101 6
b01100 ;
b01101 7
b01100 =
#354
0#
0!
0'
0-
#357
1!
1'
1-
#358
1#
b01110 +
1,
15
b00000000000000000010000000000000 %
b01110 4
b00000000000000000010000000000000 /
b01101 ;
1:
b01101 2
b01101 )
b00000000000000000010000000000000 1
b00000000000000000010000000000000 (
b01110 7
b01100 <
#360
0!
0'
0-
#362
0#
#363
1!
1'
1-
#364
1&
10
b00000 +
0,
05
b00000 4
#366
1#
0!
0'
0-
#369
1!
1'
1-
#370
0#
b00000000000000000000000000000000 %
0&
00
b00000000000000000000000000000000 /
b01100 ;
0:
b00000 2
b00000 )
b00000000000000000000000000000000 1
b00000000000000000000000000000000 (
b01101 7
#371
b01110 6
b01101 ;
b01110 7
b01101 =
#372
0!
0'
0-
#374
1#
#375
1!
1'
1-
#376
b00000000000000000100000000000000 %
b01111 +
1,
15
b00000000000000000100000000000000 /
b01111 4
b01110 ;
1:
b01110 2
b01110 )
b00000000000000000100000000000000 1
b00000000000000000100000000000000 (
b01111 7
b01101 <
#378
0#
0!
0'
0-
#381
1!
1'
1-
#382
1#
b00000 +
0,
05
1&
10
b00000 4
#384
0!
0'
0-
#386
0#
#387
1!
1'
1-
#388
b00000000000000000000000000000000 %
0&
00
b00000000000000000000000000000000 /
b01101 ;
0:
b00000 2
b00000 )
b00000000000000000000000000000000 1
b00000000000000000000000000000000 (
b01110 7
#389
b01111 6
b01110 ;
b01111 7
b01110 =
#390
1#
0!
0'
0-
#393
1!
1'
1-
#394
0#
b10000 +
1,
15
b00000000000000001000000000000000 %
b10000 4
b00000000000000001000000000000000 /
b01111 ;
1:
b01111 2
b01111 )
b00000000000000001000000000000000 1
b00000000000000001000000000000000 (
b10000 7
b01110 <
#396
0!
0'
0-
#398
1#
#399
1!
1'
1-
#400
1&
10
b00000 +
0,
05
b00000 4
#402
0#
0!
0'
0-
#405
1!
1'
1-
#406
1#
b00000000000000000000000000000000 %
0&
00
b00000000000000000000000000000000 /
b01110 ;
0:
b00000 2
b00000 )
b00000000000000000000000000000000 1
b00000000000000000000000000000000 (
b01111 7
#407
b10000 6
b01111 ;
b10000 7
b01111 =
#408
0!
0'
0-
#410
0#
#411
1!
1'
1-
#412
b00000000000000010000000000000000 %
b10001 +
1,
15
b00000000000000010000000000000000 /
b10001 4
b10000 ;
1:
b10000 2
b10000 )
b00000000000000010000000000000000 1
b00000000000000010000000000000000 (
b10001 7
b01111 <
#414
1#
0!
0'
0-
#417
1!
1'
1-
#418
0#
b00000 +
0,
05
1&
10
b00000 4
#420
0!
0'
0-
#422
1#
#423
1!
1'
1-
#424
b00000000000000000000000000000000 %
0&
00
b00000000000000000000000000000000 /
b01111 ;
0:
b00000 2
b00000 )
b00000000000000000000000000000000 1
b00000000000000000000000000000000 (
b10000 7
#425
b10001 6
b10000 ;
b10001 7
b10000 =
#426
0#
0!
0'
0-
#429
1!
1'
1-
#430
1#
b10010 +
1,
15
b00000000000000100000000000000000 %
b10010 4
b00000000000000100000000000000000 /
b10001 ;
1:
b10001 2
b10001 )
b00000000000000100000000000000000 1
b00000000000000100000000000000000 (
b10010 7
b10000 <
#432
0!
0'
0-
#434
0#
#435
1!
1'
1-
#436
1&
10
b00000 +
0,
05
b00000 4
#438
1#
0!
0'
0-
#441
1!
1'
1-
#442
0#
b00000000000000000000000000000000 %
0&
00
b00000000000000000000000000000000 /
b10000 ;
0:
b00000 2
b00000 )
b00000000000000000000000000000000 1
b00000000000000000000000000000000 (
b10001 7
#443
b10010 6
b10001 ;
b10010 7
b10001 =
#444
0!
0'
0-
#446
1#
#447
1!
1'
1-
#448
b00000000000001000000000000000000 %
b10011 +
1,
15
b00000000000001000000000000000000 /
b10011 4
b10010 ;
1:
b10010 2
b10010 )
b00000000000001000000000000000000 1
b00000000000001000000000000000000 (
b10011 7
b10001 <
#450
0#
0!
0'
0-
#453
1!
1'
1-
#454
1#
b00000 +
0,
05
1&
10
b00000 4
#456
0!
0'
0-
#458
0#
#459
1!
1'
1-
#460
b00000000000000000000000000000000 %
0&
00
b00000000000000000000000000000000 /
b10001 ;
0:
b00000 2
b00000 )
b00000000000000000000000000000000 1
b00000000000000000000000000000000 (
b10010 7
#461
b10011 6
b10010 ;
b10011 7
b10010 =
#462
1#
0!
0'
0-
#465
1!
1'
1-
#466
0#
b10100 +
1,
15
b00000000000010000000000000000000 %
b10100 4
b00000000000010000000000000000000 /
b10011 ;
1:
b10011 2
b10011 )
b00000000000010000000000000000000 1
b00000000000010000000000000000000 (
b10100 7
b10010 <
#468
0!
0'
0-
#470
1#
#471
1!
1'
1-
#472
1&
10
b00000 +
0,
05
b00000 4
#474
0#
0!
0'
0-
#477
1!
1'
1-
#478
1#
b00000000000000000000000000000000 %
0&
00
b00000000000000000000000000000000 /
b10010 ;
0:
b00000 2
b00000 )
b00000000000000000000000000000000 1
b00000000000000000000000000000000 (
b10011 7
#479
b10100 6
b10011 ;
b10100 7
b10011 =
#480
0!
0'
0-
#482
0#
#483
1!
1'
1-
#484
b00000000000100000000000000000000 %
b10101 +
1,
15
b00000000000100000000000000000000 /
b10101 4
b10100 ;
1:
b10100 2
b10100 )
b00000000000100000000000000000000 1
b00000000000100000000000000000000 (
b10101 7
b10011 <
#486
1#
0!
0'
0-
#489
1!
1'
1-
#490
0#
b00000 +
0,
05
1&
10
b00000 4
#492
0!
0'
0-
#494
1#
#495
1!
1'
1-
#496
b00000000000000000000000000000000 %
0&
00
b00000000000000000000000000000000 /
b10011 ;
0:
b00000 2
b00000 )
b00000000000000000000000000000000 1
b00000000000000000000000000000000 (
b10100 7
#497
b10101 6
b10100 ;
b10101 7
b10100 =
#498
0#
0!
0'
0-
#501
1!
1'
1-
#502
1#
b10110 +
1,
15
b00000000001000000000000000000000 %
b10110 4
b00000000001000000000000000000000 /
b10101 ;
1:
b10101 2
b10101 )
b00000000001000000000000000000000 1
b00000000001000000000000000000000 (
b10110 7
b10100 <
#504
0!
0'
0-
#506
0#
#507
1!
1'
1-
#508
1&
10
b00000 +
0,
05
b00000 4
#510
1#
0!
0'
0-
#513
1!
1'
1-
#514
0#
b00000000000000000000000000000000 %
0&
00
b00000000000000000000000000000000 /
b10100 ;
0:
b00000 2
b00000 )
b00000000000000000000000000000000 1
b00000000000000000000000000000000 (
b10101 7
#515
b10110 6
b10101 ;
b10110 7
b10101 =
#516
0!
0'
0-
#518
1#
#519
1!
1'
1-
#520
b00000000010000000000000000000000 %
b10111 +
1,
15
b00000000010000000000000000000000 /
b10111 4
b10110 ;
1:
b10110 2
b10110 )
b00000000010000000000000000000000 1
b00000000010000000000000000000000 (
b10111 7
b10101 <
#522
0#
0!
0'
0-
#525
1!
1'
1-
#526
1#
b00000 +
0,
05
1&
10
b00000 4
#528
0!
0'
0-
#530
0#
#531
1!
1'
1-
#532
b00000000000000000000000000000000 %
0&
00
b00000000000000000000000000000000 /
b10101 ;
0:
b00000 2
b00000 )
b00000000000000000000000000000000 1
b00000000000000000000000000000000 (
b10110 7
#533
b10111 6
b10110 ;
b10111 7
b10110 =
#534
1#
0!
0'
0-
#537
1!
1'
1-
#538
0#
b11000 +
1,
15
b00000000100000000000000000000000 %
b11000 4
b00000000100000000000000000000000 /
b10111 ;
1:
b10111 2
b10111 )
b00000000100000000000000000000000 1
b00000000100000000000000000000000 (
b11000 7
b10110 <
#540
0!
0'
0-
#542
1#
#543
1!
1'
1-
#544
1&
10
b00000 +
0,
05
b00000 4
#546
0#
0!
0'
0-
#549
1!
1'
1-
#550
1#
b00000000000000000000000000000000 %
0&
00
b00000000000000000000000000000000 /
b10110 ;
0:
b00000 2
b00000 )
b00000000000000000000000000000000 1
b00000000000000000000000000000000 (
b10111 7
#551
b11000 6
b10111 ;
b11000 7
b10111 =
#552
0!
0'
0-
#554
0#
#555
1!
1'
1-
#556
b00000001000000000000000000000000 %
b11001 +
1,
15
b00000001000000000000000000000000 /
b11001 4
b11000 ;
1:
b11000 2
b11000 )
b00000001000000000000000000000000 1
b00000001000000000000000000000000 (
b11001 7
b10111 <
#558
1#
0!
0'
0-
#561
1!
1'
1-
#562
0#
b00000 +
0,
05
1&
10
b00000 4
#564
0!
0'
0-
#566
1#
#567
1!
1'
1-
#568
b00000000000000000000000000000000 %
0&
00
b00000000000000000000000000000000 /
b10111 ;
0:
b00000 2
b00000 )
b00000000000000000000000000000000 1
b00000000000000000000000000000000 (
b11000 7
#569
b11001 6
b11000 ;
b11001 7
b11000 =
#570
0#
0!
0'
0-
#573
1!
1'
1-
#574
1#
b11010 +
1,
15
b00000010000000000000000000000000 %
b11010 4
b00000010000000000000000000000000 /
b11001 ;
1:
b11001 2
b11001 )
b00000010000000000000000000000000 1
b00000010000000000000000000000000 (
b11010 7
b11000 <
#576
0!
0'
0-
#578
0#
#579
1!
1'
1-
#580
1&
10
b00000 +
0,
05
b00000 4
#582
1#
0!
0'
0-
#585
1!
1'
1-
#586
0#
b00000000000000000000000000000000 %
0&
00
b00000000000000000000000000000000 /
b11000 ;
0:
b00000 2
b00000 )
b00000000000000000000000000000000 1
b00000000000000000000000000000000 (
b11001 7
#587
b11010 6
b11001 ;
b11010 7
b11001 =
#588
0!
0'
0-
#590
1#
#591
1!
1'
1-
#592
b00000100000000000000000000000000 %
b11011 +
1,
15
b00000100000000000000000000000000 /
b11011 4
b11010 ;
1:
b11010 2
b11010 )
b00000100000000000000000000000000 1
b00000100000000000000000000000000 (
b11011 7
b11001 <
#594
0#
0!
0'
0-
#597
1!
1'
1-
#598
1#
b00000 +
0,
05
1&
10
b00000 4
#600
0!
0'
0-
#602
0#
#603
1!
1'
1-
#604
b00000000000000000000000000000000 %
0&
00
b00000000000000000000000000000000 /
b11001 ;
0:
b00000 2
b00000 )
b00000000000000000000000000000000 1
b00000000000000000000000000000000 (
b11010 7
#605
b11011 6
b11010 ;
b11011 7
b11010 =
#606
1#
0!
0'
0-
#609
1!
1'
1-
#610
0#
b11100 +
1,
15
b00001000000000000000000000000000 %
b11100 4
b00001000000000000000000000000000 /
b11011 ;
1:
b11011 2
b11011 )
b00001000000000000000000000000000 1
b00001000000000000000000000000000 (
b11100 7
b11010 <
#612
0!
0'
0-
#614
1#
#615
1!
1'
1-
#616
1&
10
b00000 +
0,
05
b00000 4
#618
0#
0!
0'
0-
#621
1!
1'
1-
#622
1#
b00000000000000000000000000000000 %
0&
00
b00000000000000000000000000000000 /
b11010 ;
0:
b00000 2
b00000 )
b00000000000000000000000000000000 1
b00000000000000000000000000000000 (
b11011 7
#623
b11100 6
b11011 ;
b11100 7
b11011 =
#624
0!
0'
0-
#626
0#
#627
1!
1'
1-
#628
b00010000000000000000000000000000 %
b11101 +
1,
15
b00010000000000000000000000000000 /
b11101 4
b11100 ;
1:
b11100 2
b11100 )
b00010000000000000000000000000000 1
b00010000000000000000000000000000 (
b11101 7
b11011 <
#630
1#
0!
0'
0-
#633
1!
1'
1-
#634
0#
b00000 +
0,
05
1&
10
b00000 4
#636
0!
0'
0-
#638
1#
#639
1!
1'
1-
#640
b00000000000000000000000000000000 %
0&
00
b00000000000000000000000000000000 /
b11011 ;
0:
b00000 2
b00000 )
b00000000000000000000000000000000 1
b00000000000000000000000000000000 (
b11100 7
#641
b11101 6
b11100 ;
b11101 7
b11100 =
#642
0#
0!
0'
0-
#645
1!
1'
1-
#646
1#
b11110 +
1,
15
b00100000000000000000000000000000 %
b11110 4
b00100000000000000000000000000000 /
b11101 ;
1:
b11101 2
b11101 )
b00100000000000000000000000000000 1
b00100000000000000000000000000000 (
b11110 7
b11100 <
#648
0!
0'
0-
#650
0#
#651
1!
1'
1-
#652
1&
10
b00000 +
0,
05
b00000 4
#654
1#
0!
0'
0-
#657
1!
1'
1-
#658
0#
b00000000000000000000000000000000 %
0&
00
b00000000000000000000000000000000 /
b11100 ;
0:
b00000 2
b00000 )
b00000000000000000000000000000000 1
b00000000000000000000000000000000 (
b11101 7
#659
b11110 6
b11101 ;
b11110 7
b11101 =
#660
0!
0'
0-
#662
1#
#663
1!
1'
1-
#664
b01000000000000000000000000000000 %
b11111 +
1,
15
b01000000000000000000000000000000 /
b11111 4
b11110 ;
1:
b11110 2
b11110 )
b01000000000000000000000000000000 1
b01000000000000000000000000000000 (
b11111 7
b11101 <
#666
0#
0!
0'
0-
#669
1!
1'
1-
#670
1#
b00000 +
0,
05
1&
10
b00000 4
#672
0!
0'
0-
#674
0#
#675
1!
1'
1-
#676
b00000000000000000000000000000000 %
0&
00
b00000000000000000000000000000000 /
b11101 ;
0:
b00000 2
b00000 )
b00000000000000000000000000000000 1
b00000000000000000000000000000000 (
b11110 7
#677
b11111 6
b11110 ;
b11111 7
b11110 =
#678
1#
0!
0'
0-
#681
1!
1'
1-
#682
0#
b10000000000000000000000000000000 %
b10000000000000000000000000000000 /
b11111 ;
1:
b11111 2
b11111 )
b10000000000000000000000000000000 1
b10000000000000000000000000000000 (
b00000 7
b11110 <
#684
0!
0'
0-
#686
1#
#687
1!
1'
1-
#688
1&
10
#690
0#
0!
0'
0-
#693
1!
1'
1-
#694
1#
b00000000000000000000000000000000 %
0&
00
b00000000000000000000000000000000 /
b11110 ;
0:
b00000 2
b00000 )
b00000000000000000000000000000000 1
b00000000000000000000000000000000 (
b11111 7
#695
b00000 6
b11111 ;
b00000 7
b11111 =
#696
0!
0'
0-
#698
0#
#699
1!
1'
1-
#702
1#
0!
0'
0-
#705
1!
1'
1-
#706
0#
b1111 *
1,
15
b1111 3
#708
0!
0'
0-
#710
1#
#711
1!
1'
1-
#712
b0000 *
0,
05
b0000 3
#714
0#
0!
0'
0-
#717
1!
1'
1-
#718
1#
b00000000000000000000000000000001 %
b00000000000000000000000000000001 /
b00000000000000000000000000000001 (
#720
0!
0'
0-
#722
0#
#723
1!
1'
1-
#724
1&
10
b1111 *
b00001 +
1,
15
b1111 3
b00001 4
#726
1#
0!
0'
0-
#729
1!
1'
1-
#730
0#
b0000 *
b00000 +
0,
05
b00000000000000000000000000000000 %
0&
00
b0000 3
b00000 4
b00000000000000000000000000000000 /
b00000000000000000000000000000000 (
#732
0!
0'
0-
#734
1#
#735
1!
1'
1-
#736
b00000000000000000000000000000010 %
b00000000000000000000000000000010 /
b00001 )
b00000000000000000000000000000010 (
#738
0#
0!
0'
0-
#741
1!
1'
1-
#742
1#
b1111 *
b00010 +
1,
15
1&
10
b1111 3
b00010 4
#744
0!
0'
0-
#746
0#
#747
1!
1'
1-
#748
b00000000000000000000000000000000 %
0&
00
b0000 *
b00000 +
0,
05
b00000000000000000000000000000000 /
b0000 3
b00000 4
b00000 )
b00000000000000000000000000000000 (
#750
1#
0!
0'
0-
#753
1!
1'
1-
#754
0#
b00000000000000000000000000000100 %
b00000000000000000000000000000100 /
b00010 )
b00000000000000000000000000000100 (
#756
0!
0'
0-
#758
1#
#759
1!
1'
1-
#760
1&
10
b1111 *
b00011 +
1,
15
b1111 3
b00011 4
#762
0#
0!
0'
0-
#765
1!
1'
1-
#766
1#
b0000 *
b00000 +
0,
05
b00000000000000000000000000000000 %
0&
00
b0000 3
b00000 4
b00000000000000000000000000000000 /
b00000 )
b00000000000000000000000000000000 (
#768
0!
0'
0-
#770
0#
#771
1!
1'
1-
#772
b00000000000000000000000000001000 %
b00000000000000000000000000001000 /
b00011 )
b00000000000000000000000000001000 (
#774
1#
0!
0'
0-
#777
1!
1'
1-
#778
0#
b1111 *
b00100 +
1,
15
1&
10
b1111 3
b00100 4
#780
0!
0'
0-
#782
1#
#783
1!
1'
1-
#784
b00000000000000000000000000000000 %
0&
00
b0000 *
b00000 +
0,
05
b00000000000000000000000000000000 /
b0000 3
b00000 4
b00000 )
b00000000000000000000000000000000 (
#786
0#
0!
0'
0-
#789
1!
1'
1-
#790
1#
b00000000000000000000000000010000 %
b00000000000000000000000000010000 /
b00100 )
b00000000000000000000000000010000 (
#792
0!
0'
0-
#794
0#
#795
1!
1'
1-
#796
1&
10
b1111 *
b00101 +
1,
15
b1111 3
b00101 4
#798
1#
0!
0'
0-
#801
1!
1'
1-
#802
0#
b0000 *
b00000 +
0,
05
b00000000000000000000000000000000 %
0&
00
b0000 3
b00000 4
b00000000000000000000000000000000 /
b00000 )
b00000000000000000000000000000000 (
#804
0!
0'
0-
#806
1#
#807
1!
1'
1-
#808
b00000000000000000000000000100000 %
b00000000000000000000000000100000 /
b00101 )
b00000000000000000000000000100000 (
#810
0#
0!
0'
0-
#813
1!
1'
1-
#814
1#
b1111 *
b00110 +
1,
15
1&
10
b1111 3
b00110 4
#816
0!
0'
0-
#818
0#
#819
1!
1'
1-
