Weighted_Round_Robin_IP_Full_Flow/OUTPUT/verif/weighted_round_robin_proj/run/testbench_weighted_round_robin_synchronous_reset_with_priority_update_edge_case_test.vcd
$date
	Fri Sep  5 09:09:09 2025
$end

$version
	Synopsys VCS version W-2024.09_Full64
$end

$timescale
	1ns
$end

$comment Csum: 1 11bb74c8e4a897ed $end


$scope module weighted_round_robin_tb_top $end

$scope begin unnamed$$_0 $end
$upscope $end


$scope begin unnamed$$_vcs_0 $end
$upscope $end


$scope module clk_rst_if_inst $end
$var reg 1 ! clk $end
$var reg 1 " rst $end
$var reg 1 # clk_div $end
$upscope $end


$scope module rr_request_if_inst $end
$var reg 1 $ rst $end
$var reg 32 % req [31:0] $end
$var reg 1 & ack $end
$var reg 1 ' clk $end
$upscope $end


$scope module rr_grant_if_inst $end
$var reg 1 $ rst $end
$var reg 32 ( gnt_w [31:0] $end
$var reg 5 ) gnt_id [4:0] $end
$var reg 1 ' clk $end
$upscope $end


$scope module prio_update_if_inst $end
$var reg 1 $ rst $end
$var reg 4 * prio [3:0] $end
$var reg 5 + prio_id [4:0] $end
$var reg 1 , prio_upt $end
$var reg 1 ' clk $end
$upscope $end


$scope module weighted_round_robin_inst $end
$var wire 1 - clk $end
$var wire 1 . rst $end
$var wire 32 / req [31:0] $end
$var wire 1 0 ack $end
$var reg 32 1 gnt_w [31:0] $end
$var reg 5 2 gnt_id [4:0] $end
$var wire 4 3 prio [3:0] $end
$var wire 5 4 prio_id [4:0] $end
$var wire 1 5 prio_upt $end
$var reg 5 6 pointer_r [4:0] $end
$var reg 5 7 pointer_n [4:0] $end

$scope begin wrr_next_state $end
$var reg 32 8 k [31:0] $end
$var reg 32 9 j [31:0] $end
$var reg 1 : found $end
$var reg 5 ; idx [4:0] $end

$scope begin ack_set_loop $end

$scope begin ack_set_loop_req $end
$upscope $end

$upscope $end


$scope begin match_found $end

$scope begin update_credits $end
$var reg 5 < index [4:0] $end
$upscope $end

$upscope $end


$scope begin update_credits $end
$var reg 5 = index [4:0] $end
$upscope $end

$upscope $end


$scope begin unnamed$$_0 $end
$upscope $end


$scope begin unnamed$$_1 $end
$upscope $end

$upscope $end

$upscope $end

$enddefinitions $end

#0
$dumpvars
bxxxxxxxxxxxxxxxxxxxxxxxxxxxxxxxx %
b00000 )
b00000000000000000000000000000000 (
bxxxxx +
bxxxx *
0:
b00000 2
b00000000000000000000000000000000 1
bxxxxx 7
bxxxxx 6
bxxxxx ;
bxxxxx <
bxxxxx =
b00000000000000000000000000100000 8
b00000000000000000000000000000000 9
bxxxxxxxxxxxxxxxxxxxxxxxxxxxxxxxx /
bxxxx 3
bxxxxx 4
0!
0#
1"
0'
0-
1$
1.
x0
x5
x&
x,
$end
#3
1!
1'
1-
b00000 6
b11111 ;
b00000 7
b11111 =
#4
b0000 *
b00000 +
0,
05
b00000000000000000000000000000000 %
0&
00
b0000 3
b00000 4
b00000000000000000000000000000000 /
#6
1#
0!
0'
0-
#9
1!
1'
1-
#10
0#
#12
0!
0'
0-
#14
1#
#15
1!
1'
1-
#18
0#
0!
0'
0-
#21
1!
1'
1-
#22
1#
#24
0!
0'
0-
#26
0#
#27
1!
1'
1-
#30
1#
0!
0'
0-
#33
1!
1'
1-
#34
0#
#36
0!
0'
0-
#38
1#
#39
1!
1'
1-
#42
0#
0!
0'
0-
#45
1!
1'
1-
#46
1#
#48
0!
0'
0-
#50
0#
#51
1!
1'
1-
#54
1#
0!
0'
0-
0"
0$
0.
#57
1!
1'
1-
#58
0#
b00000000000010000000000000000000 %
1&
10
b00000000000010000000000000000000 /
b10011 ;
1:
b10011 2
b10011 )
b00000000000010000000000000000000 1
b00000000000010000000000000000000 (
b10100 7
b11111 <
#60
0!
0'
0-
#62
1#
#63
1!
1'
1-
#64
b10010011001110111011010000010001 %
b10010011001110111011010000010001 /
b00000 ;
b00000 2
b00000 )
b00000000000000000000000000000001 1
b00000000000000000000000000000001 (
b00001 7
#65
b10100 6
b10100 ;
b10100 2
b10100 )
b00000000000100000000000000000000 1
b00000000000100000000000000000000 (
b10101 7
b10011 <
#66
0#
0!
0'
0-
#69
1!
1'
1-
#70
1#
b00010000000000000000000000000000 %
0&
00
b00010000000000000000000000000000 /
b11100 ;
b11100 2
b11100 )
b00010000000000000000000000000000 1
b00010000000000000000000000000000 (
b11101 7
#71
b10101 6
b10100 <
#72
0!
0'
0-
#74
0#
#75
1!
1'
1-
#76
b00000000000000000000000000000100 %
b00000000000000000000000000000100 /
b00010 ;
b00010 2
b00010 )
b00000000000000000000000000000100 1
b00000000000000000000000000000100 (
b00011 7
#78
1#
0!
0'
0-
#81
1!
1'
1-
#82
0#
b00000000000000000010000000000000 %
b00000000000000000010000000000000 /
b01101 ;
b01101 2
b01101 )
b00000000000000000010000000000000 1
b00000000000000000010000000000000 (
b01110 7
#84
0!
0'
0-
#86
1#
#87
1!
1'
1-
#88
b00000000000000000000000000000000 %
1&
10
1,
15
b00000000000000000000000000000000 /
b10100 ;
0:
b00000 2
b00000 )
b00000000000000000000000000000000 1
b00000000000000000000000000000000 (
b10101 7
b10100 =
#90
0#
0!
0'
0-
#93
1!
1'
1-
#94
1#
b11111111111111111111111111111111 %
0&
00
b11111111111111111111111111111111 /
b10101 ;
1:
b10101 2
b10101 )
b00000000001000000000000000000000 1
b00000000001000000000000000000000 (
b10110 7
#96
0!
0'
0-
#98
0#
#99
1!
1'
1-
#100
b00100000000000000000000000000000 %
b00100000000000000000000000000000 /
b11101 ;
b11101 2
b11101 )
b00100000000000000000000000000000 1
b00100000000000000000000000000000 (
b11110 7
#102
1#
0!
0'
0-
#105
1!
1'
1-
#106
0#
0,
05
b11111111111111111111111111111111 %
b11111111111111111111111111111111 /
b10101 ;
b10101 2
b10101 )
b00000000001000000000000000000000 1
b00000000001000000000000000000000 (
b10110 7
#108
0!
0'
0-
#110
1#
#111
1!
1'
1-
#112
b00110001011001011001000101100111 %
b00110001011001011001000101100111 /
#114
0#
0!
0'
0-
#117
1!
1'
1-
#118
1#
b00100000000000000000000000000000 %
b00100000000000000000000000000000 /
b11101 ;
b11101 2
b11101 )
b00100000000000000000000000000000 1
b00100000000000000000000000000000 (
b11110 7
#120
0!
0'
0-
#122
0#
#123
1!
1'
1-
#124
b11111011110101011110111001000010 %
1&
10
b11111011110101011110111001000010 /
b10110 ;
b10110 2
b10110 )
b00000000010000000000000000000000 1
b00000000010000000000000000000000 (
b10111 7
#126
1#
0!
0'
0-
#129
1!
1'
1-
#130
0#
b00000000000000000001000000000000 %
0&
00
b00000000000000000001000000000000 /
b01100 ;
b01100 2
b01100 )
b00000000000000000001000000000000 1
b00000000000000000001000000000000 (
b01101 7
#131
b10111 6
b10110 <
#132
0!
0'
0-
#134
1#
#135
1!
1'
1-
#136
b00000000000000010000000000000000 %
1&
10
b00000000000000010000000000000000 /
b10000 ;
b10000 2
b10000 )
b00000000000000010000000000000000 1
b00000000000000010000000000000000 (
b10001 7
#138
0#
0!
0'
0-
#141
1!
1'
1-
#142
1#
b00000000000000000000000000000100 %
0&
00
b00000000000000000000000000000100 /
b00010 ;
b00010 2
b00010 )
b00000000000000000000000000000100 1
b00000000000000000000000000000100 (
b00011 7
#143
b10001 6
b10000 <
#144
0!
0'
0-
#146
0#
#147
1!
1'
1-
#148
b00000000000000000000001000000000 %
b00000000000000000000001000000000 /
b01001 ;
b01001 2
b01001 )
b00000000000000000000001000000000 1
b00000000000000000000001000000000 (
b01010 7
#150
1#
0!
0'
0-
#153
1!
1'
1-
#154
0#
b00000000000000010000000000000000 %
b00000000000000010000000000000000 /
b10000 ;
0:
b00000 2
b00000 )
b00000000000000000000000000000000 1
b00000000000000000000000000000000 (
b10001 7
b10000 =
#156
0!
0'
0-
#158
1#
#159
1!
1'
1-
#160
b00000000000000000000000000000000 %
1&
10
b00000000000000000000000000000000 /
#162
0#
0!
0'
0-
#165
1!
1'
1-
#166
1#
b00000000000100000000000000000000 %
b00000000000100000000000000000000 /
b10100 ;
1:
b10100 2
b10100 )
b00000000000100000000000000000000 1
b00000000000100000000000000000000 (
b10101 7
#168
0!
0'
0-
#170
0#
#171
1!
1'
1-
#172
b00000000100000000000000000000000 %
b00000000100000000000000000000000 /
b10111 ;
b10111 2
b10111 )
b00000000100000000000000000000000 1
b00000000100000000000000000000000 (
b11000 7
#173
b10101 6
b10100 <
#174
1#
0!
0'
0-
#177
1!
1'
1-
#178
0#
b1111 *
b11111 +
1,
15
b00000000000000000100000000000000 %
0&
00
b1111 3
b11111 4
b00000000000000000100000000000000 /
b01110 ;
b01110 2
b01110 )
b00000000000000000100000000000000 1
b00000000000000000100000000000000 (
b01111 7
#179
b11000 6
b10111 <
#180
0!
0'
0-
#182
1#
#183
1!
1'
1-
#184
b00000000000000100000000000000000 %
b0000 *
b10001 +
b00000000000000100000000000000000 /
b0000 3
b10001 4
b10001 ;
b10001 2
b10001 )
b00000000000000100000000000000000 1
b00000000000000100000000000000000 (
b10010 7
#186
0#
0!
0'
0-
#189
1!
1'
1-
#190
1#
b00000 +
0,
05
b00000000000000000000000000001000 %
b00000 4
b00000000000000000000000000001000 /
b00011 ;
b00011 2
b00011 )
b00000000000000000000000000001000 1
b00000000000000000000000000001000 (
b00100 7
#192
0!
0'
0-
#194
0#
#195
1!
1'
1-
#196
b10010011110001101100011101111011 %
1&
10
b10010011110001101100011101111011 /
b11000 ;
b11000 2
b11000 )
b00000001000000000000000000000000 1
b00000001000000000000000000000000 (
b11001 7
#198
1#
0!
0'
0-
#201
1!
1'
1-
#202
0#
b00000000100000000000000000000000 %
0&
00
b00000000100000000000000000000000 /
b10111 ;
0:
b00000 2
b00000 )
b00000000000000000000000000000000 1
b00000000000000000000000000000000 (
b11000 7
b10111 =
#203
b11001 6
b11000 ;
b11001 7
b11000 =
#204
0!
0'
0-
#206
1#
#207
1!
1'
1-
#208
b00000000000000000000000000010000 %
1&
10
b00000000000000000000000000010000 /
b00100 ;
1:
b00100 2
b00100 )
b00000000000000000000000000010000 1
b00000000000000000000000000010000 (
b00101 7
b11000 <
#210
0#
0!
0'
0-
#213
1!
1'
1-
#214
1#
b1111 *
b10100 +
1,
15
b00000000000001000000000000000000 %
0&
00
b1111 3
b10100 4
b00000000000001000000000000000000 /
b10010 ;
b10010 2
b10010 )
b00000000000001000000000000000000 1
b00000000000001000000000000000000 (
b10011 7
#215
b00101 6
b00100 <
#216
0!
0'
0-
#218
0#
#219
1!
1'
1-
#220
b00000001000000000000000000000000 %
1&
10
b0000 *
b00000 +
0,
05
b00000001000000000000000000000000 /
b0000 3
b00000 4
b11000 ;
b11000 2
b11000 )
b00000001000000000000000000000000 1
b00000001000000000000000000000000 (
b11001 7
#222
1#
0!
0'
0-
#225
1!
1'
1-
#226
0#
b00000100000000000000000000000000 %
0&
00
b00000100000000000000000000000000 /
b11010 ;
b11010 2
b11010 )
b00000100000000000000000000000000 1
b00000100000000000000000000000000 (
b11011 7
#227
b11001 6
b11000 <
#228
0!
0'
0-
#230
1#
#231
1!
1'
1-
#232
b10010100101101001010011111110100 %
b10010100101101001010011111110100 /
#234
0#
0!
0'
0-
#237
1!
1'
1-
#238
1#
b00000000000000000000000000010000 %
b00000000000000000000000000010000 /
b11000 ;
0:
b00000 2
b00000 )
b00000000000000000000000000000000 1
b00000000000000000000000000000000 (
b11001 7
#240
0!
0'
0-
#242
0#
#243
1!
1'
1-
#244
b11001000110111100100011111010111 %
b1011 *
b00110 +
1,
15
b11001000110111100100011111010111 /
b1011 3
b00110 4
b11011 ;
1:
b11011 2
b11011 )
b00001000000000000000000000000000 1
b00001000000000000000000000000000 (
b11100 7
#246
1#
0!
0'
0-
#249
1!
1'
1-
#250
0#
b0000 *
b00000 +
0,
05
b11111111111111111111111111111111 %
b0000 3
b00000 4
b11111111111111111111111111111111 /
b11001 ;
b11001 2
b11001 )
b00000010000000000000000000000000 1
b00000010000000000000000000000000 (
b11010 7
#252
0!
0'
0-
#254
1#
#255
1!
1'
1-
#256
b00000000000000000000000001000000 %
b00000000000000000000000001000000 /
b00110 ;
b00110 2
b00110 )
b00000000000000000000000001000000 1
b00000000000000000000000001000000 (
b00111 7
#258
0#
0!
0'
0-
#261
1!
1'
1-
#262
1#
b00000000000000000001000000000000 %
b00000000000000000001000000000000 /
b01100 ;
b01100 2
b01100 )
b00000000000000000001000000000000 1
b00000000000000000001000000000000 (
b01101 7
#264
0!
0'
0-
#266
0#
#267
1!
1'
1-
#268
b10010111110011000111110100000001 %
b10010111110011000111110100000001 /
b11001 ;
b11001 2
b11001 )
b00000010000000000000000000000000 1
b00000010000000000000000000000000 (
b11010 7
#270
1#
0!
0'
0-
#273
1!
1'
1-
#274
0#
b1001 *
b01001 +
1,
15
b00000010000000000000000000000000 %
b1001 3
b01001 4
b00000010000000000000000000000000 /
#276
0!
0'
0-
#278
1#
#279
1!
1'
1-
#280
b10111111010101000100101110010001 %
b0000 *
b00000 +
0,
05
b10111111010101000100101110010001 /
b0000 3
b00000 4
#282
0#
0!
0'
0-
#285
1!
1'
1-
#286
1#
b00100110110101011011100100100101 %
b00100110110101011011100100100101 /
#288
0!
0'
0-
#290
0#
#291
1!
1'
1-
#292
b01000000011011100101011000011100 %
b01000000011011100101011000011100 /
b11110 ;
b11110 2
b11110 )
b01000000000000000000000000000000 1
b01000000000000000000000000000000 (
b11111 7
#294
1#
0!
0'
0-
#297
1!
1'
1-
#298
0#
b00000000001000000000000000000000 %
b00000000001000000000000000000000 /
b10101 ;
b10101 2
b10101 )
b00000000001000000000000000000000 1
b00000000001000000000000000000000 (
b10110 7
#300
0!
0'
0-
#302
1#
#303
1!
1'
1-
#304
b00000100000000000000000000000000 %
1&
10
b0010 *
b11010 +
1,
15
b00000100000000000000000000000000 /
b0010 3
b11010 4
b11010 ;
b11010 2
b11010 )
b00000100000000000000000000000000 1
b00000100000000000000000000000000 (
b11011 7
#306
0#
0!
0'
0-
#309
1!
1'
1-
#310
1#
b0000 *
b00000 +
0,
05
b00000000100000000000000000000000 %
b0000 3
b00000 4
b00000000100000000000000000000000 /
b10111 ;
b10111 2
b10111 )
b00000000100000000000000000000000 1
b00000000100000000000000000000000 (
b11000 7
#311
b11011 6
b11010 <
#312
0!
0'
0-
#314
0#
#315
1!
1'
1-
#316
b00000000000000000000000100000000 %
b00000000000000000000000100000000 /
b01000 ;
b01000 2
b01000 )
b00000000000000000000000100000000 1
b00000000000000000000000100000000 (
b01001 7
#317
b11000 6
b10111 <
#318
1#
0!
0'
0-
#321
1!
1'
1-
#322
0#
0&
00
#323
b01001 6
0:
b00000 2
b00000 )
b00000000000000000000000000000000 1
b00000000000000000000000000000000 (
b01000 =
#324
0!
0'
0-
#326
1#
#327
1!
1'
1-
#328
b10010111001000100111101010111000 %
b10010111001000100111101010111000 /
b01001 ;
1:
b01001 2
b01001 )
b00000000000000000000001000000000 1
b00000000000000000000001000000000 (
b01010 7
b01000 <
#330
0#
0!
0'
0-
#333
1!
1'
1-
#334
1#
b0001 *
b01011 +
1,
15
b00000000000000010000000000000000 %
1&
10
b0001 3
b01011 4
b00000000000000010000000000000000 /
b10000 ;
b10000 2
b10000 )
b00000000000000010000000000000000 1
b00000000000000010000000000000000 (
b10001 7
#336
0!
0'
0-
#338
0#
#339
1!
1'
1-
#340
b00001000000000000000000000000000 %
0&
00
b0000 *
b00000 +
0,
05
b00001000000000000000000000000000 /
b0000 3
b00000 4
b11011 ;
b11011 2
b11011 )
b00001000000000000000000000000000 1
b00001000000000000000000000000000 (
b11100 7
#341
b10001 6
b10000 <
#342
1#
0!
0'
0-
#345
1!
1'
1-
#346
0#
b00000000000000000000000001000000 %
b00000000000000000000000001000000 /
b00110 ;
b00110 2
b00110 )
b00000000000000000000000001000000 1
b00000000000000000000000001000000 (
b00111 7
#348
0!
0'
0-
#350
1#
#351
1!
1'
1-
#352
b00000000000000010000000000000000 %
1&
10
b00000000000000010000000000000000 /
b10000 ;
0:
b00000 2
b00000 )
b00000000000000000000000000000000 1
b00000000000000000000000000000000 (
b10001 7
b10000 =
#354
0#
0!
0'
0-
#357
1!
1'
1-
#358
1#
b00111110001111111110101110011001 %
0&
00
b00111110001111111110101110011001 /
b10001 ;
1:
b10001 2
b10001 )
b00000000000000100000000000000000 1
b00000000000000100000000000000000 (
b10010 7
#360
0!
0'
0-
#362
0#
#363
1!
1'
1-
#364
b00000000000000000000000000001000 %
b10001 +
1,
15
b00000000000000000000000000001000 /
b10001 4
b00011 ;
b00011 2
b00011 )
b00000000000000000000000000001000 1
b00000000000000000000000000001000 (
b00100 7
#366
1#
0!
0'
0-
#369
1!
1'
1-
#370
0#
b00000 +
0,
05
b00000000000000000000000000000000 %
b00000 4
b00000000000000000000000000000000 /
b10000 ;
0:
b00000 2
b00000 )
b00000000000000000000000000000000 1
b00000000000000000000000000000000 (
b10001 7
#372
0!
0'
0-
#374
1#
#375
1!
1'
1-
#376
b01000000000000000000000000000000 %
b01000000000000000000000000000000 /
b11110 ;
1:
b11110 2
b11110 )
b01000000000000000000000000000000 1
b01000000000000000000000000000000 (
b11111 7
#378
0#
0!
0'
0-
#381
1!
1'
1-
#382
1#
b00000000000000000000001000000000 %
b00000000000000000000001000000000 /
b01001 ;
b01001 2
b01001 )
b00000000000000000000001000000000 1
b00000000000000000000001000000000 (
b01010 7
#384
0!
0'
0-
#386
0#
#387
1!
1'
1-
#388
b10000011000101111101111111100001 %
1&
10
b10000011000101111101111111100001 /
b10001 ;
b10001 2
b10001 )
b00000000000000100000000000000000 1
b00000000000000100000000000000000 (
b10010 7
#390
1#
0!
0'
0-
#393
1!
1'
1-
#394
0#
b1111 *
b01000 +
1,
15
b10101011111011010110011011110010 %
0&
00
b1111 3
b01000 4
b10101011111011010110011011110010 /
b10010 ;
b10010 2
b10010 )
b00000000000001000000000000000000 1
b00000000000001000000000000000000 (
b10011 7
#395
b10010 6
b10001 <
#396
0!
0'
0-
#398
1#
#399
1!
1'
1-
#400
b10111010111101000110010011101101 %
b0000 *
b00000 +
0,
05
b10111010111101000110010011101101 /
b0000 3
b00000 4
#402
0#
0!
0'
0-
#405
1!
1'
1-
#406
1#
b00000000000000000000000000000010 %
b00000000000000000000000000000010 /
b00001 ;
b00001 2
b00001 )
b00000000000000000000000000000010 1
b00000000000000000000000000000010 (
b00010 7
#408
0!
0'
0-
#410
0#
#411
1!
1'
1-
#412
b00000000000000000000000100000000 %
1&
10
b00000000000000000000000100000000 /
b01000 ;
b01000 2
b01000 )
b00000000000000000000000100000000 1
b00000000000000000000000100000000 (
b01001 7
#414
1#
0!
0'
0-
#417
1!
1'
1-
#418
0#
b00000000000000000000001000000000 %
0&
00
b00000000000000000000001000000000 /
b01001 ;
b01001 2
b01001 )
b00000000000000000000001000000000 1
b00000000000000000000001000000000 (
b01010 7
#419
b01001 6
b01000 <
#420
0!
0'
0-
#422
1#
#423
1!
1'
1-
#424
b00000000000000000010000000000000 %
1&
10
b0010 *
b00001 +
1,
15
b00000000000000000010000000000000 /
b0010 3
b00001 4
b01101 ;
b01101 2
b01101 )
b00000000000000000010000000000000 1
b00000000000000000010000000000000 (
b01110 7
#426
0#
0!
0'
0-
#429
1!
1'
1-
#430
1#
b0000 *
b00000 +
0,
05
b00000000000000000000000000001000 %
b0000 3
b00000 4
b00000000000000000000000000001000 /
b00011 ;
b00011 2
b00011 )
b00000000000000000000000000001000 1
b00000000000000000000000000001000 (
b00100 7
#431
b01110 6
b01101 <
#432
0!
0'
0-
#434
0#
#435
1!
1'
1-
#436
b00000000000000000100000000000000 %
b00000000000000000100000000000000 /
b01110 ;
b01110 2
b01110 )
b00000000000000000100000000000000 1
b00000000000000000100000000000000 (
b01111 7
#437
b00100 6
b00011 <
#438
1#
0!
0'
0-
#441
1!
1'
1-
#442
0#
b11100111100011011111000101101110 %
0&
00
b11100111100011011111000101101110 /
b00101 ;
b00101 2
b00101 )
b00000000000000000000000000100000 1
b00000000000000000000000000100000 (
b00110 7
#443
b01111 6
b01111 ;
b01111 2
b01111 )
b00000000000000001000000000000000 1
b00000000000000001000000000000000 (
b10000 7
b01110 <
#444
0!
0'
0-
#446
1#
#447
1!
1'
1-
#448
b10111001000110110001011110010100 %
b10111001000110110001011110010100 /
b10000 ;
b10000 2
b10000 )
b00000000000000010000000000000000 1
b00000000000000010000000000000000 (
b10001 7
#450
0#
0!
0'
0-
#453
1!
1'
1-
#454
1#
b1001 *
b10001 +
1,
15
b00000000000000010000000000000000 %
b1001 3
b10001 4
b00000000000000010000000000000000 /
#456
0!
0'
0-
#458
0#
#459
1!
1'
1-
#460
b10000000000000000000000000000000 %
b0000 *
b00000 +
0,
05
b10000000000000000000000000000000 /
b0000 3
b00000 4
b11111 ;
b11111 2
b11111 )
b10000000000000000000000000000000 1
b10000000000000000000000000000000 (
b00000 7
#462
1#
0!
0'
0-
#465
1!
1'
1-
#466
0#
b00000000000000000000000100000000 %
b00000000000000000000000100000000 /
b01110 ;
0:
b00000 2
b00000 )
b00000000000000000000000000000000 1
b00000000000000000000000000000000 (
b01111 7
b01110 =
#468
0!
0'
0-
#470
1#
#471
1!
1'
1-
#472
b00000000000000000000000000000000 %
b00000000000000000000000000000000 /
#474
0#
0!
0'
0-
#477
1!
1'
1-
#478
1#
b11111111111111111111111111111111 %
1&
10
b11111111111111111111111111111111 /
b01111 ;
1:
b01111 2
b01111 )
b00000000000000001000000000000000 1
b00000000000000001000000000000000 (
b10000 7
#480
0!
0'
0-
#482
0#
#483
1!
1'
1-
#484
b00000000100000000000000000000000 %
b0101 *
b11101 +
1,
15
b00000000100000000000000000000000 /
b0101 3
b11101 4
b10111 ;
b10111 2
b10111 )
b00000000100000000000000000000000 1
b00000000100000000000000000000000 (
b11000 7
#485
b10000 6
b01111 <
#486
1#
0!
0'
0-
#489
1!
1'
1-
#490
0#
b0000 *
b00000 +
0,
05
b00010000000000000000000000000000 %
0&
00
b0000 3
b00000 4
b00010000000000000000000000000000 /
b11100 ;
b11100 2
b11100 )
b00010000000000000000000000000000 1
b00010000000000000000000000000000 (
b11101 7
#491
b11000 6
b10111 <
#492
0!
0'
0-
#494
1#
#495
1!
1'
1-
#496
b10101100001111011010111001011111 %
b10101100001111011010111001011111 /
b11010 ;
b11010 2
b11010 )
b00000100000000000000000000000000 1
b00000100000000000000000000000000 (
b11011 7
#498
0#
0!
0'
0-
#501
1!
1'
1-
#502
1#
b00000000000000010000000000000000 %
b00000000000000010000000000000000 /
b10000 ;
b10000 2
b10000 )
b00000000000000010000000000000000 1
b00000000000000010000000000000000 (
b10001 7
#504
0!
0'
0-
#506
0#
#507
1!
1'
1-
#508
b00000010000000000000000000000000 %
b00000010000000000000000000000000 /
b11001 ;
b11001 2
b11001 )
b00000010000000000000000000000000 1
b00000010000000000000000000000000 (
b11010 7
#510
1#
0!
0'
0-
#513
1!
1'
1-
#514
0#
b10110 +
1,
15
b00011010001100001110001111100011 %
b10110 4
b00011010001100001110001111100011 /
#516
0!
0'
0-
#518
1#
#519
1!
1'
1-
#520
b11010101111010111000111110011001 %
b00000 +
0,
05
b11010101111010111000111110011001 /
b00000 4
b11000 ;
b11000 2
b11000 )
b00000001000000000000000000000000 1
b00000001000000000000000000000000 (
b11001 7
#522
0#
0!
0'
0-
#525
1!
1'
1-
#526
1#
b00000000000000000000000010000000 %
b00000000000000000000000010000000 /
b00111 ;
b00111 2
b00111 )
b00000000000000000000000010000000 1
b00000000000000000000000010000000 (
b01000 7
#528
0!
0'
0-
#530
0#
#531
1!
1'
1-
#532
b00000000000000000000000000000000 %
1&
10
b00000000000000000000000000000000 /
b10111 ;
0:
b00000 2
b00000 )
b00000000000000000000000000000000 1
b00000000000000000000000000000000 (
b11000 7
b10111 =
#534
1#
0!
0'
0-
#537
1!
1'
1-
#538
0#
b00101011010101011001011010111110 %
0&
00
b00101011010101011001011010111110 /
b11000 ;
1:
b11000 2
b11000 )
b00000001000000000000000000000000 1
b00000001000000000000000000000000 (
b11001 7
#540
0!
0'
0-
#542
1#
#543
1!
1'
1-
#544
b00000000000000000000000000100000 %
b0101 *
b01000 +
1,
15
b00000000000000000000000000100000 /
b0101 3
b01000 4
b00101 ;
b00101 2
b00101 )
b00000000000000000000000000100000 1
b00000000000000000000000000100000 (
b00110 7
#546
0#
0!
0'
0-
#549
1!
1'
1-
#550
1#
b0000 *
b00000 +
0,
05
b01000000000000000000000000000000 %
b0000 3
b00000 4
b01000000000000000000000000000000 /
b11110 ;
b11110 2
b11110 )
b01000000000000000000000000000000 1
b01000000000000000000000000000000 (
b11111 7
#552
0!
0'
0-
#554
0#
#555
1!
1'
1-
#556
b00000000000000000000000000000000 %
1&
10
b00000000000000000000000000000000 /
b10111 ;
0:
b00000 2
b00000 )
b00000000000000000000000000000000 1
b00000000000000000000000000000000 (
b11000 7
#558
1#
0!
0'
0-
#561
1!
1'
1-
#562
0#
b00000000000001000000000000000000 %
0&
00
b00000000000001000000000000000000 /
b10010 ;
1:
b10010 2
b10010 )
b00000000000001000000000000000000 1
b00000000000001000000000000000000 (
b10011 7
#564
0!
0'
0-
#566
1#
#567
1!
1'
1-
#568
b00100000000000000000000000000000 %
b00100000000000000000000000000000 /
b11101 ;
b11101 2
b11101 )
b00100000000000000000000000000000 1
b00100000000000000000000000000000 (
b11110 7
#570
0#
0!
0'
0-
#573
1!
1'
1-
#574
1#
b00101 +
1,
15
b00000000000000000000100000000000 %
b00101 4
b00000000000000000000100000000000 /
b01011 ;
b01011 2
b01011 )
b00000000000000000000100000000000 1
b00000000000000000000100000000000 (
b01100 7
#576
0!
0'
0-
#578
0#
#579
1!
1'
1-
#580
b11111111111111111111111111111111 %
1&
10
b00000 +
0,
05
b11111111111111111111111111111111 /
b00000 4
b11000 ;
b11000 2
b11000 )
b00000001000000000000000000000000 1
b00000001000000000000000000000000 (
b11001 7
#582
1#
0!
0'
0-
#585
1!
1'
1-
#586
0#
b01100110011000001011000101000011 %
0&
00
b01100110011000001011000101000011 /
b11001 ;
b11001 2
b11001 )
b00000010000000000000000000000000 1
b00000010000000000000000000000000 (
b11010 7
#587
b11001 6
b11000 <
#588
0!
0'
0-
#590
1#
#591
1!
1'
1-
#592
b00100100001111110010101110100111 %
b00100100001111110010101110100111 /
b11010 ;
b11010 2
b11010 )
b00000100000000000000000000000000 1
b00000100000000000000000000000000 (
b11011 7
#594
0#
0!
0'
0-
#597
1!
1'
1-
#598
1#
b00000000000100000000000000000000 %
b00000000000100000000000000000000 /
b10100 ;
b10100 2
b10100 )
b00000000000100000000000000000000 1
b00000000000100000000000000000000 (
b10101 7
#600
0!
0'
0-
#602
0#
#603
1!
1'
1-
#604
b00000000000000000000010000000000 %
1&
10
b1111 *
b01101 +
1,
15
b00000000000000000000010000000000 /
b1111 3
b01101 4
b01010 ;
b01010 2
b01010 )
b00000000000000000000010000000000 1
b00000000000000000000010000000000 (
b01011 7
#606
1#
0!
0'
0-
#609
1!
1'
1-
#610
0#
b0000 *
b00000 +
0,
05
b10000000000000000000000000000000 %
0&
00
b0000 3
b00000 4
b10000000000000000000000000000000 /
b11111 ;
b11111 2
b11111 )
b10000000000000000000000000000000 1
b10000000000000000000000000000000 (
b00000 7
#612
0!
0'
0-
#614
1#
#615
1!
1'
1-
#616
b00000000000000000001000000000000 %
b00000000000000000001000000000000 /
b01100 )
b00000000000000000001000000000000 (
#618
0#
0!
0'
0-
#621
1!
1'
1-
#622
1#
b00000000000000000010000000000000 %
1&
10
b00000000000000000010000000000000 /
b01101 )
b00000000000000000010000000000000 (
#624
0!
0'
0-
#626
0#
#627
1!
1'
1-
#628
b00000000000000000000000000000001 %
0&
00
b00000000000000000000000000000001 /
b00000 )
b00000000000000000000000000000001 (
#630
1#
0!
0'
0-
#633
1!
1'
1-
#634
0#
b1101 *
b00011 +
1,
15
b00000000000000000000000000010000 %
b1101 3
b00011 4
b00000000000000000000000000010000 /
b00100 )
b00000000000000000000000000010000 (
#636
0!
0'
0-
#638
1#
#639
1!
1'
1-
#640
b00000000000000000000000000000000 %
b0000 *
b00000 +
0,
05
b00000000000000000000000000000000 /
b0000 3
b00000 4
b00000 )
b00000000000000000000000000000000 (
#642
0#
0!
0'
0-
#645
1!
1'
1-
#646
1#
b00000100000000000000000000000000 %
b00000100000000000000000000000000 /
b11010 )
b00000100000000000000000000000000 (
#648
0!
0'
0-
#650
0#
#651
1!
1'
1-
#652
b11111111111111111111111111111111 %
b11111111111111111111111111111111 /
b01110 )
b00000000000000000100000000000000 (
#654
1#
0!
0'
0-
#657
1!
1'
1-
#658
0#
#660
0!
0'
0-
#662
1#
#663
1!
1'
1-
#664
b00000000000001000000000000000000 %
b1100 *
b00010 +
1,
15
b00000000000001000000000000000000 /
b1100 3
b00010 4
b10010 )
b00000000000001000000000000000000 (
#666
0#
0!
0'
0-
#669
1!
1'
1-
#670
1#
b0000 *
b00000 +
0,
05
b10000000000000000000000000000000 %
b0000 3
b00000 4
b10000000000000000000000000000000 /
b11111 )
b10000000000000000000000000000000 (
#672
0!
0'
0-
#674
0#
#675
1!
1'
1-
#676
b00000000000000000000001000000000 %
b00000000000000000000001000000000 /
b01001 )
b00000000000000000000001000000000 (
#678
1#
0!
0'
0-
#681
1!
1'
1-
#682
0#
b00101111001010100110000001111011 %
1&
10
b00101111001010100110000001111011 /
b01110 )
b00000000000000000100000000000000 (
#684
0!
0'
0-
#686
1#
#687
1!
1'
1-
#688
b10011111000010100110100001010110 %
b10011111000010100110100001010110 /
#689
b10001 )
b00000000000000100000000000000000 (
#690
0#
0!
0'
0-
#693
1!
1'
1-
#694
1#
b00000000000001000000000000000000 %
b00000000000001000000000000000000 /
b10010 )
b00000000000001000000000000000000 (
#696
0!
0'
0-
#698
0#
#699
1!
1'
1-
