Weighted_Round_Robin_IP_Full_Flow/OUTPUT/verif/weighted_round_robin_proj/run/testbench_weighted_round_robin_illegal_req_encoding_combined_test_test.vcd
$date
	Fri Sep  5 09:09:07 2025
$end

$version
	Synopsys VCS version W-2024.09_Full64
$end

$timescale
	1ns
$end

$comment Csum: 1 11bb74c8e4a897ed $end


$scope module weighted_round_robin_tb_top $end

$scope begin unnamed$$_0 $end
$upscope $end


$scope begin unnamed$$_vcs_0 $end
$upscope $end


$scope module clk_rst_if_inst $end
$var reg 1 ! clk $end
$var reg 1 " rst $end
$var reg 1 # clk_div $end
$upscope $end


$scope module rr_request_if_inst $end
$var reg 1 $ rst $end
$var reg 32 % req [31:0] $end
$var reg 1 & ack $end
$var reg 1 ' clk $end
$upscope $end


$scope module rr_grant_if_inst $end
$var reg 1 $ rst $end
$var reg 32 ( gnt_w [31:0] $end
$var reg 5 ) gnt_id [4:0] $end
$var reg 1 ' clk $end
$upscope $end


$scope module prio_update_if_inst $end
$var reg 1 $ rst $end
$var reg 4 * prio [3:0] $end
$var reg 5 + prio_id [4:0] $end
$var reg 1 , prio_upt $end
$var reg 1 ' clk $end
$upscope $end


$scope module weighted_round_robin_inst $end
$var wire 1 - clk $end
$var wire 1 . rst $end
$var wire 32 / req [31:0] $end
$var wire 1 0 ack $end
$var reg 32 1 gnt_w [31:0] $end
$var reg 5 2 gnt_id [4:0] $end
$var wire 4 3 prio [3:0] $end
$var wire 5 4 prio_id [4:0] $end
$var wire 1 5 prio_upt $end
$var reg 5 6 pointer_r [4:0] $end
$var reg 5 7 pointer_n [4:0] $end

$scope begin wrr_next_state $end
$var reg 32 8 k [31:0] $end
$var reg 32 9 j [31:0] $end
$var reg 1 : found $end
$var reg 5 ; idx [4:0] $end

$scope begin ack_set_loop $end

$scope begin ack_set_loop_req $end
$upscope $end

$upscope $end


$scope begin match_found $end

$scope begin update_credits $end
$var reg 5 < index [4:0] $end
$upscope $end

$upscope $end


$scope begin update_credits $end
$var reg 5 = index [4:0] $end
$upscope $end

$upscope $end


$scope begin unnamed$$_0 $end
$upscope $end


$scope begin unnamed$$_1 $end
$upscope $end

$upscope $end

$upscope $end

$enddefinitions $end

#0
$dumpvars
bxxxxxxxxxxxxxxxxxxxxxxxxxxxxxxxx %
b00000 )
b00000000000000000000000000000000 (
bxxxxx +
bxxxx *
0:
b00000 2
b00000000000000000000000000000000 1
bxxxxx 7
bxxxxx 6
bxxxxx ;
bxxxxx <
bxxxxx =
b00000000000000000000000000100000 8
b00000000000000000000000000000000 9
bxxxxxxxxxxxxxxxxxxxxxxxxxxxxxxxx /
bxxxx 3
bxxxxx 4
0!
0#
1"
0'
0-
1$
1.
x0
x5
x&
x,
$end
#3
1!
1'
1-
b00000 6
b11111 ;
b00000 7
b11111 =
#4
b0000 *
b00000 +
0,
05
b00000000000000000000000000000000 %
0&
00
b0000 3
b00000 4
b00000000000000000000000000000000 /
#6
1#
0!
0'
0-
#9
1!
1'
1-
#10
0#
#12
0!
0'
0-
#14
1#
#15
1!
1'
1-
#18
0#
0!
0'
0-
#21
1!
1'
1-
#22
1#
#24
0!
0'
0-
#26
0#
#27
1!
1'
1-
#30
1#
0!
0'
0-
#33
1!
1'
1-
#34
0#
#36
0!
0'
0-
#38
1#
#39
1!
1'
1-
#42
0#
0!
0'
0-
#45
1!
1'
1-
#46
1#
#48
0!
0'
0-
#50
0#
#51
1!
1'
1-
#54
1#
0!
0'
0-
0"
0$
0.
#57
1!
1'
1-
#58
0#
#60
0!
0'
0-
#62
1#
#63
1!
1'
1-
#66
0#
0!
0'
0-
#69
1!
1'
1-
#70
1#
#72
0!
0'
0-
#74
0#
#75
1!
1'
1-
#78
1#
0!
0'
0-
#81
1!
1'
1-
#82
0#
#84
0!
0'
0-
#86
1#
#87
1!
1'
1-
#90
0#
0!
0'
0-
#93
1!
1'
1-
#94
1#
#96
0!
0'
0-
#98
0#
#99
1!
1'
1-
#102
1#
0!
0'
0-
#105
1!
1'
1-
#106
0#
#108
0!
0'
0-
#110
1#
#111
1!
1'
1-
#112
b11111111111111111111111111111111 %
b11111111111111111111111111111111 /
b00000 ;
1:
b00000000000000000000000000000001 1
b00000000000000000000000000000001 (
b00001 7
b11111 <
#114
0#
0!
0'
0-
#117
1!
1'
1-
#118
1#
#120
0!
0'
0-
#122
0#
#123
1!
1'
1-
#126
1#
0!
0'
0-
#129
1!
1'
1-
#130
0#
#132
0!
0'
0-
#134
1#
#135
1!
1'
1-
#136
b00000000000000000000000000001100 %
b00000000000000000000000000001100 /
b00010 ;
b00010 2
b00010 )
b00000000000000000000000000000100 1
b00000000000000000000000000000100 (
b00011 7
#138
0#
0!
0'
0-
#141
1!
1'
1-
#142
1#
b00000000000000000000000000001010 %
b00000000000000000000000000001010 /
b00001 ;
b00001 2
b00001 )
b00000000000000000000000000000010 1
b00000000000000000000000000000010 (
b00010 7
#144
0!
0'
0-
#146
0#
#147
1!
1'
1-
#148
b00000000000000000000000000000011 %
b00000000000000000000000000000011 /
b00000 ;
b00000 2
b00000 )
b00000000000000000000000000000001 1
b00000000000000000000000000000001 (
b00001 7
#150
1#
0!
0'
0-
#153
1!
1'
1-
#154
0#
b00000000000000000000000000001111 %
b00000000000000000000000000001111 /
#156
0!
0'
0-
#158
1#
#159
1!
1'
1-
#160
b10000000000000000000000000000001 %
b10000000000000000000000000000001 /
#162
0#
0!
0'
0-
#165
1!
1'
1-
#166
1#
b11011111111100011110000110101100 %
b11011111111100011110000110101100 /
b00010 ;
b00010 2
b00010 )
b00000000000000000000000000000100 1
b00000000000000000000000000000100 (
b00011 7
#168
0!
0'
0-
#170
0#
#171
1!
1'
1-
#172
b01110111001101111110110001000101 %
b01110111001101111110110001000101 /
b00000 ;
b00000 2
b00000 )
b00000000000000000000000000000001 1
b00000000000000000000000000000001 (
b00001 7
#174
1#
0!
0'
0-
#177
1!
1'
1-
#178
0#
b00011010010101011110100001000111 %
b00011010010101011110100001000111 /
#180
0!
0'
0-
#182
1#
#183
1!
1'
1-
#184
b10010011011011111000100010000100 %
b10010011011011111000100010000100 /
b00010 ;
b00010 2
b00010 )
b00000000000000000000000000000100 1
b00000000000000000000000000000100 (
b00011 7
#186
0#
0!
0'
0-
#189
1!
1'
1-
#190
1#
b00110001011001011001100101100101 %
b00110001011001011001100101100101 /
b00000 ;
b00000 2
b00000 )
b00000000000000000000000000000001 1
b00000000000000000000000000000001 (
b00001 7
#192
0!
0'
0-
#194
0#
#195
1!
1'
1-
#196
b11011011101001110101100101011111 %
b11011011101001110101100101011111 /
#198
1#
0!
0'
0-
#201
1!
1'
1-
#202
0#
b01101110011111001111101100011101 %
b01101110011111001111101100011101 /
#204
0!
0'
0-
#206
1#
#207
1!
1'
1-
#208
b11101100010111100001011100001001 %
b11101100010111100001011100001001 /
#210
0#
0!
0'
0-
#213
1!
1'
1-
#214
1#
b00110110111111011110000010110111 %
b00110110111111011110000010110111 /
#216
0!
0'
0-
#218
0#
#219
1!
1'
1-
#220
b00110100100010001011100100010100 %
b00110100100010001011100100010100 /
b00010 ;
b00010 2
b00010 )
b00000000000000000000000000000100 1
b00000000000000000000000000000100 (
b00011 7
#222
1#
0!
0'
0-
#225
1!
1'
1-
#226
0#
b00111111000000110110110100111010 %
b00111111000000110110110100111010 /
b00001 ;
b00001 2
b00001 )
b00000000000000000000000000000010 1
b00000000000000000000000000000010 (
b00010 7
#228
0!
0'
0-
#230
1#
#231
1!
1'
1-
#232
b11100000110111101111010011011111 %
b11100000110111101111010011011111 /
b00000 ;
b00000 2
b00000 )
b00000000000000000000000000000001 1
b00000000000000000000000000000001 (
b00001 7
#234
0#
0!
0'
0-
#237
1!
1'
1-
#238
1#
b01111111011100011000000101100010 %
b01111111011100011000000101100010 /
b00001 ;
b00001 2
b00001 )
b00000000000000000000000000000010 1
b00000000000000000000000000000010 (
b00010 7
#240
0!
0'
0-
#242
0#
#243
1!
1'
1-
#244
b11110001100111011010000100011000 %
b11110001100111011010000100011000 /
b00011 ;
b00011 2
b00011 )
b00000000000000000000000000001000 1
b00000000000000000000000000001000 (
b00100 7
#246
1#
0!
0'
0-
#249
1!
1'
1-
#250
0#
b01111010111100101100100000100000 %
b01111010111100101100100000100000 /
b00101 ;
b00101 2
b00101 )
b00000000000000000000000000100000 1
b00000000000000000000000000100000 (
b00110 7
#252
0!
0'
0-
#254
1#
#255
1!
1'
1-
#256
b10110110111100010010011001100111 %
b10110110111100010010011001100111 /
b00000 ;
b00000 2
b00000 )
b00000000000000000000000000000001 1
b00000000000000000000000000000001 (
b00001 7
#258
0#
0!
0'
0-
#261
1!
1'
1-
#262
1#
b01100100010101011101010011111101 %
b01100100010101011101010011111101 /
#264
0!
0'
0-
#266
0#
#267
1!
1'
1-
#268
b11010011100000111000011001100001 %
b11010011100000111000011001100001 /
#270
1#
0!
0'
0-
#273
1!
1'
1-
#274
0#
b11111111100010110010100100111110 %
b11111111100010110010100100111110 /
b00001 ;
b00001 2
b00001 )
b00000000000000000000000000000010 1
b00000000000000000000000000000010 (
b00010 7
#276
0!
0'
0-
#278
1#
#279
1!
1'
1-
#280
b01100010110010111001001111100100 %
b01100010110010111001001111100100 /
b00010 ;
b00010 2
b00010 )
b00000000000000000000000000000100 1
b00000000000000000000000000000100 (
b00011 7
#282
0#
0!
0'
0-
#285
1!
1'
1-
#286
1#
b00011011100001011010000011011110 %
b00011011100001011010000011011110 /
b00001 ;
b00001 2
b00001 )
b00000000000000000000000000000010 1
b00000000000000000000000000000010 (
b00010 7
#288
0!
0'
0-
#290
0#
#291
1!
1'
1-
#292
b10100111010010101100001010101011 %
b10100111010010101100001010101011 /
b00000 ;
b00000 2
b00000 )
b00000000000000000000000000000001 1
b00000000000000000000000000000001 (
b00001 7
#294
1#
0!
0'
0-
#297
1!
1'
1-
#298
0#
b11011011110101001110011101001010 %
b11011011110101001110011101001010 /
b00001 ;
b00001 2
b00001 )
b00000000000000000000000000000010 1
b00000000000000000000000000000010 (
b00010 7
#300
0!
0'
0-
#302
1#
#303
1!
1'
1-
#304
b01010110100111110111011110001011 %
b01010110100111110111011110001011 /
b00000 ;
b00000 2
b00000 )
b00000000000000000000000000000001 1
b00000000000000000000000000000001 (
b00001 7
#306
0#
0!
0'
0-
#309
1!
1'
1-
#310
1#
b01101101011000001111010101111101 %
b01101101011000001111010101111101 /
#312
0!
0'
0-
#314
0#
#315
1!
1'
1-
#316
b11111010000110101010110001011110 %
b11111010000110101010110001011110 /
b00001 ;
b00001 2
b00001 )
b00000000000000000000000000000010 1
b00000000000000000000000000000010 (
b00010 7
#318
1#
0!
0'
0-
#321
1!
1'
1-
#322
0#
b11010000100001110010111011010001 %
b11010000100001110010111011010001 /
b00000 ;
b00000 2
b00000 )
b00000000000000000000000000000001 1
b00000000000000000000000000000001 (
b00001 7
#324
0!
0'
0-
#326
1#
#327
1!
1'
1-
#328
b01001010011100101001011101110101 %
b01001010011100101001011101110101 /
#330
0#
0!
0'
0-
#333
1!
1'
1-
#334
1#
b10011000101010101001111110110101 %
b10011000101010101001111110110101 /
#336
0!
0'
0-
#338
0#
#339
1!
1'
1-
#340
b11001011110001011001111110000111 %
b11001011110001011001111110000111 /
#342
1#
0!
0'
0-
#345
1!
1'
1-
#346
0#
b01010101111110101111010101000100 %
b01010101111110101111010101000100 /
b00010 ;
b00010 2
b00010 )
b00000000000000000000000000000100 1
b00000000000000000000000000000100 (
b00011 7
#348
0!
0'
0-
#350
1#
#351
1!
1'
1-
#352
b01001101110011111101000011010110 %
b01001101110011111101000011010110 /
b00001 ;
b00001 2
b00001 )
b00000000000000000000000000000010 1
b00000000000000000000000000000010 (
b00010 7
#354
0#
0!
0'
0-
#357
1!
1'
1-
#358
1#
b10010111111011000111100100000001 %
b10010111111011000111100100000001 /
b00000 ;
b00000 2
b00000 )
b00000000000000000000000000000001 1
b00000000000000000000000000000001 (
b00001 7
#360
0!
0'
0-
#362
0#
#363
1!
1'
1-
#364
b11011110100111110101011000010111 %
b11011110100111110101011000010111 /
#366
1#
0!
0'
0-
#369
1!
1'
1-
#370
0#
b00001011111111111101001000111100 %
b00001011111111111101001000111100 /
b00010 ;
b00010 2
b00010 )
b00000000000000000000000000000100 1
b00000000000000000000000000000100 (
b00011 7
#372
0!
0'
0-
#374
1#
#375
1!
1'
1-
#376
b10110001111111111101101111011100 %
b10110001111111111101101111011100 /
#378
0#
0!
0'
0-
#381
1!
1'
1-
#382
1#
b00100110100111111011100100100101 %
b00100110100111111011100100100101 /
b00000 ;
b00000 2
b00000 )
b00000000000000000000000000000001 1
b00000000000000000000000000000001 (
b00001 7
#384
0!
0'
0-
#386
0#
#387
1!
1'
1-
#388
b10000000011000010111010111100110 %
b10000000011000010111010111100110 /
b00001 ;
b00001 2
b00001 )
b00000000000000000000000000000010 1
b00000000000000000000000000000010 (
b00010 7
#390
1#
0!
0'
0-
#393
1!
1'
1-
#394
0#
b01001000010110111100111100000100 %
b01001000010110111100111100000100 /
b00010 ;
b00010 2
b00010 )
b00000000000000000000000000000100 1
b00000000000000000000000000000100 (
b00011 7
#396
0!
0'
0-
#398
1#
#399
1!
1'
1-
#400
b00000000000000000000000000000000 %
b00000000000000000000000000000000 /
b11111 ;
0:
b00000 2
b00000 )
b00000000000000000000000000000000 1
b00000000000000000000000000000000 (
b00000 7
