Weighted_Round_Robin_IP_Full_Flow/OUTPUT/verif/weighted_round_robin_proj/run/testbench_weighted_round_robin_arbiter_maximal_concurrent_requests_and_dynamic_priority_update_stress_test_test.vcd
$date
	Fri Sep  5 09:09:10 2025
$end

$version
	Synopsys VCS version W-2024.09_Full64
$end

$timescale
	1ns
$end

$comment Csum: 1 11bb74c8e4a897ed $end


$scope module weighted_round_robin_tb_top $end

$scope begin unnamed$$_0 $end
$upscope $end


$scope begin unnamed$$_vcs_0 $end
$upscope $end


$scope module clk_rst_if_inst $end
$var reg 1 ! clk $end
$var reg 1 " rst $end
$var reg 1 # clk_div $end
$upscope $end


$scope module rr_request_if_inst $end
$var reg 1 $ rst $end
$var reg 32 % req [31:0] $end
$var reg 1 & ack $end
$var reg 1 ' clk $end
$upscope $end


$scope module rr_grant_if_inst $end
$var reg 1 $ rst $end
$var reg 32 ( gnt_w [31:0] $end
$var reg 5 ) gnt_id [4:0] $end
$var reg 1 ' clk $end
$upscope $end


$scope module prio_update_if_inst $end
$var reg 1 $ rst $end
$var reg 4 * prio [3:0] $end
$var reg 5 + prio_id [4:0] $end
$var reg 1 , prio_upt $end
$var reg 1 ' clk $end
$upscope $end


$scope module weighted_round_robin_inst $end
$var wire 1 - clk $end
$var wire 1 . rst $end
$var wire 32 / req [31:0] $end
$var wire 1 0 ack $end
$var reg 32 1 gnt_w [31:0] $end
$var reg 5 2 gnt_id [4:0] $end
$var wire 4 3 prio [3:0] $end
$var wire 5 4 prio_id [4:0] $end
$var wire 1 5 prio_upt $end
$var reg 5 6 pointer_r [4:0] $end
$var reg 5 7 pointer_n [4:0] $end

$scope begin wrr_next_state $end
$var reg 32 8 k [31:0] $end
$var reg 32 9 j [31:0] $end
$var reg 1 : found $end
$var reg 5 ; idx [4:0] $end

$scope begin ack_set_loop $end

$scope begin ack_set_loop_req $end
$upscope $end

$upscope $end


$scope begin match_found $end

$scope begin update_credits $end
$var reg 5 < index [4:0] $end
$upscope $end

$upscope $end


$scope begin update_credits $end
$var reg 5 = index [4:0] $end
$upscope $end

$upscope $end


$scope begin unnamed$$_0 $end
$upscope $end


$scope begin unnamed$$_1 $end
$upscope $end

$upscope $end

$upscope $end

$enddefinitions $end

#0
$dumpvars
bxxxxxxxxxxxxxxxxxxxxxxxxxxxxxxxx %
b00000 )
b00000000000000000000000000000000 (
bxxxxx +
bxxxx *
0:
b00000 2
b00000000000000000000000000000000 1
bxxxxx 7
bxxxxx 6
bxxxxx ;
bxxxxx <
bxxxxx =
b00000000000000000000000000100000 8
b00000000000000000000000000000000 9
bxxxxxxxxxxxxxxxxxxxxxxxxxxxxxxxx /
bxxxx 3
bxxxxx 4
0!
0#
1"
0'
0-
1$
1.
x0
x5
x&
x,
$end
#3
1!
1'
1-
b00000 6
b11111 ;
b00000 7
b11111 =
#4
b0000 *
b00000 +
0,
05
b00000000000000000000000000000000 %
0&
00
b0000 3
b00000 4
b00000000000000000000000000000000 /
#6
1#
0!
0'
0-
#9
1!
1'
1-
#10
0#
#12
0!
0'
0-
#14
1#
#15
1!
1'
1-
#18
0#
0!
0'
0-
#21
1!
1'
1-
#22
1#
#24
0!
0'
0-
#26
0#
#27
1!
1'
1-
#30
1#
0!
0'
0-
#33
1!
1'
1-
#34
0#
#36
0!
0'
0-
#38
1#
#39
1!
1'
1-
#42
0#
0!
0'
0-
#45
1!
1'
1-
#46
1#
#48
0!
0'
0-
#50
0#
#51
1!
1'
1-
#54
1#
0!
0'
0-
0"
0$
0.
#57
1!
1'
1-
#58
0#
b1111 *
b10101 +
1,
15
b11011100111001001100001111010111 %
1&
10
b1111 3
b10101 4
b11011100111001001100001111010111 /
b00000 ;
1:
b00000000000000000000000000000001 1
b00000000000000000000000000000001 (
b00001 7
b11111 <
#60
0!
0'
0-
#62
1#
#63
1!
1'
1-
#64
b00000000000000000000000000000100 %
b1100 *
b01110 +
b00000000000000000000000000000100 /
b1100 3
b01110 4
b00010 ;
b00010 2
b00010 )
b00000000000000000000000000000100 1
b00000000000000000000000000000100 (
b00011 7
#65
b00001 6
b00000 <
#66
0#
0!
0'
0-
#69
1!
1'
1-
#70
1#
b11110 +
b00110110000110111000011101100111 %
b11110 4
b00110110000110111000011101100111 /
b00001 ;
b00001 2
b00001 )
b00000000000000000000000000000010 1
b00000000000000000000000000000010 (
b00010 7
#71
b00011 6
b00101 ;
b00101 2
b00101 )
b00000000000000000000000000100000 1
b00000000000000000000000000100000 (
b00110 7
b00010 <
#72
0!
0'
0-
#74
0#
#75
1!
1'
1-
#76
b00000000000000000000000000100000 %
b1101 *
b01001 +
b00000000000000000000000000100000 /
b1101 3
b01001 4
#77
b00110 6
0:
b00000 2
b00000 )
b00000000000000000000000000000000 1
b00000000000000000000000000000000 (
b00101 =
#78
1#
0!
0'
0-
#81
1!
1'
1-
#82
0#
b0000 *
b11101 +
b11111111111111111111111111111111 %
b0000 3
b11101 4
b11111111111111111111111111111111 /
b00110 ;
1:
b00110 2
b00110 )
b00000000000000000000000001000000 1
b00000000000000000000000001000000 (
b00111 7
b00101 <
#84
0!
0'
0-
#86
1#
#87
1!
1'
1-
#88
b01110100100100010111111110101100 %
b1100 *
b01110100100100010111111110101100 /
b1100 3
b00111 ;
b00111 2
b00111 )
b00000000000000000000000010000000 1
b00000000000000000000000010000000 (
b01000 7
#89
b00111 6
b00110 <
#90
0#
0!
0'
0-
#93
1!
1'
1-
#94
1#
b0011 *
b00010 +
b11111111111111111111111111111111 %
b0011 3
b00010 4
b11111111111111111111111111111111 /
#95
b01000 6
b01000 ;
b01000 2
b01000 )
b00000000000000000000000100000000 1
b00000000000000000000000100000000 (
b01001 7
b00111 <
#96
0!
0'
0-
#98
0#
#99
1!
1'
1-
#100
b11010101010101011011111111111101 %
b0010 *
b00110 +
b11010101010101011011111111111101 /
b0010 3
b00110 4
#101
b01001 6
b01001 ;
b01001 2
b01001 )
b00000000000000000000001000000000 1
b00000000000000000000001000000000 (
b01010 7
b01000 <
#102
1#
0!
0'
0-
#105
1!
1'
1-
#106
0#
b0000 *
b00000 +
0,
05
b11111111111111111111111111111111 %
b0000 3
b00000 4
b11111111111111111111111111111111 /
#107
b01010 6
b01010 ;
b01010 2
b01010 )
b00000000000000000000010000000000 1
b00000000000000000000010000000000 (
b01011 7
b01001 <
#108
0!
0'
0-
#110
1#
#111
1!
1'
1-
#112
b00000000000000000010000000000000 %
b1111 *
b01110 +
1,
15
b00000000000000000010000000000000 /
b1111 3
b01110 4
b01101 ;
b01101 2
b01101 )
b00000000000000000010000000000000 1
b00000000000000000010000000000000 (
b01110 7
#113
b01011 6
b01010 <
#114
0#
0!
0'
0-
#117
1!
1'
1-
#118
1#
b1010 *
b00110 +
b11111111111111111111111111111111 %
b1010 3
b00110 4
b11111111111111111111111111111111 /
b01011 ;
b01011 2
b01011 )
b00000000000000000000100000000000 1
b00000000000000000000100000000000 (
b01100 7
#119
b01110 6
b01110 ;
b01110 2
b01110 )
b00000000000000000100000000000000 1
b00000000000000000100000000000000 (
b01111 7
b01101 <
#120
0!
0'
0-
#122
0#
#123
1!
1'
1-
#124
b1100 *
b00111 +
b1100 3
b00111 4
#125
b01111 6
b01111 ;
b01111 2
b01111 )
b00000000000000001000000000000000 1
b00000000000000001000000000000000 (
b10000 7
b01110 <
#126
1#
0!
0'
0-
#129
1!
1'
1-
#130
0#
b1001 *
b01100 +
b01101010011111010010000110010110 %
b1001 3
b01100 4
b01101010011111010010000110010110 /
b10000 ;
b10000 2
b10000 )
b00000000000000010000000000000000 1
b00000000000000010000000000000000 (
b10001 7
#131
b10000 6
b01111 <
#132
0!
0'
0-
#134
1#
#135
1!
1'
1-
#136
b00000000000000000100000000000000 %
b0111 *
b11111 +
b00000000000000000100000000000000 /
b0111 3
b11111 4
b01110 ;
b01110 2
b01110 )
b00000000000000000100000000000000 1
b00000000000000000100000000000000 (
b01111 7
#137
b10001 6
b10000 <
#138
0#
0!
0'
0-
#141
1!
1'
1-
#142
1#
b0011 *
b01001 +
b10010001011111110011000111000010 %
b0011 3
b01001 4
b10010001011111110011000111000010 /
b10001 ;
b10001 2
b10001 )
b00000000000000100000000000000000 1
b00000000000000100000000000000000 (
b10010 7
#143
b01111 6
b01110 <
#144
0!
0'
0-
#146
0#
#147
1!
1'
1-
#148
b11111111111111111111111111111111 %
b1101 *
b00101 +
b11111111111111111111111111111111 /
b1101 3
b00101 4
#149
b10010 6
b10010 ;
b10010 2
b10010 )
b00000000000001000000000000000000 1
b00000000000001000000000000000000 (
b10011 7
b10001 <
#150
1#
0!
0'
0-
#153
1!
1'
1-
#154
0#
b0111 *
b00100 +
b0111 3
b00100 4
#155
b10011 6
b10011 ;
b10011 2
b10011 )
b00000000000010000000000000000000 1
b00000000000010000000000000000000 (
b10100 7
b10010 <
#156
0!
0'
0-
#158
1#
#159
1!
1'
1-
#160
b0101 *
b01111 +
b0101 3
b01111 4
#161
b10100 6
b10100 ;
b10100 2
b10100 )
b00000000000100000000000000000000 1
b00000000000100000000000000000000 (
b10101 7
b10011 <
#162
0#
0!
0'
0-
#165
1!
1'
1-
#166
1#
b1011 *
b01011 +
b00000000000000000001000000000000 %
b1011 3
b01011 4
b00000000000000000001000000000000 /
b01100 ;
b01100 2
b01100 )
b00000000000000000001000000000000 1
b00000000000000000001000000000000 (
b01101 7
#167
b10101 6
b10100 <
#168
0!
0'
0-
#170
0#
#171
1!
1'
1-
#172
b11001001111111000111011110011011 %
b1101 *
b10000 +
b11001001111111000111011110011011 /
b1101 3
b10000 4
b10101 ;
b10101 2
b10101 )
b00000000001000000000000000000000 1
b00000000001000000000000000000000 (
b10110 7
#173
b01101 6
b01110 ;
b01110 2
b01110 )
b00000000000000000100000000000000 1
b00000000000000000100000000000000 (
b01111 7
b01100 <
#174
1#
0!
0'
0-
#177
1!
1'
1-
#178
0#
b1100 *
b10010 +
b11010100010111000010101111010111 %
b1100 3
b10010 4
b11010100010111000010101111010111 /
b10110 ;
b10110 2
b10110 )
b00000000010000000000000000000000 1
b00000000010000000000000000000000 (
b10111 7
#179
b01111 6
b01110 <
#180
0!
0'
0-
#182
1#
#183
1!
1'
1-
#184
b11111111111111111111111111111111 %
b0011 *
b01101 +
b11111111111111111111111111111111 /
b0011 3
b01101 4
b10101 ;
b10101 2
b10101 )
b00000000001000000000000000000000 1
b00000000001000000000000000000000 (
b10110 7
#185
b10111 6
b10111 ;
b10111 2
b10111 )
b00000000100000000000000000000000 1
b00000000100000000000000000000000 (
b11000 7
b10110 <
#186
0#
0!
0'
0-
#189
1!
1'
1-
#190
1#
b0000 *
b00000 +
0,
05
b0000 3
b00000 4
#191
b11000 6
b11000 ;
b11000 2
b11000 )
b00000001000000000000000000000000 1
b00000001000000000000000000000000 (
b11001 7
b10111 <
#192
0!
0'
0-
#194
0#
#195
1!
1'
1-
#196
b00000000000000000000010000000000 %
b0010 *
b01111 +
1,
15
b00000000000000000000010000000000 /
b0010 3
b01111 4
b10111 ;
0:
b00000 2
b00000 )
b00000000000000000000000000000000 1
b00000000000000000000000000000000 (
b11000 7
b10111 =
#197
b11001 6
b11000 ;
b11001 7
b11000 =
#198
1#
0!
0'
0-
#201
1!
1'
1-
#202
0#
b0011 *
b11100 +
b11111111111111111111111111111111 %
b0011 3
b11100 4
b11111111111111111111111111111111 /
b11001 ;
1:
b11001 2
b11001 )
b00000010000000000000000000000000 1
b00000010000000000000000000000000 (
b11010 7
b11000 <
#204
0!
0'
0-
#206
1#
#207
1!
1'
1-
#208
b1000 *
b01010 +
b1000 3
b01010 4
#209
b11010 6
b11010 ;
b11010 2
b11010 )
b00000100000000000000000000000000 1
b00000100000000000000000000000000 (
b11011 7
b11001 <
#210
0#
0!
0'
0-
#213
1!
1'
1-
#214
1#
b10011 +
b10011 4
#215
b11011 6
b11011 ;
b11011 2
b11011 )
b00001000000000000000000000000000 1
b00001000000000000000000000000000 (
b11100 7
b11010 <
#216
0!
0'
0-
#218
0#
#219
1!
1'
1-
#220
b1100 *
b01001 +
b1100 3
b01001 4
#221
b11100 6
b11100 ;
b11100 2
b11100 )
b00010000000000000000000000000000 1
b00010000000000000000000000000000 (
b11101 7
b11011 <
#222
1#
0!
0'
0-
#225
1!
1'
1-
#226
0#
b0111 *
b00001 +
b0111 3
b00001 4
#227
b11101 6
b11101 ;
b11101 2
b11101 )
b00100000000000000000000000000000 1
b00100000000000000000000000000000 (
b11110 7
b11100 <
#228
0!
0'
0-
#230
1#
#231
1!
1'
1-
#232
b00001000000000000000000000000000 %
b1111 *
b11101 +
b00001000000000000000000000000000 /
b1111 3
b11101 4
b11100 ;
0:
b00000 2
b00000 )
b00000000000000000000000000000000 1
b00000000000000000000000000000000 (
b11101 7
b11100 =
#233
b11110 6
b11101 ;
b11110 7
b11101 =
#234
0#
0!
0'
0-
#237
1!
1'
1-
#238
1#
b1101 *
b01001 +
b00000000000000010000000000000000 %
b1101 3
b01001 4
b00000000000000010000000000000000 /
b10000 ;
1:
b10000 2
b10000 )
b00000000000000010000000000000000 1
b00000000000000010000000000000000 (
b10001 7
b11101 <
#240
0!
0'
0-
#242
0#
#243
1!
1'
1-
#244
b10010110001100011111110100101011 %
b0000 *
b10100 +
b10010110001100011111110100101011 /
b0000 3
b10100 4
b11111 ;
b11111 2
b11111 )
b10000000000000000000000000000000 1
b10000000000000000000000000000000 (
b00000 7
#245
b10001 6
b10100 ;
b10100 2
b10100 )
b00000000000100000000000000000000 1
b00000000000100000000000000000000 (
b10101 7
b10000 <
#246
1#
0!
0'
0-
#249
1!
1'
1-
#250
0#
b0010 *
b11111 +
b00000000000001000000000000000000 %
b0010 3
b11111 4
b00000000000001000000000000000000 /
b10010 ;
b10010 2
b10010 )
b00000000000001000000000000000000 1
b00000000000001000000000000000000 (
b10011 7
#251
b10101 6
b10100 <
#252
0!
0'
0-
#254
1#
#255
1!
1'
1-
#256
b11111111111111111111111111111111 %
b0000 *
b00000 +
0,
05
b11111111111111111111111111111111 /
b0000 3
b00000 4
b10101 ;
b10101 2
b10101 )
b00000000001000000000000000000000 1
b00000000001000000000000000000000 (
b10110 7
#257
b10011 6
b10011 ;
b10011 2
b10011 )
b00000000000010000000000000000000 1
b00000000000010000000000000000000 (
b10100 7
b10010 <
#258
0#
0!
0'
0-
#261
1!
1'
1-
#262
1#
b1101 *
b01111 +
1,
15
b1101 3
b01111 4
#263
b10100 6
b10101 ;
b10101 2
b10101 )
b00000000001000000000000000000000 1
b00000000001000000000000000000000 (
b10110 7
b10011 <
#264
0!
0'
0-
#266
0#
#267
1!
1'
1-
#268
b0100 *
b11010 +
b0100 3
b11010 4
#269
b10110 6
b10110 ;
b10110 2
b10110 )
b00000000010000000000000000000000 1
b00000000010000000000000000000000 (
b10111 7
b10101 <
#270
1#
0!
0'
0-
#273
1!
1'
1-
#274
0#
b0111 *
b11000 +
b0111 3
b11000 4
#275
b10111 6
b10111 ;
b10111 2
b10111 )
b00000000100000000000000000000000 1
b00000000100000000000000000000000 (
b11000 7
b10110 <
#276
0!
0'
0-
#278
1#
#279
1!
1'
1-
#280
b0101 *
b01111 +
b0101 3
b01111 4
#281
b11000 6
b11000 ;
b11000 2
b11000 )
b00000001000000000000000000000000 1
b00000001000000000000000000000000 (
b11001 7
b10111 <
#282
0#
0!
0'
0-
#285
1!
1'
1-
#286
1#
b0010 *
b01000 +
b0010 3
b01000 4
#287
b11001 6
b11001 ;
b11001 2
b11001 )
b00000010000000000000000000000000 1
b00000010000000000000000000000000 (
b11010 7
b11000 <
#288
0!
0'
0-
#290
0#
#291
1!
1'
1-
#292
b00000000000000010000000000000000 %
b0100 *
b00100 +
b00000000000000010000000000000000 /
b0100 3
b00100 4
b10000 ;
b10000 2
b10000 )
b00000000000000010000000000000000 1
b00000000000000010000000000000000 (
b10001 7
#293
b11010 6
b11001 <
#294
1#
0!
0'
0-
#297
1!
1'
1-
#298
0#
b1101 *
b00101 +
b1101 3
b00101 4
#299
b10001 6
b10000 <
#300
0!
0'
0-
#302
1#
#303
1!
1'
1-
#304
b00000000001000000000000000000000 %
b0000 *
b10010 +
b00000000001000000000000000000000 /
b0000 3
b10010 4
b10101 ;
b10101 2
b10101 )
b00000000001000000000000000000000 1
b00000000001000000000000000000000 (
b10110 7
#306
0#
0!
0'
0-
#309
1!
1'
1-
#310
1#
b1100 *
b00110 +
b00101110001100101111001001011100 %
b1100 3
b00110 4
b00101110001100101111001001011100 /
b10001 ;
b10001 2
b10001 )
b00000000000000100000000000000000 1
b00000000000000100000000000000000 (
b10010 7
#311
b10110 6
b11010 ;
b11010 2
b11010 )
b00000100000000000000000000000000 1
b00000100000000000000000000000000 (
b11011 7
b10101 <
#312
0!
0'
0-
#314
0#
#315
1!
1'
1-
#316
b11111111111111111111111111111111 %
b0000 *
b11110 +
b11111111111111111111111111111111 /
b0000 3
b11110 4
#317
b11011 6
b11011 ;
b11011 2
b11011 )
b00001000000000000000000000000000 1
b00001000000000000000000000000000 (
b11100 7
b11010 <
#318
1#
0!
0'
0-
#321
1!
1'
1-
#322
0#
b1111 *
b00010 +
b00000000010000000000000000000000 %
b1111 3
b00010 4
b00000000010000000000000000000000 /
b11010 ;
0:
b00000 2
b00000 )
b00000000000000000000000000000000 1
b00000000000000000000000000000000 (
b11011 7
b11010 =
#323
b11100 6
b11011 ;
b11100 7
b11011 =
#324
0!
0'
0-
#326
1#
#327
1!
1'
1-
#328
b00000000000000000000100000000000 %
b10110 +
b00000000000000000000100000000000 /
b10110 4
b01011 ;
1:
b01011 2
b01011 )
b00000000000000000000100000000000 1
b00000000000000000000100000000000 (
b01100 7
b11011 <
#330
0#
0!
0'
0-
#333
1!
1'
1-
#334
1#
b1011 *
b11101 +
b11111111111111111111111111111111 %
b1011 3
b11101 4
b11111111111111111111111111111111 /
b11100 ;
b11100 2
b11100 )
b00010000000000000000000000000000 1
b00010000000000000000000000000000 (
b11101 7
#335
b01100 6
b01100 ;
b01100 2
b01100 )
b00000000000000000001000000000000 1
b00000000000000000001000000000000 (
b01101 7
b01011 <
#336
0!
0'
0-
#338
0#
#339
1!
1'
1-
#340
b10011111100001001100000110100001 %
b1000 *
b00101 +
b10011111100001001100000110100001 /
b1000 3
b00101 4
b01110 ;
b01110 2
b01110 )
b00000000000000000100000000000000 1
b00000000000000000100000000000000 (
b01111 7
#341
b01101 6
b01100 <
#342
1#
0!
0'
0-
#345
1!
1'
1-
#346
0#
b0111 *
b10000 +
b01111111001010000010110011110001 %
b0111 3
b10000 4
b01111111001010000010110011110001 /
b01101 ;
b01101 2
b01101 )
b00000000000000000010000000000000 1
b00000000000000000010000000000000 (
b01110 7
#347
b01111 6
b10011 ;
b10011 2
b10011 )
b00000000000010000000000000000000 1
b00000000000010000000000000000000 (
b10100 7
b01110 <
#348
0!
0'
0-
#350
1#
#351
1!
1'
1-
#352
b01010011001001110011111110011001 %
b0000 *
b00101 +
b01010011001001110011111110011001 /
b0000 3
b00101 4
b10000 ;
b10000 2
b10000 )
b00000000000000010000000000000000 1
b00000000000000010000000000000000 (
b10001 7
#353
b10100 6
b10101 ;
b10101 2
b10101 )
b00000000001000000000000000000000 1
b00000000001000000000000000000000 (
b10110 7
b10011 <
#354
0#
0!
0'
0-
#357
1!
1'
1-
#358
1#
b0010 *
b11101 +
b00010111001001110101000100011101 %
b0010 3
b11101 4
b00010111001001110101000100011101 /
#359
b10110 6
b11000 ;
b11000 2
b11000 )
b00000001000000000000000000000000 1
b00000001000000000000000000000000 (
b11001 7
b10101 <
#360
0!
0'
0-
#362
0#
#363
1!
1'
1-
#364
b10110010111111110111111110001000 %
b1100 *
b10010 +
b10110010111111110111111110001000 /
b1100 3
b10010 4
b10110 ;
b10110 2
b10110 )
b00000000010000000000000000000000 1
b00000000010000000000000000000000 (
b10111 7
#365
b11001 6
b11001 ;
b11001 2
b11001 )
b00000010000000000000000000000000 1
b00000010000000000000000000000000 (
b11010 7
b11000 <
#366
1#
0!
0'
0-
#369
1!
1'
1-
#370
0#
b1011 *
b01101 +
b11111111111111111111111111111111 %
b1011 3
b01101 4
b11111111111111111111111111111111 /
#371
b11010 6
b11010 ;
b11010 2
b11010 )
b00000100000000000000000000000000 1
b00000100000000000000000000000000 (
b11011 7
b11001 <
#372
0!
0'
0-
#374
1#
#375
1!
1'
1-
#376
b1001 *
b11101 +
b1001 3
b11101 4
#377
b11011 6
b11011 ;
b11011 2
b11011 )
b00001000000000000000000000000000 1
b00001000000000000000000000000000 (
b11100 7
b11010 <
#378
0#
0!
0'
0-
#381
1!
1'
1-
#382
1#
b0110 *
b10011 +
b0110 3
b10011 4
#383
b11100 6
b11100 ;
b11100 2
b11100 )
b00010000000000000000000000000000 1
b00010000000000000000000000000000 (
b11101 7
b11011 <
#384
0!
0'
0-
#386
0#
#387
1!
1'
1-
#388
b1010 *
b10010 +
b1010 3
b10010 4
#389
b11101 6
b11101 ;
b11101 2
b11101 )
b00100000000000000000000000000000 1
b00100000000000000000000000000000 (
b11110 7
b11100 <
#390
1#
0!
0'
0-
#393
1!
1'
1-
#394
0#
b0100 *
b01011 +
b0100 3
b01011 4
#395
b11110 6
b11110 ;
b11110 2
b11110 )
b01000000000000000000000000000000 1
b01000000000000000000000000000000 (
b11111 7
b11101 <
#396
0!
0'
0-
#398
1#
#399
1!
1'
1-
#400
b1110 *
b01001 +
b1110 3
b01001 4
#401
b11111 6
b11111 ;
b11111 2
b11111 )
b10000000000000000000000000000000 1
b10000000000000000000000000000000 (
b00000 7
b11110 <
#402
0#
0!
0'
0-
#405
1!
1'
1-
#406
1#
b0011 *
b10110 +
b0011 3
b10110 4
#407
b00000 6
b00000 ;
b00000 2
b00000 )
b00000000000000000000000000000001 1
b00000000000000000000000000000001 (
b00001 7
b11111 <
#408
0!
0'
0-
#410
0#
#411
1!
1'
1-
#412
b00000000000000000100000000000000 %
b00001 +
b00000000000000000100000000000000 /
b00001 4
b01110 ;
b01110 2
b01110 )
b00000000000000000100000000000000 1
b00000000000000000100000000000000 (
b01111 7
#413
b00001 6
b00000 <
#414
1#
0!
0'
0-
#417
1!
1'
1-
#418
0#
b0110 *
b11000 +
b00000000000000000000000001000000 %
b0110 3
b11000 4
b00000000000000000000000001000000 /
b00110 ;
b00110 2
b00110 )
b00000000000000000000000001000000 1
b00000000000000000000000001000000 (
b00111 7
#419
b01111 6
b01110 <
#420
0!
0'
0-
#422
1#
#423
1!
1'
1-
#424
b10101000101110100001110011000010 %
b1101 *
b11100 +
b10101000101110100001110011000010 /
b1101 3
b11100 4
b10001 ;
b10001 2
b10001 )
b00000000000000100000000000000000 1
b00000000000000100000000000000000 (
b10010 7
#425
b00111 6
b00111 ;
b00111 2
b00111 )
b00000000000000000000000010000000 1
b00000000000000000000000010000000 (
b01000 7
b00110 <
#426
0#
0!
0'
0-
#429
1!
1'
1-
#430
1#
b0010 *
b10101 +
b11111111111111111111111111111111 %
b0010 3
b10101 4
b11111111111111111111111111111111 /
#431
b01000 6
b01000 ;
b01000 2
b01000 )
b00000000000000000000000100000000 1
b00000000000000000000000100000000 (
b01001 7
b00111 <
#432
0!
0'
0-
#434
0#
#435
1!
1'
1-
#436
b00001000000000000000000000000000 %
b1010 *
b01000 +
b00001000000000000000000000000000 /
b1010 3
b01000 4
b00111 ;
0:
b00000 2
b00000 )
b00000000000000000000000000000000 1
b00000000000000000000000000000000 (
b01000 7
b00111 =
#437
b01001 6
b01000 ;
b01001 7
b01000 =
#438
1#
0!
0'
0-
#441
1!
1'
1-
#442
0#
b1100 *
b10111 +
b11111111111111111111111111111111 %
b1100 3
b10111 4
b11111111111111111111111111111111 /
b01001 ;
1:
b01001 2
b01001 )
b00000000000000000000001000000000 1
b00000000000000000000001000000000 (
b01010 7
b01000 <
#444
0!
0'
0-
#446
1#
#447
1!
1'
1-
#448
b0100 *
b00011 +
b0100 3
b00011 4
#449
b01010 6
b01010 ;
b01010 2
b01010 )
b00000000000000000000010000000000 1
b00000000000000000000010000000000 (
b01011 7
b01001 <
#450
0#
0!
0'
0-
#453
1!
1'
1-
#454
1#
b0000 *
b00000 +
0,
05
b0000 3
b00000 4
#455
b01011 6
b01011 ;
b01011 2
b01011 )
b00000000000000000000100000000000 1
b00000000000000000000100000000000 (
b01100 7
b01010 <
#456
0!
0'
0-
#458
0#
#459
1!
1'
1-
#460
b11001110110101111111101110110111 %
b1000 *
b11010 +
1,
15
b11001110110101111111101110110111 /
b1000 3
b11010 4
#461
b01100 6
b01100 ;
b01100 2
b01100 )
b00000000000000000001000000000000 1
b00000000000000000001000000000000 (
b01101 7
b01011 <
#462
1#
0!
0'
0-
#465
1!
1'
1-
#466
0#
b0110 *
b10011 +
b00000001011100100101100110000001 %
b0110 3
b10011 4
b00000001011100100101100110000001 /
#467
b01101 6
b01110 ;
b01110 2
b01110 )
b00000000000000000100000000000000 1
b00000000000000000100000000000000 (
b01111 7
b01100 <
#468
0!
0'
0-
#470
1#
#471
1!
1'
1-
#472
b11111111111111111111111111111111 %
b1111 *
b00001 +
b11111111111111111111111111111111 /
b1111 3
b00001 4
b01101 ;
b01101 2
b01101 )
b00000000000000000010000000000000 1
b00000000000000000010000000000000 (
b01110 7
#473
b01111 6
b01111 ;
b01111 2
b01111 )
b00000000000000001000000000000000 1
b00000000000000001000000000000000 (
b10000 7
b01110 <
#474
0#
0!
0'
0-
#477
1!
1'
1-
#478
1#
b1010 *
b00010 +
b00100001010000101110111111100110 %
b1010 3
b00010 4
b00100001010000101110111111100110 /
#479
b10000 6
b10001 ;
b10001 2
b10001 )
b00000000000000100000000000000000 1
b00000000000000100000000000000000 (
b10010 7
b01111 <
#480
0!
0'
0-
#482
0#
#483
1!
1'
1-
#484
b11111111111111111111111111111111 %
b1110 *
b01101 +
b11111111111111111111111111111111 /
b1110 3
b01101 4
b10000 ;
b10000 2
b10000 )
b00000000000000010000000000000000 1
b00000000000000010000000000000000 (
b10001 7
#485
b10010 6
b10010 ;
b10010 2
b10010 )
b00000000000001000000000000000000 1
b00000000000001000000000000000000 (
b10011 7
b10001 <
#486
1#
0!
0'
0-
#489
1!
1'
1-
#490
0#
b0001 *
b00001 +
b00001000000000000000000000000000 %
b0001 3
b00001 4
b00001000000000000000000000000000 /
b11011 ;
b11011 2
b11011 )
b00001000000000000000000000000000 1
b00001000000000000000000000000000 (
b11100 7
#491
b10011 6
b10010 <
#492
0!
0'
0-
#494
1#
#495
1!
1'
1-
#496
b11111111111111111111111111111111 %
b0101 *
b10111 +
b11111111111111111111111111111111 /
b0101 3
b10111 4
b10011 ;
b10011 2
b10011 )
b00000000000010000000000000000000 1
b00000000000010000000000000000000 (
b10100 7
#497
b11100 6
b11100 ;
b11100 2
b11100 )
b00010000000000000000000000000000 1
b00010000000000000000000000000000 (
b11101 7
b11011 <
#498
0#
0!
0'
0-
#501
1!
1'
1-
#502
1#
b1100 *
b11110 +
b1100 3
b11110 4
#503
b11101 6
b11101 ;
b11101 2
b11101 )
b00100000000000000000000000000000 1
b00100000000000000000000000000000 (
b11110 7
b11100 <
#504
0!
0'
0-
#506
0#
#507
1!
1'
1-
#508
b10101100011010101011101001110011 %
b1001 *
b00101 +
b10101100011010101011101001110011 /
b1001 3
b00101 4
#509
b11110 6
b11111 ;
b11111 2
b11111 )
b10000000000000000000000000000000 1
b10000000000000000000000000000000 (
b00000 7
b11101 <
#510
1#
0!
0'
0-
#513
1!
1'
1-
#514
0#
b0000 *
b00000 +
0,
05
b00000000000000000000000000100000 %
b0000 3
b00000 4
b00000000000000000000000000100000 /
b00101 ;
b00101 2
b00101 )
b00000000000000000000000000100000 1
b00000000000000000000000000100000 (
b00110 7
#515
b00000 6
b11111 <
#516
0!
0'
0-
#518
1#
#519
1!
1'
1-
#520
b00000000000000100000000000000000 %
b1101 *
b11010 +
1,
15
b00000000000000100000000000000000 /
b1101 3
b11010 4
b11111 ;
0:
b00000 2
b00000 )
b00000000000000000000000000000000 1
b00000000000000000000000000000000 (
b00000 7
b11111 =
#521
b00110 6
b00101 ;
b00110 7
b00101 =
#522
0#
0!
0'
0-
#525
1!
1'
1-
#526
1#
b1000 *
b10101 +
b11111111111111111111111111111111 %
b1000 3
b10101 4
b11111111111111111111111111111111 /
b00110 ;
1:
b00110 2
b00110 )
b00000000000000000000000001000000 1
b00000000000000000000000001000000 (
b00111 7
b00101 <
#528
0!
0'
0-
#530
0#
#531
1!
1'
1-
#532
b10101111011000010010001100011111 %
b1110 *
b01111 +
b10101111011000010010001100011111 /
b1110 3
b01111 4
b01000 ;
b01000 2
b01000 )
b00000000000000000000000100000000 1
b00000000000000000000000100000000 (
b01001 7
#533
b00111 6
b00110 <
#534
1#
0!
0'
0-
#537
1!
1'
1-
#538
0#
b0000 *
b00000 +
0,
05
b11111111111111111111111111111111 %
b0000 3
b00000 4
b11111111111111111111111111111111 /
b00111 ;
b00111 2
b00111 )
b00000000000000000000000010000000 1
b00000000000000000000000010000000 (
b01000 7
#539
b01001 6
b01001 ;
b01001 2
b01001 )
b00000000000000000000001000000000 1
b00000000000000000000001000000000 (
b01010 7
b01000 <
#540
0!
0'
0-
#542
1#
#543
1!
1'
1-
#544
b01111100110001100101110010001101 %
b01111100110001100101110010001101 /
b01010 ;
b01010 2
b01010 )
b00000000000000000000010000000000 1
b00000000000000000000010000000000 (
b01011 7
#545
b01010 6
b01001 <
#546
0#
0!
0'
0-
#549
1!
1'
1-
#550
1#
b11110101000101110110001000011010 %
b11110101000101110110001000011010 /
b01101 ;
b01101 2
b01101 )
b00000000000000000010000000000000 1
b00000000000000000010000000000000 (
b01110 7
#551
b01011 6
b01010 <
#552
0!
0'
0-
#554
0#
#555
1!
1'
1-
