Weighted_Round_Robin_IP_Full_Flow/OUTPUT/verif/weighted_round_robin_proj/run/testbench_weighted_round_robin_simultaneous_priority_update_and_ack_test.vcd
$date
	Fri Sep  5 09:09:08 2025
$end

$version
	Synopsys VCS version W-2024.09_Full64
$end

$timescale
	1ns
$end

$comment Csum: 1 11bb74c8e4a897ed $end


$scope module weighted_round_robin_tb_top $end

$scope begin unnamed$$_0 $end
$upscope $end


$scope begin unnamed$$_vcs_0 $end
$upscope $end


$scope module clk_rst_if_inst $end
$var reg 1 ! clk $end
$var reg 1 " rst $end
$var reg 1 # clk_div $end
$upscope $end


$scope module rr_request_if_inst $end
$var reg 1 $ rst $end
$var reg 32 % req [31:0] $end
$var reg 1 & ack $end
$var reg 1 ' clk $end
$upscope $end


$scope module rr_grant_if_inst $end
$var reg 1 $ rst $end
$var reg 32 ( gnt_w [31:0] $end
$var reg 5 ) gnt_id [4:0] $end
$var reg 1 ' clk $end
$upscope $end


$scope module prio_update_if_inst $end
$var reg 1 $ rst $end
$var reg 4 * prio [3:0] $end
$var reg 5 + prio_id [4:0] $end
$var reg 1 , prio_upt $end
$var reg 1 ' clk $end
$upscope $end


$scope module weighted_round_robin_inst $end
$var wire 1 - clk $end
$var wire 1 . rst $end
$var wire 32 / req [31:0] $end
$var wire 1 0 ack $end
$var reg 32 1 gnt_w [31:0] $end
$var reg 5 2 gnt_id [4:0] $end
$var wire 4 3 prio [3:0] $end
$var wire 5 4 prio_id [4:0] $end
$var wire 1 5 prio_upt $end
$var reg 5 6 pointer_r [4:0] $end
$var reg 5 7 pointer_n [4:0] $end

$scope begin wrr_next_state $end
$var reg 32 8 k [31:0] $end
$var reg 32 9 j [31:0] $end
$var reg 1 : found $end
$var reg 5 ; idx [4:0] $end

$scope begin ack_set_loop $end

$scope begin ack_set_loop_req $end
$upscope $end

$upscope $end


$scope begin match_found $end

$scope begin update_credits $end
$var reg 5 < index [4:0] $end
$upscope $end

$upscope $end


$scope begin update_credits $end
$var reg 5 = index [4:0] $end
$upscope $end

$upscope $end


$scope begin unnamed$$_0 $end
$upscope $end


$scope begin unnamed$$_1 $end
$upscope $end

$upscope $end

$upscope $end

$enddefinitions $end

#0
$dumpvars
bxxxxxxxxxxxxxxxxxxxxxxxxxxxxxxxx %
b00000 )
b00000000000000000000000000000000 (
bxxxxx +
bxxxx *
0:
b00000 2
b00000000000000000000000000000000 1
bxxxxx 7
bxxxxx 6
bxxxxx ;
bxxxxx <
bxxxxx =
b00000000000000000000000000100000 8
b00000000000000000000000000000000 9
bxxxxxxxxxxxxxxxxxxxxxxxxxxxxxxxx /
bxxxx 3
bxxxxx 4
0!
0#
1"
0'
0-
1$
1.
x0
x5
x&
x,
$end
#3
1!
1'
1-
b00000 6
b11111 ;
b00000 7
b11111 =
#4
b0000 *
b00000 +
0,
05
b00000000000000000000000000000000 %
0&
00
b0000 3
b00000 4
b00000000000000000000000000000000 /
#6
1#
0!
0'
0-
#9
1!
1'
1-
#10
0#
#12
0!
0'
0-
#14
1#
#15
1!
1'
1-
#18
0#
0!
0'
0-
#21
1!
1'
1-
#22
1#
#24
0!
0'
0-
#26
0#
#27
1!
1'
1-
#30
1#
0!
0'
0-
#33
1!
1'
1-
#34
0#
#36
0!
0'
0-
#38
1#
#39
1!
1'
1-
#42
0#
0!
0'
0-
#45
1!
1'
1-
#46
1#
#48
0!
0'
0-
#50
0#
#51
1!
1'
1-
#54
1#
0!
0'
0-
0"
0$
0.
#57
1!
1'
1-
#58
0#
#60
0!
0'
0-
#62
1#
#63
1!
1'
1-
#66
0#
0!
0'
0-
#69
1!
1'
1-
#70
1#
#72
0!
0'
0-
#74
0#
#75
1!
1'
1-
#78
1#
0!
0'
0-
#81
1!
1'
1-
#82
0#
#84
0!
0'
0-
#86
1#
#87
1!
1'
1-
#90
0#
0!
0'
0-
#93
1!
1'
1-
#94
1#
#96
0!
0'
0-
#98
0#
#99
1!
1'
1-
#102
1#
0!
0'
0-
#105
1!
1'
1-
#106
0#
#108
0!
0'
0-
#110
1#
#111
1!
1'
1-
#114
0#
0!
0'
0-
#117
1!
1'
1-
#118
1#
#120
0!
0'
0-
#122
0#
#123
1!
1'
1-
#124
b00000000000000000000000000000001 %
b00000000000000000000000000000001 /
b00000 ;
1:
b00000000000000000000000000000001 1
b00000000000000000000000000000001 (
b00001 7
b11111 <
#126
1#
0!
0'
0-
#129
1!
1'
1-
#130
0#
#132
0!
0'
0-
#134
1#
#135
1!
1'
1-
#138
0#
0!
0'
0-
#141
1!
1'
1-
#142
1#
#144
0!
0'
0-
#146
0#
#147
1!
1'
1-
#150
1#
0!
0'
0-
#153
1!
1'
1-
#154
0#
#156
0!
0'
0-
#158
1#
#159
1!
1'
1-
#160
1&
10
1,
15
#162
0#
0!
0'
0-
#165
1!
1'
1-
#166
1#
0,
05
b00000000000000000000000000000000 %
0&
00
b00000000000000000000000000000000 /
b11111 ;
0:
b00000000000000000000000000000000 1
b00000000000000000000000000000000 (
b00000 7
#167
b00001 6
b00000 ;
b00001 7
b00000 =
#168
0!
0'
0-
#170
0#
#171
1!
1'
1-
#174
1#
0!
0'
0-
#177
1!
1'
1-
#178
0#
b1111 *
b11111 +
1,
15
b10000000000000000000000000000000 %
1&
10
b1111 3
b11111 4
b10000000000000000000000000000000 /
b11111 ;
1:
b11111 2
b11111 )
b10000000000000000000000000000000 1
b10000000000000000000000000000000 (
b00000 7
b00000 <
#180
0!
0'
0-
#182
1#
#183
1!
1'
1-
#184
0&
00
b0000 *
b00000 +
0,
05
b0000 3
b00000 4
#185
b00000 6
0:
b00000 2
b00000 )
b00000000000000000000000000000000 1
b00000000000000000000000000000000 (
b11111 =
#186
0#
0!
0'
0-
#189
1!
1'
1-
#190
1#
#191
1:
b11111 2
b11111 )
b10000000000000000000000000000000 1
b10000000000000000000000000000000 (
b11111 <
#192
0!
0'
0-
#194
0#
#195
1!
1'
1-
#198
1#
0!
0'
0-
#201
1!
1'
1-
#202
0#
#204
0!
0'
0-
#206
1#
#207
1!
1'
1-
#210
0#
0!
0'
0-
#213
1!
1'
1-
#214
1#
#216
0!
0'
0-
#218
0#
#219
1!
1'
1-
#220
b00000000000000000000000000000000 %
b00000000000000000000000000000000 /
0:
b00000 2
b00000 )
b00000000000000000000000000000000 1
b00000000000000000000000000000000 (
