Weighted_Round_Robin_IP_Full_Flow/OUTPUT/verif/weighted_round_robin_proj/run/testbench_weighted_round_robin_grant_output_stability_under_reset_and_immediate_request_test_test.vcd
$date
	Fri Sep  5 09:09:08 2025
$end

$version
	Synopsys VCS version W-2024.09_Full64
$end

$timescale
	1ns
$end

$comment Csum: 1 11bb74c8e4a897ed $end


$scope module weighted_round_robin_tb_top $end

$scope begin unnamed$$_0 $end
$upscope $end


$scope begin unnamed$$_vcs_0 $end
$upscope $end


$scope module clk_rst_if_inst $end
$var reg 1 ! clk $end
$var reg 1 " rst $end
$var reg 1 # clk_div $end
$upscope $end


$scope module rr_request_if_inst $end
$var reg 1 $ rst $end
$var reg 32 % req [31:0] $end
$var reg 1 & ack $end
$var reg 1 ' clk $end
$upscope $end


$scope module rr_grant_if_inst $end
$var reg 1 $ rst $end
$var reg 32 ( gnt_w [31:0] $end
$var reg 5 ) gnt_id [4:0] $end
$var reg 1 ' clk $end
$upscope $end


$scope module prio_update_if_inst $end
$var reg 1 $ rst $end
$var reg 4 * prio [3:0] $end
$var reg 5 + prio_id [4:0] $end
$var reg 1 , prio_upt $end
$var reg 1 ' clk $end
$upscope $end


$scope module weighted_round_robin_inst $end
$var wire 1 - clk $end
$var wire 1 . rst $end
$var wire 32 / req [31:0] $end
$var wire 1 0 ack $end
$var reg 32 1 gnt_w [31:0] $end
$var reg 5 2 gnt_id [4:0] $end
$var wire 4 3 prio [3:0] $end
$var wire 5 4 prio_id [4:0] $end
$var wire 1 5 prio_upt $end
$var reg 5 6 pointer_r [4:0] $end
$var reg 5 7 pointer_n [4:0] $end

$scope begin wrr_next_state $end
$var reg 32 8 k [31:0] $end
$var reg 32 9 j [31:0] $end
$var reg 1 : found $end
$var reg 5 ; idx [4:0] $end

$scope begin ack_set_loop $end

$scope begin ack_set_loop_req $end
$upscope $end

$upscope $end


$scope begin match_found $end

$scope begin update_credits $end
$var reg 5 < index [4:0] $end
$upscope $end

$upscope $end


$scope begin update_credits $end
$var reg 5 = index [4:0] $end
$upscope $end

$upscope $end


$scope begin unnamed$$_0 $end
$upscope $end


$scope begin unnamed$$_1 $end
$upscope $end

$upscope $end

$upscope $end

$enddefinitions $end

#0
$dumpvars
bxxxxxxxxxxxxxxxxxxxxxxxxxxxxxxxx %
b00000 )
b00000000000000000000000000000000 (
bxxxxx +
bxxxx *
0:
b00000 2
b00000000000000000000000000000000 1
bxxxxx 7
bxxxxx 6
bxxxxx ;
bxxxxx <
bxxxxx =
b00000000000000000000000000100000 8
b00000000000000000000000000000000 9
bxxxxxxxxxxxxxxxxxxxxxxxxxxxxxxxx /
bxxxx 3
bxxxxx 4
0!
0#
1"
0'
0-
1$
1.
x0
x5
x&
x,
$end
#3
1!
1'
1-
b00000 6
b11111 ;
b00000 7
b11111 =
#4
b0000 *
b00000 +
0,
05
b00000000000000000000000000000000 %
0&
00
b0000 3
b00000 4
b00000000000000000000000000000000 /
#6
1#
0!
0'
0-
#9
1!
1'
1-
#10
0#
#12
0!
0'
0-
#14
1#
#15
1!
1'
1-
#18
0#
0!
0'
0-
#21
1!
1'
1-
#22
1#
#24
0!
0'
0-
#26
0#
#27
1!
1'
1-
#30
1#
0!
0'
0-
#33
1!
1'
1-
#34
0#
#36
0!
0'
0-
#38
1#
#39
1!
1'
1-
#42
0#
0!
0'
0-
#45
1!
1'
1-
#46
1#
#48
0!
0'
0-
#50
0#
#51
1!
1'
1-
#54
1#
0!
0'
0-
0"
0$
0.
#57
1!
1'
1-
#58
0#
b00000000000000000000000000000001 %
b00000000000000000000000000000001 /
b00000 ;
1:
b00000000000000000000000000000001 1
b00000000000000000000000000000001 (
b00001 7
b11111 <
#60
0!
0'
0-
#62
1#
#63
1!
1'
1-
#64
1&
10
#66
0#
0!
0'
0-
#69
1!
1'
1-
#70
1#
b00000000000000000000000000000000 %
0&
00
b00000000000000000000000000000000 /
b11111 ;
0:
b00000000000000000000000000000000 1
b00000000000000000000000000000000 (
b00000 7
#71
b00001 6
b00000 ;
b00001 7
b00000 =
#72
0!
0'
0-
#74
0#
#75
1!
1'
1-
#76
b11111111111111111111111111111111 %
b11111111111111111111111111111111 /
b00001 ;
1:
b00001 2
b00001 )
b00000000000000000000000000000010 1
b00000000000000000000000000000010 (
b00010 7
b00000 <
#78
1#
0!
0'
0-
#81
1!
1'
1-
#82
0#
#84
0!
0'
0-
#86
1#
#87
1!
1'
1-
#90
0#
0!
0'
0-
#93
1!
1'
1-
#94
1#
1&
10
#96
0!
0'
0-
#98
0#
#99
1!
1'
1-
#100
0&
00
#101
b00010 6
b00010 ;
b00010 2
b00010 )
b00000000000000000000000000000100 1
b00000000000000000000000000000100 (
b00011 7
b00001 <
#102
1#
0!
0'
0-
#105
1!
1'
1-
#106
0#
#108
0!
0'
0-
#110
1#
#111
1!
1'
1-
#112
b00000000000000000000000000000000 %
b00000000000000000000000000000000 /
b00001 ;
0:
b00000 2
b00000 )
b00000000000000000000000000000000 1
b00000000000000000000000000000000 (
b00010 7
b00001 =
#114
0#
0!
0'
0-
#117
1!
1'
1-
#118
1#
b00000000000000000000000000000001 %
b00000000000000000000000000000001 /
b00000 ;
1:
b00000000000000000000000000000001 1
b00000000000000000000000000000001 (
b00001 7
#120
0!
0'
0-
#122
0#
#123
1!
1'
1-
#124
1&
10
#126
1#
0!
0'
0-
#129
1!
1'
1-
#130
0#
b00000000000000000000000000000000 %
0&
00
b00000000000000000000000000000000 /
b00001 ;
0:
b00000000000000000000000000000000 1
b00000000000000000000000000000000 (
b00010 7
#131
b00001 6
b00000 ;
b00001 7
b00000 =
#132
0!
0'
0-
#134
1#
#135
1!
1'
1-
#138
0#
0!
0'
0-
#141
1!
1'
1-
#142
1#
#144
0!
0'
0-
#146
0#
#147
1!
1'
1-
#148
b00000000000000000000000000000010 %
1&
10
b00000000000000000000000000000010 /
b00001 ;
1:
b00001 2
b00001 )
b00000000000000000000000000000010 1
b00000000000000000000000000000010 (
b00010 7
b00000 <
#150
1#
0!
0'
0-
#153
1!
1'
1-
#154
0#
0&
00
#155
b00010 6
0:
b00000 2
b00000 )
b00000000000000000000000000000000 1
b00000000000000000000000000000000 (
b00001 =
#156
0!
0'
0-
#158
1#
#159
1!
1'
1-
#160
b00000000000000000000000000000000 %
b00000000000000000000000000000000 /
#162
0#
0!
0'
0-
#165
1!
1'
1-
#166
1#
b00000000000000000000000000000100 %
b00000000000000000000000000000100 /
b00010 ;
1:
b00010 2
b00010 )
b00000000000000000000000000000100 1
b00000000000000000000000000000100 (
b00011 7
b00001 <
#168
0!
0'
0-
#170
0#
#171
1!
1'
1-
#172
1&
10
#174
1#
0!
0'
0-
#177
1!
1'
1-
#178
0#
b00000000000000000000000000000000 %
0&
00
b00000000000000000000000000000000 /
b00001 ;
0:
b00000 2
b00000 )
b00000000000000000000000000000000 1
b00000000000000000000000000000000 (
b00010 7
#179
b00011 6
b00010 ;
b00011 7
b00010 =
#180
0!
0'
0-
#182
1#
#183
1!
1'
1-
#186
0#
0!
0'
0-
#189
1!
1'
1-
#190
1#
#192
0!
0'
0-
#194
0#
#195
1!
1'
1-
#196
b00000000000000000000000000001000 %
1&
10
b00000000000000000000000000001000 /
b00011 ;
1:
b00011 2
b00011 )
b00000000000000000000000000001000 1
b00000000000000000000000000001000 (
b00100 7
b00010 <
#198
1#
0!
0'
0-
#201
1!
1'
1-
#202
0#
0&
00
#203
b00100 6
0:
b00000 2
b00000 )
b00000000000000000000000000000000 1
b00000000000000000000000000000000 (
b00011 =
#204
0!
0'
0-
#206
1#
#207
1!
1'
1-
#208
b00000000000000000000000000000000 %
b00000000000000000000000000000000 /
#210
0#
0!
0'
0-
#213
1!
1'
1-
#214
1#
#216
0!
0'
0-
#218
0#
#219
1!
1'
1-
#222
1#
0!
0'
0-
#225
1!
1'
1-
#226
0#
b00000000000000000000000000010000 %
b00000000000000000000000000010000 /
b00100 ;
1:
b00100 2
b00100 )
b00000000000000000000000000010000 1
b00000000000000000000000000010000 (
b00101 7
b00011 <
#228
0!
0'
0-
#230
1#
#231
1!
1'
1-
#232
1&
10
#234
0#
0!
0'
0-
#237
1!
1'
1-
#238
1#
b00000000000000000000000000000000 %
0&
00
b00000000000000000000000000000000 /
b00011 ;
0:
b00000 2
b00000 )
b00000000000000000000000000000000 1
b00000000000000000000000000000000 (
b00100 7
#239
b00101 6
b00100 ;
b00101 7
b00100 =
#240
0!
0'
0-
#242
0#
#243
1!
1'
1-
#246
1#
0!
0'
0-
#249
1!
1'
1-
#250
0#
#252
0!
0'
0-
#254
1#
#255
1!
1'
1-
#256
b00000000000000000000000000100000 %
b00000000000000000000000000100000 /
b00101 ;
1:
b00101 2
b00101 )
b00000000000000000000000000100000 1
b00000000000000000000000000100000 (
b00110 7
b00100 <
#258
0#
0!
0'
0-
#261
1!
1'
1-
#262
1#
1&
10
#264
0!
0'
0-
#266
0#
#267
1!
1'
1-
#268
b00000000000000000000000000000000 %
0&
00
b00000000000000000000000000000000 /
b00100 ;
0:
b00000 2
b00000 )
b00000000000000000000000000000000 1
b00000000000000000000000000000000 (
b00101 7
#269
b00110 6
b00101 ;
b00110 7
b00101 =
#270
1#
0!
0'
0-
#273
1!
1'
1-
#274
0#
#276
0!
0'
0-
#278
1#
#279
1!
1'
1-
#282
0#
0!
0'
0-
#285
1!
1'
1-
#286
1#
b00000000000000000000000001000000 %
b00000000000000000000000001000000 /
b00110 ;
1:
b00110 2
b00110 )
b00000000000000000000000001000000 1
b00000000000000000000000001000000 (
b00111 7
b00101 <
#288
0!
0'
0-
#290
0#
#291
1!
1'
1-
#292
1&
10
#294
1#
0!
0'
0-
#297
1!
1'
1-
#298
0#
b00000000000000000000000000000000 %
0&
00
b00000000000000000000000000000000 /
b00101 ;
0:
b00000 2
b00000 )
b00000000000000000000000000000000 1
b00000000000000000000000000000000 (
b00110 7
#299
b00111 6
b00110 ;
b00111 7
b00110 =
#300
0!
0'
0-
#302
1#
#303
1!
1'
1-
#304
b00000000000000000000000010000000 %
1&
10
b00000000000000000000000010000000 /
b00111 ;
1:
b00111 2
b00111 )
b00000000000000000000000010000000 1
b00000000000000000000000010000000 (
b01000 7
b00110 <
#306
0#
0!
0'
0-
#309
1!
1'
1-
#310
1#
0&
00
#311
b01000 6
0:
b00000 2
b00000 )
b00000000000000000000000000000000 1
b00000000000000000000000000000000 (
b00111 =
#312
0!
0'
0-
#314
0#
#315
1!
1'
1-
#316
b00000000000000000000000000000000 %
b00000000000000000000000000000000 /
#318
1#
0!
0'
0-
#321
1!
1'
1-
#322
0#
#324
0!
0'
0-
#326
1#
#327
1!
1'
1-
#330
0#
0!
0'
0-
#333
1!
1'
1-
#334
1#
b00000000000000000000000100000000 %
b00000000000000000000000100000000 /
b01000 ;
1:
b01000 2
b01000 )
b00000000000000000000000100000000 1
b00000000000000000000000100000000 (
b01001 7
b00111 <
#336
0!
0'
0-
#338
0#
#339
1!
1'
1-
#340
1&
10
#342
1#
0!
0'
0-
#345
1!
1'
1-
#346
0#
b00000000000000000000000000000000 %
0&
00
b00000000000000000000000000000000 /
b00111 ;
0:
b00000 2
b00000 )
b00000000000000000000000000000000 1
b00000000000000000000000000000000 (
b01000 7
#347
b01001 6
b01000 ;
b01001 7
b01000 =
#348
0!
0'
0-
#350
1#
#351
1!
1'
1-
#352
b00000000000000000000001000000000 %
1&
10
b00000000000000000000001000000000 /
b01001 ;
1:
b01001 2
b01001 )
b00000000000000000000001000000000 1
b00000000000000000000001000000000 (
b01010 7
b01000 <
#354
0#
0!
0'
0-
#357
1!
1'
1-
#358
1#
0&
00
#359
b01010 6
0:
b00000 2
b00000 )
b00000000000000000000000000000000 1
b00000000000000000000000000000000 (
b01001 =
#360
0!
0'
0-
#362
0#
#363
1!
1'
1-
#364
b00000000000000000000000000000000 %
b00000000000000000000000000000000 /
#366
1#
0!
0'
0-
#369
1!
1'
1-
#370
0#
#372
0!
0'
0-
#374
1#
#375
1!
1'
1-
#376
b00000000000000000000010000000000 %
b00000000000000000000010000000000 /
b01010 ;
1:
b01010 2
b01010 )
b00000000000000000000010000000000 1
b00000000000000000000010000000000 (
b01011 7
b01001 <
#378
0#
0!
0'
0-
#381
1!
1'
1-
#382
1#
1&
10
#384
0!
0'
0-
#386
0#
#387
1!
1'
1-
#388
b00000000000000000000000000000000 %
0&
00
b00000000000000000000000000000000 /
b01001 ;
0:
b00000 2
b00000 )
b00000000000000000000000000000000 1
b00000000000000000000000000000000 (
b01010 7
#389
b01011 6
b01010 ;
b01011 7
b01010 =
#390
1#
0!
0'
0-
#393
1!
1'
1-
#394
0#
#396
0!
0'
0-
#398
1#
#399
1!
1'
1-
#400
b00000000000000000000100000000000 %
1&
10
b00000000000000000000100000000000 /
b01011 ;
1:
b01011 2
b01011 )
b00000000000000000000100000000000 1
b00000000000000000000100000000000 (
b01100 7
b01010 <
#402
0#
0!
0'
0-
#405
1!
1'
1-
#406
1#
0&
00
#407
b01100 6
0:
b00000 2
b00000 )
b00000000000000000000000000000000 1
b00000000000000000000000000000000 (
b01011 =
#408
0!
0'
0-
#410
0#
#411
1!
1'
1-
#412
b00000000000000000000000000000000 %
b00000000000000000000000000000000 /
#414
1#
0!
0'
0-
#417
1!
1'
1-
#418
0#
#420
0!
0'
0-
#422
1#
#423
1!
1'
1-
#424
b00000000000000000001000000000000 %
b00000000000000000001000000000000 /
b01100 ;
1:
b01100 2
b01100 )
b00000000000000000001000000000000 1
b00000000000000000001000000000000 (
b01101 7
b01011 <
#426
0#
0!
0'
0-
#429
1!
1'
1-
#430
1#
1&
10
#432
0!
0'
0-
#434
0#
#435
1!
1'
1-
#436
b00000000000000000000000000000000 %
0&
00
b00000000000000000000000000000000 /
b01011 ;
0:
b00000 2
b00000 )
b00000000000000000000000000000000 1
b00000000000000000000000000000000 (
b01100 7
#437
b01101 6
b01100 ;
b01101 7
b01100 =
#438
1#
0!
0'
0-
#441
1!
1'
1-
#442
0#
#444
0!
0'
0-
#446
1#
#447
1!
1'
1-
#448
b00000000000000000010000000000000 %
1&
10
b00000000000000000010000000000000 /
b01101 ;
1:
b01101 2
b01101 )
b00000000000000000010000000000000 1
b00000000000000000010000000000000 (
b01110 7
b01100 <
#450
0#
0!
0'
0-
#453
1!
1'
1-
#454
1#
0&
00
#455
b01110 6
0:
b00000 2
b00000 )
b00000000000000000000000000000000 1
b00000000000000000000000000000000 (
b01101 =
#456
0!
0'
0-
#458
0#
#459
1!
1'
1-
#460
b00000000000000000000000000000000 %
b00000000000000000000000000000000 /
#462
1#
0!
0'
0-
#465
1!
1'
1-
#466
0#
b00000000000000000100000000000000 %
b00000000000000000100000000000000 /
b01110 ;
1:
b01110 2
b01110 )
b00000000000000000100000000000000 1
b00000000000000000100000000000000 (
b01111 7
b01101 <
#468
0!
0'
0-
#470
1#
#471
1!
1'
1-
#472
1&
10
#474
0#
0!
0'
0-
#477
1!
1'
1-
#478
1#
b00000000000000000000000000000000 %
0&
00
b00000000000000000000000000000000 /
b01101 ;
0:
b00000 2
b00000 )
b00000000000000000000000000000000 1
b00000000000000000000000000000000 (
b01110 7
#479
b01111 6
b01110 ;
b01111 7
b01110 =
#480
0!
0'
0-
#482
0#
#483
1!
1'
1-
#486
1#
0!
0'
0-
#489
1!
1'
1-
#490
0#
b00000000000000001000000000000000 %
1&
10
b00000000000000001000000000000000 /
b01111 ;
1:
b01111 2
b01111 )
b00000000000000001000000000000000 1
b00000000000000001000000000000000 (
b10000 7
b01110 <
#492
0!
0'
0-
#494
1#
#495
1!
1'
1-
#496
0&
00
#497
b10000 6
0:
b00000 2
b00000 )
b00000000000000000000000000000000 1
b00000000000000000000000000000000 (
b01111 =
#498
0#
0!
0'
0-
#501
1!
1'
1-
#502
1#
b00000000000000000000000000000000 %
b00000000000000000000000000000000 /
#504
0!
0'
0-
#506
0#
#507
1!
1'
1-
#510
1#
0!
0'
0-
#513
1!
1'
1-
#514
0#
b00000000000000010000000000000000 %
1&
10
b00000000000000010000000000000000 /
b10000 ;
1:
b10000 2
b10000 )
b00000000000000010000000000000000 1
b00000000000000010000000000000000 (
b10001 7
b01111 <
#516
0!
0'
0-
#518
1#
#519
1!
1'
1-
#520
0&
00
#521
b10001 6
0:
b00000 2
b00000 )
b00000000000000000000000000000000 1
b00000000000000000000000000000000 (
b10000 =
#522
0#
0!
0'
0-
#525
1!
1'
1-
#526
1#
b00000000000000000000000000000000 %
b00000000000000000000000000000000 /
#528
0!
0'
0-
#530
0#
#531
1!
1'
1-
#532
b00000000000000100000000000000000 %
b00000000000000100000000000000000 /
b10001 ;
1:
b10001 2
b10001 )
b00000000000000100000000000000000 1
b00000000000000100000000000000000 (
b10010 7
b10000 <
#534
1#
0!
0'
0-
#537
1!
1'
1-
#538
0#
1&
10
#540
0!
0'
0-
#542
1#
#543
1!
1'
1-
#544
b00000000000000000000000000000000 %
0&
00
b00000000000000000000000000000000 /
b10000 ;
0:
b00000 2
b00000 )
b00000000000000000000000000000000 1
b00000000000000000000000000000000 (
b10001 7
#545
b10010 6
b10001 ;
b10010 7
b10001 =
#546
0#
0!
0'
0-
#549
1!
1'
1-
#550
1#
#552
0!
0'
0-
#554
0#
#555
1!
1'
1-
#558
1#
0!
0'
0-
#561
1!
1'
1-
#562
0#
b00000000000001000000000000000000 %
1&
10
b00000000000001000000000000000000 /
b10010 ;
1:
b10010 2
b10010 )
b00000000000001000000000000000000 1
b00000000000001000000000000000000 (
b10011 7
b10001 <
#564
0!
0'
0-
#566
1#
#567
1!
1'
1-
#568
0&
00
#569
b10011 6
0:
b00000 2
b00000 )
b00000000000000000000000000000000 1
b00000000000000000000000000000000 (
b10010 =
#570
0#
0!
0'
0-
#573
1!
1'
1-
#574
1#
b00000000000000000000000000000000 %
b00000000000000000000000000000000 /
#576
0!
0'
0-
#578
0#
#579
1!
1'
1-
#580
b00000000000010000000000000000000 %
b00000000000010000000000000000000 /
b10011 ;
1:
b10011 2
b10011 )
b00000000000010000000000000000000 1
b00000000000010000000000000000000 (
b10100 7
b10010 <
#582
1#
0!
0'
0-
#585
1!
1'
1-
#586
0#
1&
10
#588
0!
0'
0-
#590
1#
#591
1!
1'
1-
#592
b00000000000000000000000000000000 %
0&
00
b00000000000000000000000000000000 /
b10010 ;
0:
b00000 2
b00000 )
b00000000000000000000000000000000 1
b00000000000000000000000000000000 (
b10011 7
#593
b10100 6
b10011 ;
b10100 7
b10011 =
#594
0#
0!
0'
0-
#597
1!
1'
1-
#598
1#
b00000000000100000000000000000000 %
1&
10
b00000000000100000000000000000000 /
b10100 ;
1:
b10100 2
b10100 )
b00000000000100000000000000000000 1
b00000000000100000000000000000000 (
b10101 7
b10011 <
#600
0!
0'
0-
#602
0#
#603
1!
1'
1-
#604
0&
00
#605
b10101 6
0:
b00000 2
b00000 )
b00000000000000000000000000000000 1
b00000000000000000000000000000000 (
b10100 =
#606
1#
0!
0'
0-
#609
1!
1'
1-
#610
0#
b00000000000000000000000000000000 %
b00000000000000000000000000000000 /
#612
0!
0'
0-
#614
1#
#615
1!
1'
1-
#616
b00000000001000000000000000000000 %
b00000000001000000000000000000000 /
b10101 ;
1:
b10101 2
b10101 )
b00000000001000000000000000000000 1
b00000000001000000000000000000000 (
b10110 7
b10100 <
#618
0#
0!
0'
0-
#621
1!
1'
1-
#622
1#
1&
10
#624
0!
0'
0-
#626
0#
#627
1!
1'
1-
#628
b00000000000000000000000000000000 %
0&
00
b00000000000000000000000000000000 /
b10100 ;
0:
b00000 2
b00000 )
b00000000000000000000000000000000 1
b00000000000000000000000000000000 (
b10101 7
#629
b10110 6
b10101 ;
b10110 7
b10101 =
#630
1#
0!
0'
0-
#633
1!
1'
1-
#634
0#
#636
0!
0'
0-
#638
1#
#639
1!
1'
1-
#640
b00000000010000000000000000000000 %
1&
10
b00000000010000000000000000000000 /
b10110 ;
1:
b10110 2
b10110 )
b00000000010000000000000000000000 1
b00000000010000000000000000000000 (
b10111 7
b10101 <
#642
0#
0!
0'
0-
#645
1!
1'
1-
#646
1#
0&
00
#647
b10111 6
0:
b00000 2
b00000 )
b00000000000000000000000000000000 1
b00000000000000000000000000000000 (
b10110 =
#648
0!
0'
0-
#650
0#
#651
1!
1'
1-
#652
b00000000000000000000000000000000 %
b00000000000000000000000000000000 /
#654
1#
0!
0'
0-
#657
1!
1'
1-
#658
0#
b00000000100000000000000000000000 %
b00000000100000000000000000000000 /
b10111 ;
1:
b10111 2
b10111 )
b00000000100000000000000000000000 1
b00000000100000000000000000000000 (
b11000 7
b10110 <
#660
0!
0'
0-
#662
1#
#663
1!
1'
1-
#664
1&
10
#666
0#
0!
0'
0-
#669
1!
1'
1-
#670
1#
b00000000000000000000000000000000 %
0&
00
b00000000000000000000000000000000 /
b10110 ;
0:
b00000 2
b00000 )
b00000000000000000000000000000000 1
b00000000000000000000000000000000 (
b10111 7
#671
b11000 6
b10111 ;
b11000 7
b10111 =
#672
0!
0'
0-
#674
0#
#675
1!
1'
1-
#676
b00000001000000000000000000000000 %
b00000001000000000000000000000000 /
b11000 ;
1:
b11000 2
b11000 )
b00000001000000000000000000000000 1
b00000001000000000000000000000000 (
b11001 7
b10111 <
#678
1#
0!
0'
0-
#681
1!
1'
1-
#682
0#
1&
10
#684
0!
0'
0-
#686
1#
#687
1!
1'
1-
#688
b00000000000000000000000000000000 %
0&
00
b00000000000000000000000000000000 /
b10111 ;
0:
b00000 2
b00000 )
b00000000000000000000000000000000 1
b00000000000000000000000000000000 (
b11000 7
#689
b11001 6
b11000 ;
b11001 7
b11000 =
#690
0#
0!
0'
0-
#693
1!
1'
1-
#694
1#
#696
0!
0'
0-
#698
0#
#699
1!
1'
1-
#700
b00000010000000000000000000000000 %
b00000010000000000000000000000000 /
b11001 ;
1:
b11001 2
b11001 )
b00000010000000000000000000000000 1
b00000010000000000000000000000000 (
b11010 7
b11000 <
#702
1#
0!
0'
0-
#705
1!
1'
1-
#706
0#
1&
10
#708
0!
0'
0-
#710
1#
#711
1!
1'
1-
#712
b00000000000000000000000000000000 %
0&
00
b00000000000000000000000000000000 /
b11000 ;
0:
b00000 2
b00000 )
b00000000000000000000000000000000 1
b00000000000000000000000000000000 (
b11001 7
#713
b11010 6
b11001 ;
b11010 7
b11001 =
#714
0#
0!
0'
0-
#717
1!
1'
1-
#718
1#
#720
0!
0'
0-
#722
0#
#723
1!
1'
1-
#724
b00000100000000000000000000000000 %
1&
10
b00000100000000000000000000000000 /
b11010 ;
1:
b11010 2
b11010 )
b00000100000000000000000000000000 1
b00000100000000000000000000000000 (
b11011 7
b11001 <
#726
1#
0!
0'
0-
#729
1!
1'
1-
#730
0#
0&
00
#731
b11011 6
0:
b00000 2
b00000 )
b00000000000000000000000000000000 1
b00000000000000000000000000000000 (
b11010 =
#732
0!
0'
0-
#734
1#
#735
1!
1'
1-
#736
b00000000000000000000000000000000 %
b00000000000000000000000000000000 /
#738
0#
0!
0'
0-
#741
1!
1'
1-
#742
1#
#744
0!
0'
0-
#746
0#
#747
1!
1'
1-
#748
b00001000000000000000000000000000 %
1&
10
b00001000000000000000000000000000 /
b11011 ;
1:
b11011 2
b11011 )
b00001000000000000000000000000000 1
b00001000000000000000000000000000 (
b11100 7
b11010 <
#750
1#
0!
0'
0-
#753
1!
1'
1-
#754
0#
0&
00
#755
b11100 6
0:
b00000 2
b00000 )
b00000000000000000000000000000000 1
b00000000000000000000000000000000 (
b11011 =
#756
0!
0'
0-
#758
1#
#759
1!
1'
1-
#760
b00000000000000000000000000000000 %
b00000000000000000000000000000000 /
#762
0#
0!
0'
0-
#765
1!
1'
1-
#766
1#
#768
0!
0'
0-
#770
0#
#771
1!
1'
1-
#774
1#
0!
0'
0-
#777
1!
1'
1-
#778
0#
b00010000000000000000000000000000 %
b00010000000000000000000000000000 /
b11100 ;
1:
b11100 2
b11100 )
b00010000000000000000000000000000 1
b00010000000000000000000000000000 (
b11101 7
b11011 <
#780
0!
0'
0-
#782
1#
#783
1!
1'
1-
#784
1&
10
#786
0#
0!
0'
0-
#789
1!
1'
1-
#790
1#
b00000000000000000000000000000000 %
0&
00
b00000000000000000000000000000000 /
b11011 ;
0:
b00000 2
b00000 )
b00000000000000000000000000000000 1
b00000000000000000000000000000000 (
b11100 7
#791
b11101 6
b11100 ;
b11101 7
b11100 =
#792
0!
0'
0-
#794
0#
#795
1!
1'
1-
#798
1#
0!
0'
0-
#801
1!
1'
1-
#802
0#
b00100000000000000000000000000000 %
1&
10
b00100000000000000000000000000000 /
b11101 ;
1:
b11101 2
b11101 )
b00100000000000000000000000000000 1
b00100000000000000000000000000000 (
b11110 7
b11100 <
#804
0!
0'
0-
#806
1#
#807
1!
1'
1-
#808
0&
00
#809
b11110 6
0:
b00000 2
b00000 )
b00000000000000000000000000000000 1
b00000000000000000000000000000000 (
b11101 =
#810
0#
0!
0'
0-
#813
1!
1'
1-
#814
1#
b00000000000000000000000000000000 %
b00000000000000000000000000000000 /
#816
0!
0'
0-
#818
0#
#819
1!
1'
1-
#820
b01000000000000000000000000000000 %
b01000000000000000000000000000000 /
b11110 ;
1:
b11110 2
b11110 )
b01000000000000000000000000000000 1
b01000000000000000000000000000000 (
b11111 7
b11101 <
#822
1#
0!
0'
0-
#825
1!
1'
1-
#826
0#
1&
10
#828
0!
0'
0-
#830
1#
#831
1!
1'
1-
#832
b00000000000000000000000000000000 %
0&
00
b00000000000000000000000000000000 /
b11101 ;
0:
b00000 2
b00000 )
b00000000000000000000000000000000 1
b00000000000000000000000000000000 (
b11110 7
#833
b11111 6
b11110 ;
b11111 7
b11110 =
#834
0#
0!
0'
0-
#837
1!
1'
1-
#838
1#
#840
0!
0'
0-
#842
0#
#843
1!
1'
1-
#846
1#
0!
0'
0-
#849
1!
1'
1-
#850
0#
b10000000000000000000000000000000 %
1&
10
b10000000000000000000000000000000 /
b11111 ;
1:
b11111 2
b11111 )
b10000000000000000000000000000000 1
b10000000000000000000000000000000 (
b00000 7
b11110 <
#852
0!
0'
0-
#854
1#
#855
1!
1'
1-
#856
0&
00
#857
b00000 6
0:
b00000 2
b00000 )
b00000000000000000000000000000000 1
b00000000000000000000000000000000 (
b11111 =
#858
0#
0!
0'
0-
#861
1!
1'
1-
#862
1#
b00000000000000000000000000000000 %
b00000000000000000000000000000000 /
#864
0!
0'
0-
#866
0#
#867
1!
1'
1-
#870
1#
0!
0'
0-
#873
1!
1'
1-
#874
0#
b11111111111111111111111111111111 %
b11111111111111111111111111111111 /
b00000000000000000000000000000001 (
#876
0!
0'
0-
#878
1#
#879
1!
1'
1-
#880
1&
10
#882
0#
0!
0'
0-
#885
1!
1'
1-
#886
1#
0&
00
#887
b00001 )
b00000000000000000000000000000010 (
#888
0!
0'
0-
#890
0#
#891
1!
1'
1-
#894
1#
0!
0'
0-
#897
1!
1'
1-
#898
0#
#900
0!
0'
0-
#902
1#
#903
1!
1'
1-
#906
0#
0!
0'
0-
#909
1!
1'
1-
#910
1#
b00000000000000000000000000000000 %
b00000000000000000000000000000000 /
b00000 )
b00000000000000000000000000000000 (
