Weighted_Round_Robin_IP_Full_Flow/OUTPUT/verif/weighted_round_robin_proj/run/testbench_weighted_round_robin_synchronous_reset_min_max_req_corner_case_test.vcd
$date
	Fri Sep  5 09:09:08 2025
$end

$version
	Synopsys VCS version W-2024.09_Full64
$end

$timescale
	1ns
$end

$comment Csum: 1 11bb74c8e4a897ed $end


$scope module weighted_round_robin_tb_top $end

$scope begin unnamed$$_0 $end
$upscope $end


$scope begin unnamed$$_vcs_0 $end
$upscope $end


$scope module clk_rst_if_inst $end
$var reg 1 ! clk $end
$var reg 1 " rst $end
$var reg 1 # clk_div $end
$upscope $end


$scope module rr_request_if_inst $end
$var reg 1 $ rst $end
$var reg 32 % req [31:0] $end
$var reg 1 & ack $end
$var reg 1 ' clk $end
$upscope $end


$scope module rr_grant_if_inst $end
$var reg 1 $ rst $end
$var reg 32 ( gnt_w [31:0] $end
$var reg 5 ) gnt_id [4:0] $end
$var reg 1 ' clk $end
$upscope $end


$scope module prio_update_if_inst $end
$var reg 1 $ rst $end
$var reg 4 * prio [3:0] $end
$var reg 5 + prio_id [4:0] $end
$var reg 1 , prio_upt $end
$var reg 1 ' clk $end
$upscope $end


$scope module weighted_round_robin_inst $end
$var wire 1 - clk $end
$var wire 1 . rst $end
$var wire 32 / req [31:0] $end
$var wire 1 0 ack $end
$var reg 32 1 gnt_w [31:0] $end
$var reg 5 2 gnt_id [4:0] $end
$var wire 4 3 prio [3:0] $end
$var wire 5 4 prio_id [4:0] $end
$var wire 1 5 prio_upt $end
$var reg 5 6 pointer_r [4:0] $end
$var reg 5 7 pointer_n [4:0] $end

$scope begin wrr_next_state $end
$var reg 32 8 k [31:0] $end
$var reg 32 9 j [31:0] $end
$var reg 1 : found $end
$var reg 5 ; idx [4:0] $end

$scope begin ack_set_loop $end

$scope begin ack_set_loop_req $end
$upscope $end

$upscope $end


$scope begin match_found $end

$scope begin update_credits $end
$var reg 5 < index [4:0] $end
$upscope $end

$upscope $end


$scope begin update_credits $end
$var reg 5 = index [4:0] $end
$upscope $end

$upscope $end


$scope begin unnamed$$_0 $end
$upscope $end


$scope begin unnamed$$_1 $end
$upscope $end

$upscope $end

$upscope $end

$enddefinitions $end

#0
$dumpvars
bxxxxxxxxxxxxxxxxxxxxxxxxxxxxxxxx %
b00000 )
b00000000000000000000000000000000 (
bxxxxx +
bxxxx *
0:
b00000 2
b00000000000000000000000000000000 1
bxxxxx 7
bxxxxx 6
bxxxxx ;
bxxxxx <
bxxxxx =
b00000000000000000000000000100000 8
b00000000000000000000000000000000 9
bxxxxxxxxxxxxxxxxxxxxxxxxxxxxxxxx /
bxxxx 3
bxxxxx 4
0!
0#
1"
0'
0-
1$
1.
x0
x5
x&
x,
$end
#3
1!
1'
1-
b00000 6
b11111 ;
b00000 7
b11111 =
#4
b0000 *
b00000 +
0,
05
b00000000000000000000000000000000 %
0&
00
b0000 3
b00000 4
b00000000000000000000000000000000 /
#6
1#
0!
0'
0-
#9
1!
1'
1-
#10
0#
#12
0!
0'
0-
#14
1#
#15
1!
1'
1-
#18
0#
0!
0'
0-
#21
1!
1'
1-
#22
1#
#24
0!
0'
0-
#26
0#
#27
1!
1'
1-
#30
1#
0!
0'
0-
#33
1!
1'
1-
#34
0#
#36
0!
0'
0-
#38
1#
#39
1!
1'
1-
#42
0#
0!
0'
0-
#45
1!
1'
1-
#46
1#
#48
0!
0'
0-
#50
0#
#51
1!
1'
1-
#54
1#
0!
0'
0-
0"
0$
0.
#57
1!
1'
1-
#58
0#
#60
0!
0'
0-
#62
1#
#63
1!
1'
1-
#64
b11111111111111111111111111111111 %
b11111111111111111111111111111111 /
b00000 ;
1:
b00000000000000000000000000000001 1
b00000000000000000000000000000001 (
b00001 7
b11111 <
#66
0#
0!
0'
0-
#69
1!
1'
1-
#70
1#
b00000000000000000000000000000000 %
b00000000000000000000000000000000 /
b11111 ;
0:
b00000000000000000000000000000000 1
b00000000000000000000000000000000 (
b00000 7
#72
0!
0'
0-
#74
0#
#75
1!
1'
1-
#76
b11111111111111111111111111111111 %
b11111111111111111111111111111111 /
b00000 ;
1:
b00000000000000000000000000000001 1
b00000000000000000000000000000001 (
b00001 7
#78
1#
0!
0'
0-
#81
1!
1'
1-
#82
0#
b00000000000000000000000000000000 %
b00000000000000000000000000000000 /
b11111 ;
0:
b00000000000000000000000000000000 1
b00000000000000000000000000000000 (
b00000 7
#84
0!
0'
0-
#86
1#
#87
1!
1'
1-
#88
b11111111111111111111111111111111 %
b11111111111111111111111111111111 /
b00000 ;
1:
b00000000000000000000000000000001 1
b00000000000000000000000000000001 (
b00001 7
#90
0#
0!
0'
0-
#93
1!
1'
1-
#94
1#
b00000000000000000000000000000000 %
b00000000000000000000000000000000 /
b11111 ;
0:
b00000000000000000000000000000000 1
b00000000000000000000000000000000 (
b00000 7
#96
0!
0'
0-
#98
0#
#99
1!
1'
1-
#100
b11111111111111111111111111111111 %
b11111111111111111111111111111111 /
b00000 ;
1:
b00000000000000000000000000000001 1
b00000000000000000000000000000001 (
b00001 7
#102
1#
0!
0'
0-
#105
1!
1'
1-
#106
0#
b00000000000000000000000000000000 %
b00000000000000000000000000000000 /
b11111 ;
0:
b00000000000000000000000000000000 1
b00000000000000000000000000000000 (
b00000 7
#108
0!
0'
0-
#110
1#
#111
1!
1'
1-
#112
b11111111111111111111111111111111 %
b11111111111111111111111111111111 /
b00000 ;
1:
b00000000000000000000000000000001 1
b00000000000000000000000000000001 (
b00001 7
#114
0#
0!
0'
0-
#117
1!
1'
1-
#118
1#
b00000000000000000000000000000000 %
b00000000000000000000000000000000 /
b11111 ;
0:
b00000000000000000000000000000000 1
b00000000000000000000000000000000 (
b00000 7
#120
0!
0'
0-
#122
0#
#123
1!
1'
1-
#124
b11111111111111111111111111111111 %
b11111111111111111111111111111111 /
b00000 ;
1:
b00000000000000000000000000000001 1
b00000000000000000000000000000001 (
b00001 7
#126
1#
0!
0'
0-
#129
1!
1'
1-
#130
0#
b00000000000000000000000000000000 %
b00000000000000000000000000000000 /
b11111 ;
0:
b00000000000000000000000000000000 1
b00000000000000000000000000000000 (
b00000 7
#132
0!
0'
0-
#134
1#
#135
1!
1'
1-
#136
b11111111111111111111111111111111 %
b11111111111111111111111111111111 /
b00000 ;
1:
b00000000000000000000000000000001 1
b00000000000000000000000000000001 (
b00001 7
#138
0#
0!
0'
0-
#141
1!
1'
1-
#142
1#
b00000000000000000000000000000000 %
b00000000000000000000000000000000 /
b11111 ;
0:
b00000000000000000000000000000000 1
b00000000000000000000000000000000 (
b00000 7
#144
0!
0'
0-
#146
0#
#147
1!
1'
1-
#148
b11111111111111111111111111111111 %
b11111111111111111111111111111111 /
b00000 ;
1:
b00000000000000000000000000000001 1
b00000000000000000000000000000001 (
b00001 7
#150
1#
0!
0'
0-
#153
1!
1'
1-
#154
0#
b00000000000000000000000000000000 %
b00000000000000000000000000000000 /
b11111 ;
0:
b00000000000000000000000000000000 1
b00000000000000000000000000000000 (
b00000 7
#156
0!
0'
0-
#158
1#
#159
1!
1'
1-
#160
b11111111111111111111111111111111 %
b11111111111111111111111111111111 /
b00000 ;
1:
b00000000000000000000000000000001 1
b00000000000000000000000000000001 (
b00001 7
#162
0#
0!
0'
0-
#165
1!
1'
1-
#166
1#
b00000000000000000000000000000000 %
b00000000000000000000000000000000 /
b11111 ;
0:
b00000000000000000000000000000000 1
b00000000000000000000000000000000 (
b00000 7
#168
0!
0'
0-
#170
0#
#171
1!
1'
1-
#172
b11111111111111111111111111111111 %
b11111111111111111111111111111111 /
b00000 ;
1:
b00000000000000000000000000000001 1
b00000000000000000000000000000001 (
b00001 7
#174
1#
0!
0'
0-
#177
1!
1'
1-
#178
0#
b00000000000000000000000000000000 %
b00000000000000000000000000000000 /
b11111 ;
0:
b00000000000000000000000000000000 1
b00000000000000000000000000000000 (
b00000 7
#180
0!
0'
0-
#182
1#
#183
1!
1'
1-
#184
b11111111111111111111111111111111 %
b11111111111111111111111111111111 /
b00000 ;
1:
b00000000000000000000000000000001 1
b00000000000000000000000000000001 (
b00001 7
#186
0#
0!
0'
0-
#189
1!
1'
1-
#190
1#
b00000000000000000000000000000000 %
b00000000000000000000000000000000 /
b11111 ;
0:
b00000000000000000000000000000000 1
b00000000000000000000000000000000 (
b00000 7
#192
0!
0'
0-
#194
0#
#195
1!
1'
1-
#198
1#
0!
0'
0-
#201
1!
1'
1-
#202
0#
#204
0!
0'
0-
#206
1#
#207
1!
1'
1-
#208
b11111111111111111111111111111111 %
b11111111111111111111111111111111 /
b00000 ;
1:
b00000000000000000000000000000001 1
b00000000000000000000000000000001 (
b00001 7
#210
0#
0!
0'
0-
#213
1!
1'
1-
#214
1#
#216
0!
0'
0-
#218
0#
#219
1!
1'
1-
#220
b00000000000000000000000000000000 %
b00000000000000000000000000000000 /
b11111 ;
0:
b00000000000000000000000000000000 1
b00000000000000000000000000000000 (
b00000 7
#222
1#
0!
0'
0-
#225
1!
1'
1-
#226
0#
#228
0!
0'
0-
#230
1#
#231
1!
1'
1-
#234
0#
0!
0'
0-
#237
1!
1'
1-
#238
1#
b11111111111111111111111111111111 %
b11111111111111111111111111111111 /
b00000 ;
1:
b00000000000000000000000000000001 1
b00000000000000000000000000000001 (
b00001 7
#240
0!
0'
0-
#242
0#
#243
1!
1'
1-
#246
1#
0!
0'
0-
#249
1!
1'
1-
#250
0#
b00000000000000000000000000000000 %
b00000000000000000000000000000000 /
b11111 ;
0:
b00000000000000000000000000000000 1
b00000000000000000000000000000000 (
b00000 7
#252
0!
0'
0-
#254
1#
#255
1!
1'
1-
#258
0#
0!
0'
0-
#261
1!
1'
1-
#262
1#
#264
0!
0'
0-
#266
0#
#267
1!
1'
1-
#268
b11111111111111111111111111111111 %
b11111111111111111111111111111111 /
b00000 ;
1:
b00000000000000000000000000000001 1
b00000000000000000000000000000001 (
b00001 7
#270
1#
0!
0'
0-
#273
1!
1'
1-
#274
0#
b00000000000000000000000000000000 %
b00000000000000000000000000000000 /
b11111 ;
0:
b00000000000000000000000000000000 1
b00000000000000000000000000000000 (
b00000 7
#276
0!
0'
0-
#278
1#
#279
1!
1'
1-
#282
0#
0!
0'
0-
#285
1!
1'
1-
#286
1#
#288
0!
0'
0-
#290
0#
#291
1!
1'
1-
#292
b11111111111111111111111111111111 %
b11111111111111111111111111111111 /
b00000 ;
1:
b00000000000000000000000000000001 1
b00000000000000000000000000000001 (
b00001 7
#294
1#
0!
0'
0-
#297
1!
1'
1-
#298
0#
#300
0!
0'
0-
#302
1#
#303
1!
1'
1-
#306
0#
0!
0'
0-
#309
1!
1'
1-
#310
1#
b00000000000000000000000000000000 %
b00000000000000000000000000000000 /
b11111 ;
0:
b00000000000000000000000000000000 1
b00000000000000000000000000000000 (
b00000 7
#312
0!
0'
0-
#314
0#
#315
1!
1'
1-
#318
1#
0!
0'
0-
#321
1!
1'
1-
#322
0#
#324
0!
0'
0-
#326
1#
#327
1!
1'
1-
#328
b11111111111111111111111111111111 %
b11111111111111111111111111111111 /
b00000 ;
1:
b00000000000000000000000000000001 1
b00000000000000000000000000000001 (
b00001 7
#330
0#
0!
0'
0-
#333
1!
1'
1-
#334
1#
b00000000000000000000000000000000 %
b00000000000000000000000000000000 /
b11111 ;
0:
b00000000000000000000000000000000 1
b00000000000000000000000000000000 (
b00000 7
#336
0!
0'
0-
#338
0#
#339
1!
1'
1-
#342
1#
0!
0'
0-
#345
1!
1'
1-
#346
0#
b11111111111111111111111111111111 %
b11111111111111111111111111111111 /
b00000 ;
1:
b00000000000000000000000000000001 1
b00000000000000000000000000000001 (
b00001 7
#348
0!
0'
0-
#350
1#
#351
1!
1'
1-
#352
b00000000000000000000000000000000 %
b00000000000000000000000000000000 /
b11111 ;
0:
b00000000000000000000000000000000 1
b00000000000000000000000000000000 (
b00000 7
#354
0#
0!
0'
0-
#357
1!
1'
1-
#358
1#
b11111111111111111111111111111111 %
b11111111111111111111111111111111 /
b00000 ;
1:
b00000000000000000000000000000001 1
b00000000000000000000000000000001 (
b00001 7
#360
0!
0'
0-
#362
0#
#363
1!
1'
1-
#366
1#
0!
0'
0-
#369
1!
1'
1-
#370
0#
#372
0!
0'
0-
#374
1#
#375
1!
1'
1-
#376
b00000000000000000000000000000000 %
b00000000000000000000000000000000 /
b11111 ;
0:
b00000000000000000000000000000000 1
b00000000000000000000000000000000 (
b00000 7
#378
0#
0!
0'
0-
#381
1!
1'
1-
#382
1#
#384
0!
0'
0-
#386
0#
#387
1!
1'
1-
#390
1#
0!
0'
0-
#393
1!
1'
1-
#394
0#
b11111111111111111111111111111111 %
b11111111111111111111111111111111 /
b00000 ;
1:
b00000000000000000000000000000001 1
b00000000000000000000000000000001 (
b00001 7
#396
0!
0'
0-
#398
1#
#399
1!
1'
1-
#402
0#
0!
0'
0-
#405
1!
1'
1-
#406
1#
b00000000000000000000000000000000 %
b00000000000000000000000000000000 /
b11111 ;
0:
b00000000000000000000000000000000 1
b00000000000000000000000000000000 (
b00000 7
#408
0!
0'
0-
#410
0#
#411
1!
1'
1-
#414
1#
0!
0'
0-
#417
1!
1'
1-
#418
0#
b11111111111111111111111111111111 %
b11111111111111111111111111111111 /
b00000 ;
1:
b00000000000000000000000000000001 1
b00000000000000000000000000000001 (
b00001 7
#420
0!
0'
0-
#422
1#
#423
1!
1'
1-
#426
0#
0!
0'
0-
#429
1!
1'
1-
#430
1#
b00000000000000000000000000000000 %
b00000000000000000000000000000000 /
b11111 ;
0:
b00000000000000000000000000000000 1
b00000000000000000000000000000000 (
b00000 7
#432
0!
0'
0-
#434
0#
#435
1!
1'
1-
#438
1#
0!
0'
0-
#441
1!
1'
1-
#442
0#
b11111111111111111111111111111111 %
b11111111111111111111111111111111 /
b00000 ;
1:
b00000000000000000000000000000001 1
b00000000000000000000000000000001 (
b00001 7
#444
0!
0'
0-
#446
1#
#447
1!
1'
1-
#450
0#
0!
0'
0-
#453
1!
1'
1-
#454
1#
#456
0!
0'
0-
#458
0#
#459
1!
1'
1-
#460
b00000000000000000000000000000000 %
b00000000000000000000000000000000 /
b11111 ;
0:
b00000000000000000000000000000000 1
b00000000000000000000000000000000 (
b00000 7
#462
1#
0!
0'
0-
#465
1!
1'
1-
#466
0#
#468
0!
0'
0-
#470
1#
#471
1!
1'
1-
#472
b11111111111111111111111111111111 %
b11111111111111111111111111111111 /
b00000 ;
1:
b00000000000000000000000000000001 1
b00000000000000000000000000000001 (
b00001 7
#474
0#
0!
0'
0-
#477
1!
1'
1-
#478
1#
b00000000000000000000000000000000 %
b00000000000000000000000000000000 /
b11111 ;
0:
b00000000000000000000000000000000 1
b00000000000000000000000000000000 (
b00000 7
#480
0!
0'
0-
#482
0#
#483
1!
1'
1-
#486
1#
0!
0'
0-
#489
1!
1'
1-
#490
0#
b11111111111111111111111111111111 %
b11111111111111111111111111111111 /
b00000 ;
1:
b00000000000000000000000000000001 1
b00000000000000000000000000000001 (
b00001 7
#492
0!
0'
0-
#494
1#
#495
1!
1'
1-
#498
0#
0!
0'
0-
#501
1!
1'
1-
#502
1#
b00000000000000000000000000000000 %
b00000000000000000000000000000000 /
b11111 ;
0:
b00000000000000000000000000000000 1
b00000000000000000000000000000000 (
b00000 7
#504
0!
0'
0-
#506
0#
#507
1!
1'
1-
#508
b11111111111111111111111111111111 %
b11111111111111111111111111111111 /
b00000 ;
1:
b00000000000000000000000000000001 1
b00000000000000000000000000000001 (
b00001 7
#510
1#
0!
0'
0-
#513
1!
1'
1-
#514
0#
b00000000000000000000000000000000 %
b00000000000000000000000000000000 /
b11111 ;
0:
b00000000000000000000000000000000 1
b00000000000000000000000000000000 (
b00000 7
#516
0!
0'
0-
#518
1#
#519
1!
1'
1-
#520
b11111111111111111111111111111111 %
b11111111111111111111111111111111 /
b00000 ;
1:
b00000000000000000000000000000001 1
b00000000000000000000000000000001 (
b00001 7
#522
0#
0!
0'
0-
#525
1!
1'
1-
#526
1#
#528
0!
0'
0-
#530
0#
#531
1!
1'
1-
#532
b00000000000000000000000000000000 %
b00000000000000000000000000000000 /
b11111 ;
0:
b00000000000000000000000000000000 1
b00000000000000000000000000000000 (
b00000 7
#534
1#
0!
0'
0-
#537
1!
1'
1-
#538
0#
b11111111111111111111111111111111 %
b11111111111111111111111111111111 /
b00000 ;
1:
b00000000000000000000000000000001 1
b00000000000000000000000000000001 (
b00001 7
#540
0!
0'
0-
#542
1#
#543
1!
1'
1-
#546
0#
0!
0'
0-
#549
1!
1'
1-
#550
1#
#552
0!
0'
0-
#554
0#
#555
1!
1'
1-
#556
b00000000000000000000000000000000 %
b00000000000000000000000000000000 /
b11111 ;
0:
b00000000000000000000000000000000 1
b00000000000000000000000000000000 (
b00000 7
#558
1#
0!
0'
0-
#561
1!
1'
1-
#562
0#
#564
0!
0'
0-
#566
1#
#567
1!
1'
1-
#570
0#
0!
0'
0-
#573
1!
1'
1-
#574
1#
b11111111111111111111111111111111 %
b11111111111111111111111111111111 /
b00000 ;
1:
b00000000000000000000000000000001 1
b00000000000000000000000000000001 (
b00001 7
#576
0!
0'
0-
#578
0#
#579
1!
1'
1-
#582
1#
0!
0'
0-
#585
1!
1'
1-
#586
0#
#588
0!
0'
0-
#590
1#
#591
1!
1'
1-
#592
b00000000000000000000000000000000 %
b00000000000000000000000000000000 /
b11111 ;
0:
b00000000000000000000000000000000 1
b00000000000000000000000000000000 (
b00000 7
#594
0#
0!
0'
0-
#597
1!
1'
1-
#598
1#
#600
0!
0'
0-
#602
0#
#603
1!
1'
1-
#606
1#
0!
0'
0-
#609
1!
1'
1-
#610
0#
b11111111111111111111111111111111 %
b11111111111111111111111111111111 /
b00000 ;
1:
b00000000000000000000000000000001 1
b00000000000000000000000000000001 (
b00001 7
#612
0!
0'
0-
#614
1#
#615
1!
1'
1-
#618
0#
0!
0'
0-
#621
1!
1'
1-
#622
1#
#624
0!
0'
0-
#626
0#
#627
1!
1'
1-
#628
b00000000000000000000000000000000 %
b00000000000000000000000000000000 /
b11111 ;
0:
b00000000000000000000000000000000 1
b00000000000000000000000000000000 (
b00000 7
#630
1#
0!
0'
0-
#633
1!
1'
1-
#634
0#
#636
0!
0'
0-
#638
1#
#639
1!
1'
1-
#642
0#
0!
0'
0-
#645
1!
1'
1-
#646
1#
b11111111111111111111111111111111 %
b11111111111111111111111111111111 /
b00000 ;
1:
b00000000000000000000000000000001 1
b00000000000000000000000000000001 (
b00001 7
#648
0!
0'
0-
#650
0#
#651
1!
1'
1-
#654
1#
0!
0'
0-
#657
1!
1'
1-
#658
0#
#660
0!
0'
0-
#662
1#
#663
1!
1'
1-
#664
b00000000000000000000000000000000 %
b00000000000000000000000000000000 /
b11111 ;
0:
b00000000000000000000000000000000 1
b00000000000000000000000000000000 (
b00000 7
#666
0#
0!
0'
0-
#669
1!
1'
1-
#670
1#
b11111111111111111111111111111111 %
b11111111111111111111111111111111 /
b00000 ;
1:
b00000000000000000000000000000001 1
b00000000000000000000000000000001 (
b00001 7
#672
0!
0'
0-
#674
0#
#675
1!
1'
1-
#676
b00000000000000000000000000000000 %
b00000000000000000000000000000000 /
b11111 ;
0:
b00000000000000000000000000000000 1
b00000000000000000000000000000000 (
b00000 7
#678
1#
0!
0'
0-
#681
1!
1'
1-
#682
0#
#684
0!
0'
0-
#686
1#
#687
1!
1'
1-
#688
b11111111111111111111111111111111 %
b11111111111111111111111111111111 /
b00000 ;
1:
b00000000000000000000000000000001 1
b00000000000000000000000000000001 (
b00001 7
#690
0#
0!
0'
0-
#693
1!
1'
1-
#694
1#
#696
0!
0'
0-
#698
0#
#699
1!
1'
1-
#700
b00000000000000000000000000000000 %
b00000000000000000000000000000000 /
b11111 ;
0:
b00000000000000000000000000000000 1
b00000000000000000000000000000000 (
b00000 7
#702
1#
0!
0'
0-
#705
1!
1'
1-
#706
0#
#708
0!
0'
0-
#710
1#
#711
1!
1'
1-
#714
0#
0!
0'
0-
#717
1!
1'
1-
#718
1#
b11111111111111111111111111111111 %
b11111111111111111111111111111111 /
b00000 ;
1:
b00000000000000000000000000000001 1
b00000000000000000000000000000001 (
b00001 7
#720
0!
0'
0-
#722
0#
#723
1!
1'
1-
#724
b00000000000000000000000000000000 %
b00000000000000000000000000000000 /
b11111 ;
0:
b00000000000000000000000000000000 1
b00000000000000000000000000000000 (
b00000 7
#726
1#
0!
0'
0-
#729
1!
1'
1-
#730
0#
b11111111111111111111111111111111 %
b11111111111111111111111111111111 /
b00000 ;
1:
b00000000000000000000000000000001 1
b00000000000000000000000000000001 (
b00001 7
#732
0!
0'
0-
#734
1#
#735
1!
1'
1-
#738
0#
0!
0'
0-
#741
1!
1'
1-
#742
1#
#744
0!
0'
0-
#746
0#
#747
1!
1'
1-
#748
b00000000000000000000000000000000 %
b00000000000000000000000000000000 /
b11111 ;
0:
b00000000000000000000000000000000 1
b00000000000000000000000000000000 (
b00000 7
#750
1#
0!
0'
0-
#753
1!
1'
1-
#754
0#
#756
0!
0'
0-
#758
1#
#759
1!
1'
1-
#760
b11111111111111111111111111111111 %
b11111111111111111111111111111111 /
b00000 ;
1:
b00000000000000000000000000000001 1
b00000000000000000000000000000001 (
b00001 7
#762
0#
0!
0'
0-
#765
1!
1'
1-
#766
1#
#768
0!
0'
0-
#770
0#
#771
1!
1'
1-
#772
b00000000000000000000000000000000 %
b00000000000000000000000000000000 /
b11111 ;
0:
b00000000000000000000000000000000 1
b00000000000000000000000000000000 (
b00000 7
#774
1#
0!
0'
0-
#777
1!
1'
1-
#778
0#
b11111111111111111111111111111111 %
b11111111111111111111111111111111 /
b00000 ;
1:
b00000000000000000000000000000001 1
b00000000000000000000000000000001 (
b00001 7
#780
0!
0'
0-
#782
1#
#783
1!
1'
1-
#786
0#
0!
0'
0-
#789
1!
1'
1-
#790
1#
#792
0!
0'
0-
#794
0#
#795
1!
1'
1-
#796
b00000000000000000000000000000000 %
b00000000000000000000000000000000 /
b11111 ;
0:
b00000000000000000000000000000000 1
b00000000000000000000000000000000 (
b00000 7
#798
1#
0!
0'
0-
#801
1!
1'
1-
#802
0#
#804
0!
0'
0-
#806
1#
#807
1!
1'
1-
#810
0#
0!
0'
0-
#813
1!
1'
1-
#814
1#
b11111111111111111111111111111111 %
b11111111111111111111111111111111 /
b00000 ;
1:
b00000000000000000000000000000001 1
b00000000000000000000000000000001 (
b00001 7
#816
0!
0'
0-
#818
0#
#819
1!
1'
1-
#822
1#
0!
0'
0-
#825
1!
1'
1-
#826
0#
#828
0!
0'
0-
#830
1#
#831
1!
1'
1-
#832
b00000000000000000000000000000000 %
b00000000000000000000000000000000 /
b11111 ;
0:
b00000000000000000000000000000000 1
b00000000000000000000000000000000 (
b00000 7
#834
0#
0!
0'
0-
#837
1!
1'
1-
#838
1#
#840
0!
0'
0-
#842
0#
#843
1!
1'
1-
#844
b11111111111111111111111111111111 %
b11111111111111111111111111111111 /
b00000 ;
1:
b00000000000000000000000000000001 1
b00000000000000000000000000000001 (
b00001 7
#846
1#
0!
0'
0-
#849
1!
1'
1-
#850
0#
#852
0!
0'
0-
#854
1#
#855
1!
1'
1-
#858
0#
0!
0'
0-
#861
1!
1'
1-
#862
1#
b00000000000000000000000000000000 %
b00000000000000000000000000000000 /
b11111 ;
0:
b00000000000000000000000000000000 1
b00000000000000000000000000000000 (
b00000 7
#864
0!
0'
0-
#866
0#
#867
1!
1'
1-
#868
b11111111111111111111111111111111 %
b11111111111111111111111111111111 /
b00000 ;
1:
b00000000000000000000000000000001 1
b00000000000000000000000000000001 (
b00001 7
#870
1#
0!
0'
0-
#873
1!
1'
1-
#874
0#
#876
0!
0'
0-
#878
1#
#879
1!
1'
1-
#880
b00000000000000000000000000000000 %
b00000000000000000000000000000000 /
b11111 ;
0:
b00000000000000000000000000000000 1
b00000000000000000000000000000000 (
b00000 7
#882
0#
0!
0'
0-
#885
1!
1'
1-
#886
1#
#888
0!
0'
0-
#890
0#
#891
1!
1'
1-
#894
1#
0!
0'
0-
#897
1!
1'
1-
#898
0#
b11111111111111111111111111111111 %
b11111111111111111111111111111111 /
b00000 ;
1:
b00000000000000000000000000000001 1
b00000000000000000000000000000001 (
b00001 7
#900
0!
0'
0-
#902
1#
#903
1!
1'
1-
#904
b00000000000000000000000000000000 %
b00000000000000000000000000000000 /
b11111 ;
0:
b00000000000000000000000000000000 1
b00000000000000000000000000000000 (
b00000 7
#906
0#
0!
0'
0-
#909
1!
1'
1-
#910
1#
#912
0!
0'
0-
#914
0#
#915
1!
1'
1-
#918
1#
0!
0'
0-
#921
1!
1'
1-
#922
0#
b11111111111111111111111111111111 %
b11111111111111111111111111111111 /
b00000 ;
1:
b00000000000000000000000000000001 1
b00000000000000000000000000000001 (
b00001 7
#924
0!
0'
0-
#926
1#
#927
1!
1'
1-
#930
0#
0!
0'
0-
#933
1!
1'
1-
#934
1#
b00000000000000000000000000000000 %
b00000000000000000000000000000000 /
b11111 ;
0:
b00000000000000000000000000000000 1
b00000000000000000000000000000000 (
b00000 7
#936
0!
0'
0-
#938
0#
#939
1!
1'
1-
#940
b11111111111111111111111111111111 %
b11111111111111111111111111111111 /
b00000 ;
1:
b00000000000000000000000000000001 1
b00000000000000000000000000000001 (
b00001 7
#942
1#
0!
0'
0-
#945
1!
1'
1-
#946
0#
#948
0!
0'
0-
#950
1#
#951
1!
1'
1-
#954
0#
0!
0'
0-
#957
1!
1'
1-
#958
1#
b00000000000000000000000000000000 %
b00000000000000000000000000000000 /
b11111 ;
0:
b00000000000000000000000000000000 1
b00000000000000000000000000000000 (
b00000 7
#960
0!
0'
0-
#962
0#
#963
1!
1'
1-
#964
b11111111111111111111111111111111 %
b11111111111111111111111111111111 /
b00000 ;
1:
b00000000000000000000000000000001 1
b00000000000000000000000000000001 (
b00001 7
#966
1#
0!
0'
0-
#969
1!
1'
1-
#970
0#
b00000000000000000000000000000000 %
b00000000000000000000000000000000 /
b11111 ;
0:
b00000000000000000000000000000000 1
b00000000000000000000000000000000 (
b00000 7
#972
0!
0'
0-
#974
1#
#975
1!
1'
1-
#978
0#
0!
0'
0-
#981
1!
1'
1-
#982
1#
b11111111111111111111111111111111 %
b11111111111111111111111111111111 /
b00000 ;
1:
b00000000000000000000000000000001 1
b00000000000000000000000000000001 (
b00001 7
#984
0!
0'
0-
#986
0#
#987
1!
1'
1-
#988
b00000000000000000000000000000000 %
b00000000000000000000000000000000 /
b11111 ;
0:
b00000000000000000000000000000000 1
b00000000000000000000000000000000 (
b00000 7
#990
1#
0!
0'
0-
#993
1!
1'
1-
#994
0#
#996
0!
0'
0-
#998
1#
#999
1!
1'
1-
#1002
0#
0!
0'
0-
#1005
1!
1'
1-
#1006
1#
b11111111111111111111111111111111 %
b11111111111111111111111111111111 /
b00000 ;
1:
b00000000000000000000000000000001 1
b00000000000000000000000000000001 (
b00001 7
#1008
0!
0'
0-
#1010
0#
#1011
1!
1'
1-
#1012
b00000000000000000000000000000000 %
b00000000000000000000000000000000 /
b11111 ;
0:
b00000000000000000000000000000000 1
b00000000000000000000000000000000 (
b00000 7
#1014
1#
0!
0'
0-
#1017
1!
1'
1-
#1018
0#
b11111111111111111111111111111111 %
b11111111111111111111111111111111 /
b00000 ;
1:
b00000000000000000000000000000001 1
b00000000000000000000000000000001 (
b00001 7
#1020
0!
0'
0-
#1022
1#
#1023
1!
1'
1-
#1026
0#
0!
0'
0-
#1029
1!
1'
1-
#1030
1#
b00000000000000000000000000000000 %
b00000000000000000000000000000000 /
b11111 ;
0:
b00000000000000000000000000000000 1
b00000000000000000000000000000000 (
b00000 7
#1032
0!
0'
0-
#1034
0#
#1035
1!
1'
1-
#1036
b11111111111111111111111111111111 %
b11111111111111111111111111111111 /
b00000 ;
1:
b00000000000000000000000000000001 1
b00000000000000000000000000000001 (
b00001 7
#1038
1#
0!
0'
0-
#1041
1!
1'
1-
#1042
0#
#1044
0!
0'
0-
#1046
1#
#1047
1!
1'
1-
#1050
0#
0!
0'
0-
#1053
1!
1'
1-
#1054
1#
b00000000000000000000000000000000 %
b00000000000000000000000000000000 /
b11111 ;
0:
b00000000000000000000000000000000 1
b00000000000000000000000000000000 (
b00000 7
#1056
0!
0'
0-
#1058
0#
#1059
1!
1'
1-
#1062
1#
0!
0'
0-
#1065
1!
1'
1-
#1066
0#
b11111111111111111111111111111111 %
b11111111111111111111111111111111 /
b00000 ;
1:
b00000000000000000000000000000001 1
b00000000000000000000000000000001 (
b00001 7
#1068
0!
0'
0-
#1070
1#
#1071
1!
1'
1-
#1074
0#
0!
0'
0-
#1077
1!
1'
1-
#1078
1#
#1080
0!
0'
0-
#1082
0#
#1083
1!
1'
1-
#1084
b00000000000000000000000000000000 %
b00000000000000000000000000000000 /
b11111 ;
0:
b00000000000000000000000000000000 1
b00000000000000000000000000000000 (
b00000 7
#1086
1#
0!
0'
0-
#1089
1!
1'
1-
#1090
0#
#1092
0!
0'
0-
#1094
1#
#1095
1!
1'
1-
#1096
b11111111111111111111111111111111 %
b11111111111111111111111111111111 /
b00000 ;
1:
b00000000000000000000000000000001 1
b00000000000000000000000000000001 (
b00001 7
#1098
0#
0!
0'
0-
#1101
1!
1'
1-
#1102
1#
#1104
0!
0'
0-
#1106
0#
#1107
1!
1'
1-
#1110
1#
0!
0'
0-
#1113
1!
1'
1-
#1114
0#
b00000000000000000000000000000000 %
b00000000000000000000000000000000 /
b11111 ;
0:
b00000000000000000000000000000000 1
b00000000000000000000000000000000 (
b00000 7
#1116
0!
0'
0-
#1118
1#
#1119
1!
1'
1-
#1122
0#
0!
0'
0-
#1125
1!
1'
1-
#1126
1#
b11111111111111111111111111111111 %
b11111111111111111111111111111111 /
b00000 ;
1:
b00000000000000000000000000000001 1
b00000000000000000000000000000001 (
b00001 7
#1128
0!
0'
0-
#1130
0#
