Weighted_Round_Robin_IP_Full_Flow/OUTPUT/verif/weighted_round_robin_proj/run/testbench_weighted_round_robin_mid_sim_rst_test.vcd
$date
	Fri Sep  5 09:09:15 2025
$end

$version
	Synopsys VCS version W-2024.09_Full64
$end

$timescale
	1ns
$end

$comment Csum: 1 11bb74c8e4a897ed $end


$scope module weighted_round_robin_tb_top $end

$scope begin unnamed$$_0 $end
$upscope $end


$scope begin unnamed$$_vcs_0 $end
$upscope $end


$scope module clk_rst_if_inst $end
$var reg 1 ! clk $end
$var reg 1 " rst $end
$var reg 1 # clk_div $end
$upscope $end


$scope module rr_request_if_inst $end
$var reg 1 $ rst $end
$var reg 32 % req [31:0] $end
$var reg 1 & ack $end
$var reg 1 ' clk $end
$upscope $end


$scope module rr_grant_if_inst $end
$var reg 1 $ rst $end
$var reg 32 ( gnt_w [31:0] $end
$var reg 5 ) gnt_id [4:0] $end
$var reg 1 ' clk $end
$upscope $end


$scope module prio_update_if_inst $end
$var reg 1 $ rst $end
$var reg 4 * prio [3:0] $end
$var reg 5 + prio_id [4:0] $end
$var reg 1 , prio_upt $end
$var reg 1 ' clk $end
$upscope $end


$scope module weighted_round_robin_inst $end
$var wire 1 - clk $end
$var wire 1 . rst $end
$var wire 32 / req [31:0] $end
$var wire 1 0 ack $end
$var reg 32 1 gnt_w [31:0] $end
$var reg 5 2 gnt_id [4:0] $end
$var wire 4 3 prio [3:0] $end
$var wire 5 4 prio_id [4:0] $end
$var wire 1 5 prio_upt $end
$var reg 5 6 pointer_r [4:0] $end
$var reg 5 7 pointer_n [4:0] $end

$scope begin wrr_next_state $end
$var reg 32 8 k [31:0] $end
$var reg 32 9 j [31:0] $end
$var reg 1 : found $end
$var reg 5 ; idx [4:0] $end

$scope begin ack_set_loop $end

$scope begin ack_set_loop_req $end
$upscope $end

$upscope $end


$scope begin match_found $end

$scope begin update_credits $end
$var reg 5 < index [4:0] $end
$upscope $end

$upscope $end


$scope begin update_credits $end
$var reg 5 = index [4:0] $end
$upscope $end

$upscope $end


$scope begin unnamed$$_0 $end
$upscope $end


$scope begin unnamed$$_1 $end
$upscope $end

$upscope $end

$upscope $end

$enddefinitions $end

#0
$dumpvars
bxxxxxxxxxxxxxxxxxxxxxxxxxxxxxxxx %
b00000 )
b00000000000000000000000000000000 (
bxxxxx +
bxxxx *
0:
b00000 2
b00000000000000000000000000000000 1
bxxxxx 7
bxxxxx 6
bxxxxx ;
bxxxxx <
bxxxxx =
b00000000000000000000000000100000 8
b00000000000000000000000000000000 9
bxxxxxxxxxxxxxxxxxxxxxxxxxxxxxxxx /
bxxxx 3
bxxxxx 4
0!
0#
1"
0'
0-
1$
1.
x0
x5
x&
x,
$end
#3
1!
1'
1-
b00000 6
b11111 ;
b00000 7
b11111 =
#4
b0000 *
b00000 +
0,
05
b00000000000000000000000000000000 %
0&
00
b0000 3
b00000 4
b00000000000000000000000000000000 /
#6
0!
0'
0-
#9
1!
1'
1-
#12
0!
0'
0-
#13
1#
#15
1!
1'
1-
#18
0!
0'
0-
#21
0#
1!
1'
1-
#24
0!
0'
0-
#27
1!
1'
1-
#29
1#
#30
0!
0'
0-
#33
1!
1'
1-
#36
0!
0'
0-
#37
0#
#39
1!
1'
1-
#42
0!
0'
0-
#45
1#
1!
1'
1-
#48
0!
0'
0-
#51
1!
1'
1-
#53
0#
#54
0!
0'
0-
#57
0"
0$
0.
1!
1'
1-
#60
0!
0'
0-
#61
1#
#63
1!
1'
1-
#66
0!
0'
0-
#69
1!
1'
1-
#70
b01100001011000111101100111010011 %
1&
10
b1101 *
b10100 +
1,
15
b01100001011000111101100111010011 /
b1101 3
b10100 4
b00000 ;
1:
b00000000000000000000000000000001 1
b00000000000000000000000000000001 (
b00001 7
b11111 <
#72
0!
0'
0-
#73
0#
#75
1!
1'
1-
#76
b1001 *
b10000 +
b11101010000101101011010111101001 %
b1001 3
b10000 4
b11101010000101101011010111101001 /
#77
b00001 6
b00011 ;
b00011 2
b00011 )
b00000000000000000000000000001000 1
b00000000000000000000000000001000 (
b00100 7
b00000 <
#78
0!
0'
0-
#81
1!
1'
1-
#82
b10101011011001010011000100000010 %
b0111 *
b10110 +
0,
05
b10101011011001010011000100000010 /
b0111 3
b10110 4
b00001 ;
b00001 2
b00001 )
b00000000000000000000000000000010 1
b00000000000000000000000000000010 (
b00010 7
#83
b00100 6
b01000 ;
b01000 2
b01000 )
b00000000000000000000000100000000 1
b00000000000000000000000100000000 (
b01001 7
b00011 <
#84
0!
0'
0-
#85
1#
#87
1!
1'
1-
#88
b0100 *
b01000 +
b01100010010111110111111000010111 %
0&
00
b0100 3
b01000 4
b01100010010111110111111000010111 /
b00100 ;
b00100 2
b00100 )
b00000000000000000000000000010000 1
b00000000000000000000000000010000 (
b00101 7
#89
b01001 6
b01001 ;
b01001 2
b01001 )
b00000000000000000000001000000000 1
b00000000000000000000001000000000 (
b01010 7
b01000 <
#90
0!
0'
0-
#93
1!
1'
1-
#94
b11111110010011010011111000110010 %
b0000 *
b00101 +
1,
15
b11111110010011010011111000110010 /
b0000 3
b00101 4
#96
0!
0'
0-
#97
0#
#99
1!
1'
1-
#100
b0001 *
b11001 +
b11101000100001101100001101110001 %
b0001 3
b11001 4
b11101000100001101100001101110001 /
#102
0!
0'
0-
#105
1!
1'
1-
#106
b01111110011110110100001100100001 %
1&
10
b0000 *
b10101 +
b01111110011110110100001100100001 /
b0000 3
b10101 4
#108
0!
0'
0-
#109
1#
#111
1!
1'
1-
#112
b0101 *
b11001 +
0,
05
b11101010000011111101011111101001 %
b0101 3
b11001 4
b11101010000011111101011111101001 /
#113
b01010 6
b01010 ;
b01010 2
b01010 )
b00000000000000000000010000000000 1
b00000000000000000000010000000000 (
b01011 7
b01001 <
#114
0!
0'
0-
#117
1!
1'
1-
#118
b11100010001000110010110110001101 %
0&
00
b1011 *
b00011 +
1,
15
b11100010001000110010110110001101 /
b1011 3
b00011 4
#119
b01011 6
b01011 ;
b01011 2
b01011 )
b00000000000000000000100000000000 1
b00000000000000000000100000000000 (
b01100 7
b01010 <
#120
0!
0'
0-
#121
0#
#123
1!
1'
1-
#124
b0111 *
b00010 +
0,
05
b00111001010110111000010110101111 %
b0111 3
b00010 4
b00111001010110111000010110101111 /
b01111 ;
b01111 2
b01111 )
b00000000000000001000000000000000 1
b00000000000000001000000000000000 (
b10000 7
#126
0!
0'
0-
#129
1!
1'
1-
#130
b01111000000100110111001010001100 %
1&
10
b1101 *
b10100 +
b01111000000100110111001010001100 /
b1101 3
b10100 4
b01100 ;
b01100 2
b01100 )
b00000000000000000001000000000000 1
b00000000000000000001000000000000 (
b01101 7
#132
0!
0'
0-
#133
1#
#135
1!
1'
1-
#136
b1010 *
b11011 +
1,
15
b10101101011010101100010111010010 %
0&
00
b1010 3
b11011 4
b10101101011010101100010111010010 /
b01110 ;
b01110 2
b01110 )
b00000000000000000100000000000000 1
b00000000000000000100000000000000 (
b01111 7
#137
b01101 6
b01100 <
#138
0!
0'
0-
#141
1!
1'
1-
#142
b01011000100000110100100100011110 %
b01110 +
b01011000100000110100100100011110 /
b01110 4
#144
0!
0'
0-
#145
0#
#147
1!
1'
1-
#148
b0100 *
b01100 +
0,
05
b10001011001000011110011101100000 %
b0100 3
b01100 4
b10001011001000011110011101100000 /
b01101 ;
b01101 2
b01101 )
b00000000000000000010000000000000 1
b00000000000000000010000000000000 (
b01110 7
#150
0!
0'
0-
#153
1!
1'
1-
#154
b00110110001111100100000000010100 %
1&
10
b1110 *
b10100 +
1,
15
b00110110001111100100000000010100 /
b1110 3
b10100 4
b01110 ;
b01110 2
b01110 )
b00000000000000000100000000000000 1
b00000000000000000100000000000000 (
b01111 7
#156
0!
0'
0-
#157
1#
#159
1!
1'
1-
#160
b0000 *
b00100 +
0,
05
b11110010010000101100110011001100 %
0&
00
b0000 3
b00100 4
b11110010010000101100110011001100 /
#161
b01111 6
b01111 ;
b01111 2
b01111 )
b00000000000000001000000000000000 1
b00000000000000001000000000000000 (
b10000 7
b01110 <
#162
0!
0'
0-
#165
1!
1'
1-
#166
b00011110000000011111111100000100 %
1&
10
b0100 *
b10110 +
b00011110000000011111111100000100 /
b0100 3
b10110 4
#168
0!
0'
0-
#169
0#
#171
1!
1'
1-
#172
b0110 *
b01000 +
1,
15
b00111001110010010010010001111001 %
0&
00
b0110 3
b01000 4
b00111001110010010010010001111001 /
b10000 ;
b10000 2
b10000 )
b00000000000000010000000000000000 1
b00000000000000010000000000000000 (
b10001 7
#173
b10000 6
b01111 <
#174
0!
0'
0-
#177
1!
1'
1-
#178
b01010101001000010001100000001110 %
b1000 *
b10010 +
0,
05
b01010101001000010001100000001110 /
b1000 3
b10010 4
#180
0!
0'
0-
#181
1#
#183
1!
1'
1-
#184
b1100 *
b11001 +
1,
15
b10111110011100011110010101001011 %
1&
10
b1100 3
b11001 4
b10111110011100011110010101001011 /
#186
0!
0'
0-
#189
1!
1'
1-
#190
b11100000110011011100100111110011 %
b1010 *
b00101 +
0,
05
b11100000110011011100100111110011 /
b1010 3
b00101 4
#191
b10001 6
b10010 ;
b10010 2
b10010 )
b00000000000001000000000000000000 1
b00000000000001000000000000000000 (
b10011 7
b10000 <
#192
0!
0'
0-
#193
0#
#195
1!
1'
1-
#196
b0000 *
b01110 +
1,
15
b10011110111011000001000011100100 %
b0000 3
b01110 4
b10011110111011000001000011100100 /
#197
b10011 6
b10011 ;
b10011 2
b10011 )
b00000000000010000000000000000000 1
b00000000000010000000000000000000 (
b10100 7
b10010 <
#198
0!
0'
0-
#201
1!
1'
1-
#202
b10001010011110001001010111011110 %
b1101 *
b11001 +
b10001010011110001001010111011110 /
b1101 3
b11001 4
#203
b10100 6
b10100 ;
b10100 2
b10100 )
b00000000000100000000000000000000 1
b00000000000100000000000000000000 (
b10101 7
b10011 <
#204
0!
0'
0-
#205
1#
#207
1!
1'
1-
#208
b0110 *
b11111 +
b11011110010110000000110101111110 %
0&
00
b0110 3
b11111 4
b11011110010110000000110101111110 /
#209
b10101 6
b10110 ;
b10110 2
b10110 )
b00000000010000000000000000000000 1
b00000000010000000000000000000000 (
b10111 7
b10100 <
#210
0!
0'
0-
#213
1!
1'
1-
#214
b10010101011111110000100100001101 %
b1101 *
b01110 +
b10010101011111110000100100001101 /
b1101 3
b01110 4
b10101 ;
b10101 2
b10101 )
b00000000001000000000000000000000 1
b00000000001000000000000000000000 (
b10110 7
#216
0!
0'
0-
#217
0#
#219
1!
1'
1-
#220
b1110 *
b10111 +
0,
05
b10101001100011101001100111011011 %
1&
10
b1110 3
b10111 4
b10101001100011101001100111011011 /
b10111 ;
b10111 2
b10111 )
b00000000100000000000000000000000 1
b00000000100000000000000000000000 (
b11000 7
#222
0!
0'
0-
#225
1!
1'
1-
#226
b01101010100111111001100011100111 %
b0100 *
b11000 +
b01101010100111111001100011100111 /
b0100 3
b11000 4
#227
b11000 6
b11001 ;
b11001 2
b11001 )
b00000010000000000000000000000000 1
b00000010000000000000000000000000 (
b11010 7
b10111 <
#228
0!
0'
0-
#229
1#
#231
1!
1'
1-
#232
b1010 *
b10111 +
b00010010100001101000000100100100 %
b1010 3
b10111 4
b00010010100001101000000100100100 /
#233
b11010 6
b11100 ;
b11100 2
b11100 )
b00010000000000000000000000000000 1
b00010000000000000000000000000000 (
b11101 7
b11001 <
#234
0!
0'
0-
#237
1!
1'
1-
#238
b00011011100010000001001110000111 %
0&
00
b1110 *
b10001 +
1,
15
b00011011100010000001001110000111 /
b1110 3
b10001 4
b11011 ;
b11011 2
b11011 )
b00001000000000000000000000000000 1
b00001000000000000000000000000000 (
b11100 7
#239
b11101 6
b00001 ;
b00001 2
b00001 )
b00000000000000000000000000000010 1
b00000000000000000000000000000010 (
b00010 7
b11100 <
#240
0!
0'
0-
#241
0#
#243
1!
1'
1-
#244
b1000 *
b01100 +
b00111010010000111111110011110011 %
1&
10
b1000 3
b01100 4
b00111010010000111111110011110011 /
b11101 ;
b11101 2
b11101 )
b00100000000000000000000000000000 1
b00100000000000000000000000000000 (
b11110 7
#246
0!
0'
0-
#249
1!
1'
1-
#250
b00101011100110011001101110010100 %
0&
00
b0111 *
b01011 +
0,
05
b00101011100110011001101110010100 /
b0111 3
b01011 4
#251
b11110 6
b00010 ;
b00010 2
b00010 )
b00000000000000000000000000000100 1
b00000000000000000000000000000100 (
b00011 7
b11101 <
#252
0!
0'
0-
#253
1#
#255
1!
1'
1-
#256
b0010 *
b10100 +
1,
15
b11100001001111100100001100000111 %
1&
10
b0010 3
b10100 4
b11100001001111100100001100000111 /
b11110 ;
b11110 2
b11110 )
b01000000000000000000000000000000 1
b01000000000000000000000000000000 (
b11111 7
#258
0!
0'
0-
#261
1!
1'
1-
#262
b00010011010100010101010111000001 %
b1000 *
b10010 +
b00010011010100010101010111000001 /
b1000 3
b10010 4
b00110 ;
b00110 2
b00110 )
b00000000000000000000000001000000 1
b00000000000000000000000001000000 (
b00111 7
#263
b11111 6
b11110 <
#264
0!
0'
0-
#265
0#
#267
1!
1'
1-
#268
b1110 *
b00110 +
0,
05
b00110101111111000001110110011111 %
b1110 3
b00110 4
b00110101111111000001110110011111 /
b00001 ;
b00001 2
b00001 )
b00000000000000000000000000000010 1
b00000000000000000000000000000010 (
b00010 7
#269
b00111 6
b00111 ;
b00111 2
b00111 )
b00000000000000000000000010000000 1
b00000000000000000000000010000000 (
b01000 7
b00110 <
#270
0!
0'
0-
#273
1!
1'
1-
#274
b11111000110011110110101011001011 %
0&
00
b0011 *
b00011 +
1,
15
b11111000110011110110101011001011 /
b0011 3
b00011 4
#275
b01000 6
b01011 ;
b01011 2
b01011 )
b00000000000000000000100000000000 1
b00000000000000000000100000000000 (
b01100 7
b00111 <
#276
0!
0'
0-
#277
1#
#279
1!
1'
1-
#280
b1110 *
b01100 +
0,
05
b01111100100110000101011000011010 %
1&
10
b1110 3
b01100 4
b01111100100110000101011000011010 /
b11010 ;
b11010 2
b11010 )
b00000100000000000000000000000000 1
b00000100000000000000000000000000 (
b11011 7
#282
0!
0'
0-
#285
1!
1'
1-
#286
b11101110111111010000000000011100 %
b1101 *
b10100 +
b11101110111111010000000000011100 /
b1101 3
b10100 4
b10101 ;
b10101 2
b10101 )
b00000000001000000000000000000000 1
b00000000001000000000000000000000 (
b10110 7
#287
b11011 6
b11011 ;
b11011 2
b11011 )
b00001000000000000000000000000000 1
b00001000000000000000000000000000 (
b11100 7
b11010 <
#288
0!
0'
0-
#289
0#
#291
1!
1'
1-
#292
b1001 *
b11011 +
1,
15
b11000101000001110011100011001110 %
0&
00
b1001 3
b11011 4
b11000101000001110011100011001110 /
b11111 ;
b11111 2
b11111 )
b10000000000000000000000000000000 1
b10000000000000000000000000000000 (
b00000 7
#293
b11100 6
b11011 <
#294
0!
0'
0-
#297
1!
1'
1-
#298
b01100110110001010101100101110001 %
b0000 *
b10101 +
0,
05
b01100110110001010101100101110001 /
b0000 3
b10101 4
b00100 ;
b00100 2
b00100 )
b00000000000000000000000000010000 1
b00000000000000000000000000010000 (
b00101 7
#300
0!
0'
0-
1"
1$
1.
#301
1#
#303
1!
1'
1-
b00000 6
b00000 ;
b00000 2
b00000 )
b00000000000000000000000000000001 1
b00000000000000000000000000000001 (
b00001 7
b11111 <
#304
b1000 *
b10001 +
1,
15
b11101011110111111010101001110000 %
1&
10
b1000 3
b10001 4
b11101011110111111010101001110000 /
b00100 ;
b00100 2
b00100 )
b00000000000000000000000000010000 1
b00000000000000000000000000010000 (
b00101 7
#306
0!
0'
0-
#309
1!
1'
1-
#310
b00000000000000000000000000000000 %
0&
00
b0000 *
b00000 +
0,
05
b00000000000000000000000000000000 /
b0000 3
b00000 4
b11111 ;
0:
b00000 2
b00000 )
b00000000000000000000000000000000 1
b00000000000000000000000000000000 (
b00000 7
#312
0!
0'
0-
#313
0#
#315
1!
1'
1-
#318
0!
0'
0-
#321
1!
1'
1-
#324
0!
0'
0-
#325
1#
#327
1!
1'
1-
#330
0!
0'
0-
#333
1!
1'
1-
#336
0!
0'
0-
0"
0$
0.
#337
0#
#339
1!
1'
1-
#342
0!
0'
0-
#345
1!
1'
1-
#348
0!
0'
0-
#349
1#
#351
1!
1'
1-
#352
b01110011101100100010100101111101 %
1&
10
b00101 +
1,
15
b01110011101100100010100101111101 /
b00101 4
b00000 ;
1:
b00000000000000000000000000000001 1
b00000000000000000000000000000001 (
b00001 7
#354
0!
0'
0-
#357
1!
1'
1-
#358
b1110 *
b01100 +
b11100110110110011001100110010110 %
0&
00
b1110 3
b01100 4
b11100110110110011001100110010110 /
b00001 ;
b00001 2
b00001 )
b00000000000000000000000000000010 1
b00000000000000000000000000000010 (
b00010 7
#359
b00001 6
b00000 <
#360
0!
0'
0-
#361
0#
#363
1!
1'
1-
#364
b00100100011101111010101101100100 %
1&
10
b0011 *
b11011 +
b00100100011101111010101101100100 /
b0011 3
b11011 4
b00010 ;
b00010 2
b00010 )
b00000000000000000000000000000100 1
b00000000000000000000000000000100 (
b00011 7
#366
0!
0'
0-
#369
1!
1'
1-
#370
b0110 *
b00010 +
0,
05
b11010100110101010111101100000010 %
0&
00
b0110 3
b00010 4
b11010100110101010111101100000010 /
b00001 ;
b00001 2
b00001 )
b00000000000000000000000000000010 1
b00000000000000000000000000000010 (
b00010 7
#371
b00011 6
b01000 ;
b01000 2
b01000 )
b00000000000000000000000100000000 1
b00000000000000000000000100000000 (
b01001 7
b00010 <
#372
0!
0'
0-
#373
1#
#375
1!
1'
1-
#376
b10010010111110001010001011110111 %
1&
10
b1101 *
b01100 +
1,
15
b10010010111110001010001011110111 /
b1101 3
b01100 4
b00100 ;
b00100 2
b00100 )
b00000000000000000000000000010000 1
b00000000000000000000000000010000 (
b00101 7
#378
0!
0'
0-
#381
1!
1'
1-
#382
b0010 *
b10101 +
b10010011000011001001111001010100 %
0&
00
b0010 3
b10101 4
b10010011000011001001111001010100 /
#383
b00101 6
b00110 ;
b00110 2
b00110 )
b00000000000000000000000001000000 1
b00000000000000000000000001000000 (
b00111 7
b00100 <
#384
0!
0'
0-
#385
0#
#387
1!
1'
1-
#388
b10001001000001010010100011110101 %
1&
10
b1101 *
b00001 +
0,
05
b10001001000001010010100011110101 /
b1101 3
b00001 4
b00101 ;
b00101 2
b00101 )
b00000000000000000000000000100000 1
b00000000000000000000000000100000 (
b00110 7
#390
0!
0'
0-
#393
1!
1'
1-
#394
b1010 *
b10010 +
b00001011110101101101110100111010 %
b1010 3
b10010 4
b00001011110101101101110100111010 /
#395
b00110 6
b01000 ;
b01000 2
b01000 )
b00000000000000000000000100000000 1
b00000000000000000000000100000000 (
b01001 7
b00101 <
#396
0!
0'
0-
#397
1#
#399
1!
1'
1-
#400
b11110111111010110001110010011111 %
0&
00
b1011 *
b01100 +
1,
15
b11110111111010110001110010011111 /
b1011 3
b01100 4
b00111 ;
b00111 2
b00111 )
b00000000000000000000000010000000 1
b00000000000000000000000010000000 (
b01000 7
#401
b01001 6
b01010 ;
b01010 2
b01010 )
b00000000000000000000010000000000 1
b00000000000000000000010000000000 (
b01011 7
b01000 <
#402
0!
0'
0-
#405
1!
1'
1-
#406
b11110 +
0,
05
b01001101011000101100000011000000 %
1&
10
b11110 4
b01001101011000101100000011000000 /
b01110 ;
b01110 2
b01110 )
b00000000000000000100000000000000 1
b00000000000000000100000000000000 (
b01111 7
#408
0!
0'
0-
#409
0#
#411
1!
1'
1-
#412
b11100100111010110111011011101100 %
b1010 *
b01001 +
b11100100111010110111011011101100 /
b1010 3
b01001 4
b01001 ;
b01001 2
b01001 )
b00000000000000000000001000000000 1
b00000000000000000000001000000000 (
b01010 7
#413
b01111 6
b10000 ;
b10000 2
b10000 )
b00000000000000010000000000000000 1
b00000000000000010000000000000000 (
b10001 7
b01110 <
#414
0!
0'
0-
#417
1!
1'
1-
#418
b0100 *
b01011 +
1,
15
b10111001110000110110011010100001 %
b0100 3
b01011 4
b10111001110000110110011010100001 /
#419
b10001 6
b10001 ;
b10001 2
b10001 )
b00000000000000100000000000000000 1
b00000000000000100000000000000000 (
b10010 7
b10000 <
#420
0!
0'
0-
#421
1#
#423
1!
1'
1-
#424
b10010010110010001111000001110011 %
b0010 *
b00111 +
b10010010110010001111000001110011 /
b0010 3
b00111 4
b10011 ;
b10011 2
b10011 )
b00000000000010000000000000000000 1
b00000000000010000000000000000000 (
b10100 7
#425
b10010 6
b10001 <
#426
0!
0'
0-
#429
1!
1'
1-
#430
b0111 *
b01011 +
b01111000100110101010100010000101 %
0&
00
b0111 3
b01011 4
b01111000100110101010100010000101 /
#431
b10100 6
b10100 ;
b10100 2
b10100 )
b00000000000100000000000000000000 1
b00000000000100000000000000000000 (
b10101 7
b10011 <
#432
0!
0'
0-
#433
0#
#435
1!
1'
1-
#436
b10001110101000110010100011100000 %
1&
10
b0110 *
b01001 +
0,
05
b10001110101000110010100011100000 /
b0110 3
b01001 4
b10101 ;
b10101 2
b10101 )
b00000000001000000000000000000000 1
b00000000001000000000000000000000 (
b10110 7
#438
0!
0'
0-
#441
1!
1'
1-
#442
b1110 *
b11001 +
1,
15
b11101101111111010111000110111101 %
b1110 3
b11001 4
b11101101111111010111000110111101 /
b10100 ;
b10100 2
b10100 )
b00000000000100000000000000000000 1
b00000000000100000000000000000000 (
b10101 7
#443
b10110 6
b10110 ;
b10110 2
b10110 )
b00000000010000000000000000000000 1
b00000000010000000000000000000000 (
b10111 7
b10101 <
#444
0!
0'
0-
#445
1#
#447
1!
1'
1-
#448
b00101010101011101101100111001101 %
b0010 *
b01011 +
b00101010101011101101100111001101 /
b0010 3
b01011 4
b10111 ;
b10111 2
b10111 )
b00000000100000000000000000000000 1
b00000000100000000000000000000000 (
b11000 7
#449
b10111 6
b10110 <
#450
0!
0'
0-
#453
1!
1'
1-
#454
b10100 +
0,
05
b11000010001000001100001011010010 %
0&
00
b10100 4
b11000010001000001100001011010010 /
b11001 ;
b11001 2
b11001 )
b00000010000000000000000000000000 1
b00000010000000000000000000000000 (
b11010 7
#455
b11000 6
b10111 <
#456
0!
0'
0-
#457
0#
#459
1!
1'
1-
#460
b01011100111111000011000100101111 %
1&
10
b0101 *
b10101 +
1,
15
b01011100111111000011000100101111 /
b0101 3
b10101 4
b11010 ;
b11010 2
b11010 )
b00000100000000000000000000000000 1
b00000100000000000000000000000000 (
b11011 7
#462
0!
0'
0-
#465
1!
1'
1-
#466
b1010 *
b11101 +
0,
05
b00111101000001001101110011100010 %
b1010 3
b11101 4
b00111101000001001101110011100010 /
b11000 ;
b11000 2
b11000 )
b00000001000000000000000000000000 1
b00000001000000000000000000000000 (
b11001 7
#467
b11011 6
b11011 ;
b11011 2
b11011 )
b00001000000000000000000000000000 1
b00001000000000000000000000000000 (
b11100 7
b11010 <
#468
0!
0'
0-
#469
1#
#471
1!
1'
1-
#472
b11010101000111100011101001101101 %
0&
00
b1001 *
b10110 +
b11010101000111100011101001101101 /
b1001 3
b10110 4
b11100 )
b00010000000000000000000000000000 (
#474
0!
0'
0-
#477
1!
1'
1-
#478
b0011 *
1,
15
b10001101101100000100101110010001 %
b0011 3
b10001101101100000100101110010001 /
b11111 )
b10000000000000000000000000000000 (
#480
0!
0'
0-
#481
0#
#483
1!
1'
1-
#484
b01000110011001100000001010101010 %
1&
10
b0000 *
b01011 +
0,
05
b01000110011001100000001010101010 /
b0000 3
b01011 4
b11110 )
b01000000000000000000000000000000 (
#486
0!
0'
0-
#489
1!
1'
1-
#490
b1011 *
b11111 +
1,
15
b10011000100010110100010100111000 %
0&
00
b1011 3
b11111 4
b10011000100010110100010100111000 /
b11100 )
b00010000000000000000000000000000 (
#491
b11111 )
b10000000000000000000000000000000 (
#492
0!
0'
0-
#493
1#
#495
1!
1'
1-
#496
b00001111010000001111011100100110 %
b0011 *
b11010 +
b00001111010000001111011100100110 /
b0011 3
b11010 4
b00001 )
b00000000000000000000000000000010 (
#498
0!
0'
0-
#501
1!
1'
1-
#502
b0101 *
b01010 +
b00101101100000001001001101011000 %
b0101 3
b01010 4
b00101101100000001001001101011000 /
b00011 )
b00000000000000000000000000001000 (
#504
0!
0'
0-
#505
0#
#507
1!
1'
1-
#508
b01101111100110011100000001001011 %
1&
10
b1101 *
b10101 +
b01101111100110011100000001001011 /
b1101 3
b10101 4
b00001 )
b00000000000000000000000000000010 (
#510
0!
0'
0-
#513
1!
1'
1-
#514
b1100 *
b01011 +
b01010101100010001110110110010000 %
0&
00
b1100 3
b01011 4
b01010101100010001110110110010000 /
b00111 )
b00000000000000000000000010000000 (
#516
0!
0'
0-
#517
1#
#519
1!
1'
1-
#520
b01001111100111011001111000010011 %
1&
10
b1001 *
b01000 +
0,
05
b01001111100111011001111000010011 /
b1001 3
b01000 4
b01001 )
b00000000000000000000001000000000 (
#522
0!
0'
0-
#525
1!
1'
1-
#526
b1101 *
b00101 +
b10001110100111111111100011001101 %
0&
00
b1101 3
b00101 4
b10001110100111111111100011001101 /
b00011 )
b00000000000000000000000000001000 (
#527
b01011 )
b00000000000000000000100000000000 (
#528
0!
0'
0-
#529
0#
#531
1!
1'
1-
#532
b00000011001001000100010010111001 %
1&
10
b0001 *
b01111 +
b00000011001001000100010010111001 /
b0001 3
b01111 4
b01010 )
b00000000000000000000010000000000 (
#534
0!
0'
0-
#537
1!
1'
1-
#538
b1010 *
b10101 +
1,
15
b00000111100100110000011101101010 %
b1010 3
b10101 4
b00000111100100110000011101101010 /
#539
b10100 )
b00000000000100000000000000000000 (
#540
0!
0'
0-
#541
1#
#543
1!
1'
1-
#544
b00111101110110010111011000101011 %
b0011 *
b10110 +
b00111101110110010111011000101011 /
b0011 3
b10110 4
b01100 )
b00000000000000000001000000000000 (
#545
b11000 )
b00000001000000000000000000000000 (
#546
0!
0'
0-
#549
1!
1'
1-
#550
b0001 *
b01001 +
b11000011001101110011011110000000 %
0&
00
b0001 3
b01001 4
b11000011001101110011011110000000 /
#551
b11001 )
b00000010000000000000000000000000 (
#552
0!
0'
0-
#553
0#
#555
1!
1'
1-
#556
b10011101000111011001111000010100 %
b0110 *
b11000 +
b10011101000111011001111000010100 /
b0110 3
b11000 4
b11100 )
b00010000000000000000000000000000 (
#558
0!
0'
0-
#561
1!
1'
1-
#562
b1010 *
b00000 +
b11010101001100111001101101010110 %
b1010 3
b00000 4
b11010101001100111001101101010110 /
#564
0!
0'
0-
#565
1#
#567
1!
1'
1-
#568
b01001011100000011110001011110001 %
1&
10
b1001 *
b11111 +
0,
05
b01001011100000011110001011110001 /
b1001 3
b11111 4
b11001 )
b00000010000000000000000000000000 (
#570
0!
0'
0-
#573
1!
1'
1-
#574
b0110 *
b11010 +
b01100011100011111110111001001001 %
b0110 3
b11010 4
b01100011100011111110111001001001 /
#575
b11101 )
b00100000000000000000000000000000 (
#576
0!
0'
0-
#577
0#
#579
1!
1'
1-
#580
b01110000110111010111001011001100 %
0&
00
b1010 *
b10101 +
b01110000110111010111001011001100 /
b1010 3
b10101 4
b11100 )
b00010000000000000000000000000000 (
#581
b00011 )
b00000000000000000000000000001000 (
#582
0!
0'
0-
#585
1!
1'
1-
#586
b1000 *
b11110 +
1,
15
b00011110000101011101100100110101 %
1&
10
b1000 3
b11110 4
b00011110000101011101100100110101 /
b01011 )
b00000000000000000000100000000000 (
#588
0!
0'
0-
#589
1#
#591
1!
1'
1-
#593
b01100 )
b00000000000000000001000000000000 (
#594
0!
0'
0-
#597
1!
1'
1-
#599
b01111 )
b00000000000000001000000000000000 (
#600
0!
0'
0-
#601
0#
#603
1!
1'
1-
#605
b10010 )
b00000000000001000000000000000000 (
#606
0!
0'
0-
#609
1!
1'
1-
#611
b11100 )
b00010000000000000000000000000000 (
#612
0!
0'
0-
#613
1#
#615
1!
1'
1-
#617
b00000 )
b00000000000000000000000000000000 (
