Weighted_Round_Robin_IP_Full_Flow/OUTPUT/verif/weighted_round_robin_proj/run/testbench_weighted_round_robin_priority_update_attempted_during_reset_test.vcd
$date
	Fri Sep  5 09:09:16 2025
$end

$version
	Synopsys VCS version W-2024.09_Full64
$end

$timescale
	1ns
$end

$comment Csum: 1 11bb74c8e4a897ed $end


$scope module weighted_round_robin_tb_top $end

$scope begin unnamed$$_0 $end
$upscope $end


$scope begin unnamed$$_vcs_0 $end
$upscope $end


$scope module clk_rst_if_inst $end
$var reg 1 ! clk $end
$var reg 1 " rst $end
$var reg 1 # clk_div $end
$upscope $end


$scope module rr_request_if_inst $end
$var reg 1 $ rst $end
$var reg 32 % req [31:0] $end
$var reg 1 & ack $end
$var reg 1 ' clk $end
$upscope $end


$scope module rr_grant_if_inst $end
$var reg 1 $ rst $end
$var reg 32 ( gnt_w [31:0] $end
$var reg 5 ) gnt_id [4:0] $end
$var reg 1 ' clk $end
$upscope $end


$scope module prio_update_if_inst $end
$var reg 1 $ rst $end
$var reg 4 * prio [3:0] $end
$var reg 5 + prio_id [4:0] $end
$var reg 1 , prio_upt $end
$var reg 1 ' clk $end
$upscope $end


$scope module weighted_round_robin_inst $end
$var wire 1 - clk $end
$var wire 1 . rst $end
$var wire 32 / req [31:0] $end
$var wire 1 0 ack $end
$var reg 32 1 gnt_w [31:0] $end
$var reg 5 2 gnt_id [4:0] $end
$var wire 4 3 prio [3:0] $end
$var wire 5 4 prio_id [4:0] $end
$var wire 1 5 prio_upt $end
$var reg 5 6 pointer_r [4:0] $end
$var reg 5 7 pointer_n [4:0] $end

$scope begin wrr_next_state $end
$var reg 32 8 k [31:0] $end
$var reg 32 9 j [31:0] $end
$var reg 1 : found $end
$var reg 5 ; idx [4:0] $end

$scope begin ack_set_loop $end

$scope begin ack_set_loop_req $end
$upscope $end

$upscope $end


$scope begin match_found $end

$scope begin update_credits $end
$var reg 5 < index [4:0] $end
$upscope $end

$upscope $end


$scope begin update_credits $end
$var reg 5 = index [4:0] $end
$upscope $end

$upscope $end


$scope begin unnamed$$_0 $end
$upscope $end


$scope begin unnamed$$_1 $end
$upscope $end

$upscope $end

$upscope $end

$enddefinitions $end

#0
$dumpvars
bxxxxxxxxxxxxxxxxxxxxxxxxxxxxxxxx %
b00000 )
b00000000000000000000000000000000 (
bxxxxx +
bxxxx *
0:
b00000 2
b00000000000000000000000000000000 1
bxxxxx 7
bxxxxx 6
bxxxxx ;
bxxxxx <
bxxxxx =
b00000000000000000000000000100000 8
b00000000000000000000000000000000 9
bxxxxxxxxxxxxxxxxxxxxxxxxxxxxxxxx /
bxxxx 3
bxxxxx 4
0!
0#
1"
0'
0-
1$
1.
x0
x5
x&
x,
$end
#3
1!
1'
1-
b00000 6
b11111 ;
b00000 7
b11111 =
#4
b0000 *
b00000 +
0,
05
b00000000000000000000000000000000 %
0&
00
b0000 3
b00000 4
b00000000000000000000000000000000 /
#6
1#
0!
0'
0-
#9
1!
1'
1-
#10
0#
#12
0!
0'
0-
#14
1#
#15
1!
1'
1-
#18
0#
0!
0'
0-
#21
1!
1'
1-
#22
1#
#24
0!
0'
0-
#26
0#
#27
1!
1'
1-
#30
1#
0!
0'
0-
#33
1!
1'
1-
#34
0#
#36
0!
0'
0-
#38
1#
#39
1!
1'
1-
#42
0#
0!
0'
0-
#45
1!
1'
1-
#46
1#
#48
0!
0'
0-
#50
0#
#51
1!
1'
1-
#54
1#
0!
0'
0-
0"
0$
0.
#57
1!
1'
1-
#58
0#
1,
15
#60
0!
0'
0-
#62
1#
#63
1!
1'
1-
#64
b1111 *
b11111 +
b1111 3
b11111 4
#66
0#
0!
0'
0-
#69
1!
1'
1-
#70
1#
b1110 *
b01110 +
b1110 3
b01110 4
#72
0!
0'
0-
#74
0#
#75
1!
1'
1-
#76
b0000 *
b00000 +
0,
05
b0000 3
b00000 4
#78
1#
0!
0'
0-
#81
1!
1'
1-
#82
0#
#84
0!
0'
0-
#86
1#
#87
1!
1'
1-
#90
0#
0!
0'
0-
#93
1!
1'
1-
#94
1#
#96
0!
0'
0-
#98
0#
#99
1!
1'
1-
#100
b0100 *
b11011 +
1,
15
b0100 3
b11011 4
#102
1#
0!
0'
0-
#105
1!
1'
1-
#106
0#
b0000 *
b00000 +
0,
05
b0000 3
b00000 4
#108
0!
0'
0-
#110
1#
#111
1!
1'
1-
#114
0#
0!
0'
0-
#117
1!
1'
1-
#118
1#
b11111111111111111111111111111111 %
b11111111111111111111111111111111 /
b00000 ;
1:
b00000000000000000000000000000001 1
b00000000000000000000000000000001 (
b00001 7
b11111 <
#120
0!
0'
0-
#122
0#
#123
1!
1'
1-
#124
1&
10
b1100 *
b01010 +
1,
15
b1100 3
b01010 4
#126
1#
0!
0'
0-
#129
1!
1'
1-
#130
0#
b0000 *
b00000 +
0,
05
0&
00
b0000 3
b00000 4
#131
b00001 6
b00001 ;
b00001 2
b00001 )
b00000000000000000000000000000010 1
b00000000000000000000000000000010 (
b00010 7
b00000 <
#132
0!
0'
0-
#134
1#
#135
1!
1'
1-
#136
1&
10
#138
0#
0!
0'
0-
#141
1!
1'
1-
#142
1#
b0010 *
b10010 +
1,
15
0&
00
b0010 3
b10010 4
#143
b00010 6
b00010 ;
b00010 2
b00010 )
b00000000000000000000000000000100 1
b00000000000000000000000000000100 (
b00011 7
b00001 <
#144
0!
0'
0-
#146
0#
#147
1!
1'
1-
#148
1&
10
b0000 *
b00000 +
0,
05
b0000 3
b00000 4
#150
1#
0!
0'
0-
#153
1!
1'
1-
#154
0#
0&
00
#155
b00011 6
b00011 ;
b00011 2
b00011 )
b00000000000000000000000000001000 1
b00000000000000000000000000001000 (
b00100 7
b00010 <
#156
0!
0'
0-
#158
1#
#159
1!
1'
1-
#160
1&
10
#162
0#
0!
0'
0-
#165
1!
1'
1-
#166
1#
b0111 *
b11111 +
1,
15
b00000000000100000000000000000000 %
b0111 3
b11111 4
b00000000000100000000000000000000 /
b10100 ;
b10100 2
b10100 )
b00000000000100000000000000000000 1
b00000000000100000000000000000000 (
b10101 7
#167
b00100 6
b00011 <
#168
0!
0'
0-
#170
0#
#171
1!
1'
1-
#172
b00000000000000000000000010000000 %
0&
00
b0000 *
b00000 +
0,
05
b00000000000000000000000010000000 /
b0000 3
b00000 4
b00111 ;
b00111 2
b00111 )
b00000000000000000000000010000000 1
b00000000000000000000000010000000 (
b01000 7
#173
b10101 6
b10100 <
#174
1#
0!
0'
0-
#177
1!
1'
1-
#178
0#
b00000000000000000000000000001000 %
b00000000000000000000000000001000 /
b10100 ;
0:
b00000 2
b00000 )
b00000000000000000000000000000000 1
b00000000000000000000000000000000 (
b10101 7
b10100 =
#180
0!
0'
0-
#182
1#
#183
1!
1'
1-
#184
b00000000000000010000000000000000 %
1&
10
b00000000000000010000000000000000 /
b10000 ;
1:
b10000 2
b10000 )
b00000000000000010000000000000000 1
b00000000000000010000000000000000 (
b10001 7
#186
0#
0!
0'
0-
#189
1!
1'
1-
#190
1#
b1000 *
b00111 +
1,
15
b00000000000001000000000000000000 %
b1000 3
b00111 4
b00000000000001000000000000000000 /
b10010 ;
b10010 2
b10010 )
b00000000000001000000000000000000 1
b00000000000001000000000000000000 (
b10011 7
#191
b10001 6
b10000 <
#192
0!
0'
0-
#194
0#
#195
1!
1'
1-
#196
b00000000000000000000000000001000 %
b0000 *
b00000 +
0,
05
b00000000000000000000000000001000 /
b0000 3
b00000 4
b00011 ;
b00011 2
b00011 )
b00000000000000000000000000001000 1
b00000000000000000000000000001000 (
b00100 7
#197
b10011 6
b10010 <
#198
1#
0!
0'
0-
#201
1!
1'
1-
#202
0#
b00000010000000000000000000000000 %
0&
00
b00000010000000000000000000000000 /
b11001 ;
b11001 2
b11001 )
b00000010000000000000000000000000 1
b00000010000000000000000000000000 (
b11010 7
#203
b00100 6
b00011 <
#204
0!
0'
0-
#206
1#
#207
1!
1'
1-
#208
b00000000000000100000000000000000 %
b00000000000000100000000000000000 /
b10001 ;
b10001 2
b10001 )
b00000000000000100000000000000000 1
b00000000000000100000000000000000 (
b10010 7
#210
0#
0!
0'
0-
#213
1!
1'
1-
#214
1#
b00100000000000000000000000000000 %
b00100000000000000000000000000000 /
b11101 ;
b11101 2
b11101 )
b00100000000000000000000000000000 1
b00100000000000000000000000000000 (
b11110 7
#216
0!
0'
0-
#218
0#
#219
1!
1'
1-
#220
b00000000000000001000000000000000 %
1&
10
1,
15
b00000000000000001000000000000000 /
b01111 ;
b01111 2
b01111 )
b00000000000000001000000000000000 1
b00000000000000001000000000000000 (
b10000 7
#222
1#
0!
0'
0-
#225
1!
1'
1-
#226
0#
b1111 *
b11111 +
b00000000000000000010000000000000 %
0&
00
b1111 3
b11111 4
b00000000000000000010000000000000 /
b01101 ;
b01101 2
b01101 )
b00000000000000000010000000000000 1
b00000000000000000010000000000000 (
b01110 7
#227
b10000 6
b01111 <
#228
0!
0'
0-
#230
1#
#231
1!
1'
1-
#232
b00000000000000000000000000100000 %
b0010 *
b11010 +
0,
05
b00000000000000000000000000100000 /
b0010 3
b11010 4
b00101 ;
b00101 2
b00101 )
b00000000000000000000000000100000 1
b00000000000000000000000000100000 (
b00110 7
#234
0#
0!
0'
0-
#237
1!
1'
1-
#238
1#
b0111 *
b11111 +
1,
15
b00000000000000000000000000000001 %
b0111 3
b11111 4
b00000000000000000000000000000001 /
b00000 ;
b00000 2
b00000 )
b00000000000000000000000000000001 1
b00000000000000000000000000000001 (
b00001 7
#240
0!
0'
0-
#242
0#
#243
1!
1'
1-
#244
b10000000000000000000000000000000 %
1&
10
b0001 *
b01011 +
b10000000000000000000000000000000 /
b0001 3
b01011 4
b11111 ;
b11111 2
b11111 )
b10000000000000000000000000000000 1
b10000000000000000000000000000000 (
b00000 7
#246
1#
0!
0'
0-
#249
1!
1'
1-
#250
0#
b0000 *
b00000 +
0,
05
b00000000000000000000000000000000 %
0&
00
b0000 3
b00000 4
b00000000000000000000000000000000 /
b01111 ;
0:
b00000 2
b00000 )
b00000000000000000000000000000000 1
b00000000000000000000000000000000 (
b10000 7
b01111 =
#251
b00000 6
b11111 ;
b00000 7
b11111 =
#252
0!
0'
0-
#254
1#
#255
1!
1'
1-
#256
b11111111111111111111111111111111 %
b11111111111111111111111111111111 /
b00000 ;
1:
b00000000000000000000000000000001 1
b00000000000000000000000000000001 (
b00001 7
b11111 <
#258
0#
0!
0'
0-
#261
1!
1'
1-
#262
1#
1&
10
#264
0!
0'
0-
#266
0#
#267
1!
1'
1-
#268
0&
00
#269
b00001 6
b00001 ;
b00001 2
b00001 )
b00000000000000000000000000000010 1
b00000000000000000000000000000010 (
b00010 7
b00000 <
#270
1#
0!
0'
0-
#273
1!
1'
1-
#274
0#
b1001 *
b11000 +
1,
15
1&
10
b1001 3
b11000 4
#276
0!
0'
0-
#278
1#
#279
1!
1'
1-
#280
0&
00
b0000 *
b00000 +
0,
05
b0000 3
b00000 4
#281
b00010 6
b00010 ;
b00010 2
b00010 )
b00000000000000000000000000000100 1
b00000000000000000000000000000100 (
b00011 7
b00001 <
#282
0#
0!
0'
0-
#285
1!
1'
1-
#286
1#
1&
10
#288
0!
0'
0-
#290
0#
#291
1!
1'
1-
#292
0&
00
b0011 *
b11000 +
1,
15
b0011 3
b11000 4
#293
b00011 6
b00011 ;
b00011 2
b00011 )
b00000000000000000000000000001000 1
b00000000000000000000000000001000 (
b00100 7
b00010 <
#294
1#
0!
0'
0-
#297
1!
1'
1-
#298
0#
b0000 *
b00000 +
0,
05
1&
10
b0000 3
b00000 4
#300
0!
0'
0-
#302
1#
#303
1!
1'
1-
#304
b00000000000000000000100000000000 %
0&
00
b00000000000000000000100000000000 /
b01011 ;
b01011 2
b01011 )
b00000000000000000000100000000000 1
b00000000000000000000100000000000 (
b01100 7
#305
b00100 6
b00011 <
#306
0#
0!
0'
0-
#309
1!
1'
1-
#310
1#
b1000 *
b01111 +
1,
15
b00000000000000010000000000000000 %
1&
10
b1000 3
b01111 4
b00000000000000010000000000000000 /
b10000 ;
b10000 2
b10000 )
b00000000000000010000000000000000 1
b00000000000000010000000000000000 (
b10001 7
#312
0!
0'
0-
#314
0#
#315
1!
1'
1-
#316
b00000000000000000000000100000000 %
b0000 *
b00000 +
0,
05
b00000000000000000000000100000000 /
b0000 3
b00000 4
b01000 ;
b01000 2
b01000 )
b00000000000000000000000100000000 1
b00000000000000000000000100000000 (
b01001 7
#317
b10001 6
b10000 <
#318
1#
0!
0'
0-
#321
1!
1'
1-
#322
0#
b00000000000000000100000000000000 %
0&
00
b00000000000000000100000000000000 /
b01110 ;
b01110 2
b01110 )
b00000000000000000100000000000000 1
b00000000000000000100000000000000 (
b01111 7
#323
b01001 6
b01000 <
#324
0!
0'
0-
#326
1#
#327
1!
1'
1-
#328
b00000010000000000000000000000000 %
b1000 *
b01010 +
1,
15
b00000010000000000000000000000000 /
b1000 3
b01010 4
b11001 ;
b11001 2
b11001 )
b00000010000000000000000000000000 1
b00000010000000000000000000000000 (
b11010 7
#330
0#
0!
0'
0-
#333
1!
1'
1-
#334
1#
b0000 *
b00000 +
0,
05
b00000000000000000000100000000000 %
1&
10
b0000 3
b00000 4
b00000000000000000000100000000000 /
b01011 ;
b01011 2
b01011 )
b00000000000000000000100000000000 1
b00000000000000000000100000000000 (
b01100 7
#336
0!
0'
0-
#338
0#
#339
1!
1'
1-
#340
b00000000000000000100000000000000 %
0&
00
b00000000000000000100000000000000 /
b01110 ;
b01110 2
b01110 )
b00000000000000000100000000000000 1
b00000000000000000100000000000000 (
b01111 7
#341
b01100 6
b01011 <
#342
1#
0!
0'
0-
#345
1!
1'
1-
#346
0#
b00000000000000001000000000000000 %
b00000000000000001000000000000000 /
b01111 ;
b01111 2
b01111 )
b00000000000000001000000000000000 1
b00000000000000001000000000000000 (
b10000 7
#348
0!
0'
0-
#350
1#
#351
1!
1'
1-
#352
b00000010000000000000000000000000 %
b0100 *
b11001 +
1,
15
b00000010000000000000000000000000 /
b0100 3
b11001 4
b11001 ;
b11001 2
b11001 )
b00000010000000000000000000000000 1
b00000010000000000000000000000000 (
b11010 7
#354
0#
0!
0'
0-
#357
1!
1'
1-
#358
1#
b0000 *
b00000 +
0,
05
b00000000001000000000000000000000 %
1&
10
b0000 3
b00000 4
b00000000001000000000000000000000 /
b10101 ;
b10101 2
b10101 )
b00000000001000000000000000000000 1
b00000000001000000000000000000000 (
b10110 7
#360
0!
0'
0-
#362
0#
#363
1!
1'
1-
#364
b00000000000000000000000100000000 %
b00000000000000000000000100000000 /
b01011 ;
0:
b00000 2
b00000 )
b00000000000000000000000000000000 1
b00000000000000000000000000000000 (
b01100 7
b01011 =
#365
b10110 6
b10101 ;
b10110 7
b10101 =
#366
1#
0!
0'
0-
#369
1!
1'
1-
#370
0#
b00000000000000000000000000000100 %
b00000000000000000000000000000100 /
#371
b00010 ;
1:
b00010 2
b00010 )
b00000000000000000000000000000100 1
b00000000000000000000000000000100 (
b00011 7
b10101 <
#372
0!
0'
0-
#374
1#
#375
1!
1'
1-
#376
b00000000000000000000000000000001 %
0&
00
b00000000000000000000000000000001 /
b00000 ;
b00000 2
b00000 )
b00000000000000000000000000000001 1
b00000000000000000000000000000001 (
b00001 7
#377
b00011 6
b00010 <
#378
0#
0!
0'
0-
#381
1!
1'
1-
#382
1#
b10000000000000000000000000000000 %
1&
10
b10000000000000000000000000000000 /
b11111 ;
b11111 2
b11111 )
b10000000000000000000000000000000 1
b10000000000000000000000000000000 (
b00000 7
#384
0!
0'
0-
#386
0#
#387
1!
1'
1-
#388
b00000000000000000000000000000000 %
0&
00
b00000000000000000000000000000000 /
b00010 ;
0:
b00000 2
b00000 )
b00000000000000000000000000000000 1
b00000000000000000000000000000000 (
b00011 7
b00010 =
#389
b00000 6
b11111 ;
b00000 7
b11111 =
