SerialDP_IP_Full_Flow/OUTPUT/verif/serial_ip_proj/run/testbench_serial_ip_parity_error_detection_test_test.vcd
$date
	Tue Apr 15 09:50:32 2025
$end

$version
	Synopsys VCS version V-2023.12-SP1
$end

$timescale
	1ps
$end

$comment Csum: 1 4216650a24db993f $end


$scope module serial_ip_tb_top $end
$var reg 1 ! clk $end
$var reg 1 " rst $end

$scope begin unnamed$$_0 $end
$upscope $end


$scope begin unnamed$$_vcs_0 $end
$upscope $end


$scope module clk_rst_if_inst $end
$var reg 1 # clk $end
$var reg 1 $ rst $end
$var reg 1 % clk_div $end
$upscope $end


$scope module serial_if_inst $end
$var reg 1 ! clk $end
$var reg 1 " rst $end
$var reg 1 & in $end
$var reg 8 ' out_byte [7:0] $end
$var reg 1 ( done $end
$upscope $end


$scope module u_serialDP $end
$var wire 1 ) clk $end
$var wire 1 * in $end
$var wire 1 + reset $end
$var reg 8 , out_byte [7:0] $end
$var reg 1 - done $end
$var wire 1 . odd_parity $end
$var reg 1 / parity_reset $end
$var wire 1 0 parity_in $end
$var reg 4 1 bit_count [3:0] $end
$var reg 3 2 state [2:0] $end
$var reg 3 3 next_state [2:0] $end

$scope module p0 $end
$var wire 1 ) clk $end
$var wire 1 / reset $end
$var wire 1 0 in $end
$var reg 1 . odd $end
$upscope $end

$upscope $end

$upscope $end

$enddefinitions $end

#0
$dumpvars
bxxxxxxxx '
x-
x.
x0
x/
bxxxx 1
bxxx 3
bxxxxxxxx ,
bxxx 2
0#
0%
1$
0!
1"
0)
1+
x*
x(
x&
$end
#3000
1#
1!
1)
b000 2
b0000 1
b00000000 ,
b00000000 '
0-
0(
1/
b000 3
00
#6000
1%
0#
0!
0)
#9000
1#
1!
1)
0.
#10000
0%
#12000
0#
0!
0)
#14000
1%
#15000
1#
1!
1)
#18000
0%
0#
0!
0)
#21000
1#
1!
1)
#22000
1%
#24000
0#
0!
0)
#26000
0%
#27000
1#
1!
1)
#30000
1%
0#
0!
0)
#33000
1#
1!
1)
#34000
0%
#36000
0#
0!
0)
#38000
1%
#39000
1#
1!
1)
#42000
0%
0#
0!
0)
#45000
1#
1!
1)
#46000
1%
#48000
0#
0!
0)
#50000
0%
#51000
1#
1!
1)
#54000
1%
0#
0!
0)
0$
0"
0+
#57000
1#
1!
1)
0/
#58000
0%
#60000
0#
0!
0)
#62000
1%
#63000
1#
1!
1)
#66000
0%
0#
0!
0)
#69000
1#
1!
1)
#70000
1%
#72000
0#
0!
0)
#74000
0%
#75000
1#
1!
1)
#76000
0&
0*
b001 3
#78000
1%
0#
0!
0)
#81000
1#
1!
1)
b001 2
b010 3
#82000
0%
1&
1*
#84000
0#
0!
0)
#86000
1%
#87000
1#
1!
1)
1/
b010 2
10
#88000
0&
0*
00
#90000
0%
0#
0!
0)
#93000
1#
1!
1)
0/
b0001 1
#94000
1%
#96000
0#
0!
0)
#98000
0%
#99000
1#
1!
1)
b0010 1
#100000
1&
1*
10
#102000
1%
0#
0!
0)
#105000
1#
1!
1)
b00000001 ,
b00000001 '
b0011 1
1.
#106000
0%
0&
0*
00
#108000
0#
0!
0)
#110000
1%
#111000
1#
1!
1)
b00000010 ,
b00000010 '
b0100 1
#114000
0%
0#
0!
0)
#117000
1#
1!
1)
b00000100 ,
b00000100 '
b0101 1
#118000
1%
1&
1*
10
#120000
0#
0!
0)
#122000
0%
#123000
1#
1!
1)
b00001001 ,
b00001001 '
b0110 1
0.
#124000
0&
0*
00
#126000
1%
0#
0!
0)
#129000
1#
1!
1)
b00010010 ,
b00010010 '
b0111 1
b011 3
#130000
0%
#132000
0#
0!
0)
#134000
1%
#135000
1#
1!
1)
b011 2
b00100100 ,
b00100100 '
b1000 1
b100 3
#138000
0%
0#
0!
0)
#141000
1#
1!
1)
b100 2
b101 3
#142000
1%
1&
1*
b000 3
#144000
0#
0!
0)
#146000
0%
#147000
1#
1!
1)
b000 2
#150000
1%
0#
0!
0)
#153000
1#
1!
1)
b0000 1
#154000
0%
#156000
0#
0!
0)
#158000
1%
#159000
1#
1!
1)
#160000
0&
0*
b001 3
#162000
0%
0#
0!
0)
#165000
1#
1!
1)
b001 2
b010 3
#166000
1%
1&
1*
#168000
0#
0!
0)
#170000
0%
#171000
1#
1!
1)
1/
b010 2
b00000000 ,
b00000000 '
10
#172000
0&
0*
00
#174000
1%
0#
0!
0)
#177000
1#
1!
1)
0/
b0001 1
#178000
0%
1&
1*
10
#180000
0#
0!
0)
#182000
1%
#183000
1#
1!
1)
b00000001 ,
b00000001 '
b0010 1
1.
#184000
0&
0*
00
#186000
0%
0#
0!
0)
#189000
1#
1!
1)
b00000010 ,
b00000010 '
b0011 1
#190000
1%
1&
1*
10
#192000
0#
0!
0)
#194000
0%
#195000
1#
1!
1)
b00000101 ,
b00000101 '
b0100 1
0.
#196000
0&
0*
00
#198000
1%
0#
0!
0)
#201000
1#
1!
1)
b00001010 ,
b00001010 '
b0101 1
#202000
0%
#204000
0#
0!
0)
#206000
1%
#207000
1#
1!
1)
b00010100 ,
b00010100 '
b0110 1
#208000
1&
1*
10
#210000
0%
0#
0!
0)
#213000
1#
1!
1)
b00101001 ,
b00101001 '
b0111 1
1.
b011 3
#214000
1%
#216000
0#
0!
0)
#218000
0%
#219000
1#
1!
1)
b011 2
b01010011 ,
b01010011 '
b1000 1
0.
b100 3
#220000
0&
0*
00
#222000
1%
0#
0!
0)
#225000
1#
1!
1)
b100 2
b101 3
#226000
0%
1&
1*
b000 3
#228000
0#
0!
0)
#230000
1%
#231000
1#
1!
1)
b000 2
#234000
0%
0#
0!
0)
#237000
1#
1!
1)
b0000 1
#238000
1%
#240000
0#
0!
0)
#242000
0%
#243000
1#
1!
1)
#246000
1%
0#
0!
0)
#249000
1#
1!
1)
#250000
0%
#252000
0#
0!
0)
#254000
1%
#255000
1#
1!
1)
#258000
0%
0#
0!
0)
#261000
1#
1!
1)
#262000
1%
0&
0*
b001 3
#264000
0#
0!
0)
#266000
0%
#267000
1#
1!
1)
b001 2
b010 3
#268000
1&
1*
#270000
1%
0#
0!
0)
#273000
1#
1!
1)
1/
b010 2
b00000000 ,
b00000000 '
10
#274000
0%
#276000
0#
0!
0)
#278000
1%
#279000
1#
1!
1)
0/
b00000001 ,
b00000001 '
b0001 1
#280000
0&
0*
00
#282000
0%
0#
0!
0)
#285000
1#
1!
1)
b00000010 ,
b00000010 '
b0010 1
#286000
1%
1&
1*
10
#288000
0#
0!
0)
#290000
0%
#291000
1#
1!
1)
b00000101 ,
b00000101 '
b0011 1
1.
#292000
0&
0*
00
#294000
1%
0#
0!
0)
#297000
1#
1!
1)
b00001010 ,
b00001010 '
b0100 1
#298000
0%
1&
1*
10
#300000
0#
0!
0)
#302000
1%
#303000
1#
1!
1)
b00010101 ,
b00010101 '
b0101 1
0.
#306000
0%
0#
0!
0)
#309000
1#
1!
1)
b00101011 ,
b00101011 '
b0110 1
1.
#310000
1%
0&
0*
00
#312000
0#
0!
0)
#314000
0%
#315000
1#
1!
1)
b01010110 ,
b01010110 '
b0111 1
b011 3
#318000
1%
0#
0!
0)
#321000
1#
1!
1)
b011 2
b10101100 ,
b10101100 '
b1000 1
b100 3
#322000
0%
1&
1*
10
#324000
0#
0!
0)
#326000
1%
#327000
1#
1!
1)
b100 2
0.
b000 3
00
#330000
0%
0#
0!
0)
#333000
1#
1!
1)
b000 2
#334000
1%
#336000
0#
0!
0)
#338000
0%
#339000
1#
1!
1)
b0000 1
#340000
0&
0*
b001 3
#342000
1%
0#
0!
0)
#345000
1#
1!
1)
b001 2
b010 3
#346000
0%
#348000
0#
0!
0)
#350000
1%
#351000
1#
1!
1)
1/
b010 2
b00000000 ,
b00000000 '
#354000
0%
0#
0!
0)
#357000
1#
1!
1)
0/
b0001 1
#358000
1%
#360000
0#
0!
0)
#362000
0%
#363000
1#
1!
1)
b0010 1
#364000
1&
1*
10
#366000
1%
0#
0!
0)
#369000
1#
1!
1)
b00000001 ,
b00000001 '
b0011 1
1.
#370000
0%
0&
0*
00
#372000
0#
0!
0)
#374000
1%
#375000
1#
1!
1)
b00000010 ,
b00000010 '
b0100 1
#378000
0%
0#
0!
0)
#381000
1#
1!
1)
b00000100 ,
b00000100 '
b0101 1
#382000
1%
1&
1*
10
#384000
0#
0!
0)
#386000
0%
#387000
1#
1!
1)
b00001001 ,
b00001001 '
b0110 1
0.
#390000
1%
0#
0!
0)
#393000
1#
1!
1)
b00010011 ,
b00010011 '
b0111 1
1.
b011 3
#394000
0%
0&
0*
00
#396000
0#
0!
0)
#398000
1%
#399000
1#
1!
1)
b011 2
b00100110 ,
b00100110 '
b1000 1
b100 3
#402000
0%
0#
0!
0)
#405000
1#
1!
1)
b100 2
b101 3
#406000
1%
1&
1*
b000 3
#408000
0#
0!
0)
#410000
0%
#411000
1#
1!
1)
1-
1(
b000 2
#414000
1%
0#
0!
0)
#417000
1#
1!
1)
0-
0(
b0000 1
#418000
0%
#420000
0#
0!
0)
#422000
1%
#423000
1#
1!
1)
#426000
0%
0#
0!
0)
#429000
1#
1!
1)
#430000
1%
0&
0*
b001 3
#432000
0#
0!
0)
#434000
0%
#435000
1#
1!
1)
b001 2
b010 3
#436000
1&
1*
#438000
1%
0#
0!
0)
#441000
1#
1!
1)
1/
b010 2
b00000000 ,
b00000000 '
10
#442000
0%
#444000
0#
0!
0)
#446000
1%
#447000
1#
1!
1)
0/
b00000001 ,
b00000001 '
b0001 1
0.
#450000
0%
0#
0!
0)
#453000
1#
1!
1)
b00000011 ,
b00000011 '
b0010 1
1.
#454000
1%
#456000
0#
0!
0)
#458000
0%
#459000
1#
1!
1)
b00000111 ,
b00000111 '
b0011 1
0.
#460000
0&
0*
00
#462000
1%
0#
0!
0)
#465000
1#
1!
1)
b00001110 ,
b00001110 '
b0100 1
#466000
0%
1&
1*
10
#468000
0#
0!
0)
#470000
1%
#471000
1#
1!
1)
b00011101 ,
b00011101 '
b0101 1
1.
#472000
0&
0*
00
#474000
0%
0#
0!
0)
#477000
1#
1!
1)
b00111010 ,
b00111010 '
b0110 1
#478000
1%
1&
1*
10
#480000
0#
0!
0)
#482000
0%
#483000
1#
1!
1)
b01110101 ,
b01110101 '
b0111 1
0.
b011 3
#486000
1%
0#
0!
0)
#489000
1#
1!
1)
b011 2
b11101011 ,
b11101011 '
b1000 1
1.
b100 3
#490000
0%
0&
0*
00
#492000
0#
0!
0)
#494000
1%
#495000
1#
1!
1)
b100 2
b101 3
#496000
1&
1*
b000 3
#498000
0%
0#
0!
0)
#501000
1#
1!
1)
1-
1(
b000 2
#502000
1%
#504000
0#
0!
0)
#506000
0%
#507000
1#
1!
1)
0-
0(
b0000 1
#510000
1%
0#
0!
0)
#513000
1#
1!
1)
#514000
0%
#516000
0#
0!
0)
#518000
1%
#519000
1#
1!
1)
#522000
0%
0#
0!
0)
#525000
1#
1!
1)
#526000
1%
#528000
0#
0!
0)
#530000
0%
#531000
1#
1!
1)
#534000
1%
0#
0!
0)
#537000
1#
1!
1)
#538000
0%
#540000
0#
0!
0)
#542000
1%
#543000
1#
1!
1)
#544000
0&
0*
b001 3
#546000
0%
0#
0!
0)
#549000
1#
1!
1)
b001 2
b010 3
#550000
1%
#552000
0#
0!
0)
#554000
0%
#555000
1#
1!
1)
1/
b010 2
b00000000 ,
b00000000 '
#558000
1%
0#
0!
0)
#561000
1#
1!
1)
0/
b0001 1
0.
#562000
0%
1&
1*
10
#564000
0#
0!
0)
#566000
1%
#567000
1#
1!
1)
b00000001 ,
b00000001 '
b0010 1
1.
#568000
0&
0*
00
#570000
0%
0#
0!
0)
#573000
1#
1!
1)
b00000010 ,
b00000010 '
b0011 1
#574000
1%
1&
1*
10
#576000
0#
0!
0)
#578000
0%
#579000
1#
1!
1)
b00000101 ,
b00000101 '
b0100 1
0.
#580000
0&
0*
00
#582000
1%
0#
0!
0)
#585000
1#
1!
1)
b00001010 ,
b00001010 '
b0101 1
#586000
0%
1&
1*
10
#588000
0#
0!
0)
#590000
1%
#591000
1#
1!
1)
b00010101 ,
b00010101 '
b0110 1
1.
#592000
0&
0*
00
#594000
0%
0#
0!
0)
#597000
1#
1!
1)
b00101010 ,
b00101010 '
b0111 1
b011 3
#598000
1%
1&
1*
10
#600000
0#
0!
0)
#602000
0%
#603000
1#
1!
1)
b011 2
b01010101 ,
b01010101 '
b1000 1
0.
b100 3
#606000
1%
0#
0!
0)
#609000
1#
1!
1)
b100 2
1.
b000 3
00
#610000
0%
#612000
0#
0!
0)
#614000
1%
#615000
1#
1!
1)
1-
1(
b000 2
