SerialDP_IP_Full_Flow/OUTPUT/verif/serial_ip_proj/run/testbench_serial_ip_mid_sim_rst_test.vcd
$date
	Tue Apr 15 09:50:29 2025
$end

$version
	Synopsys VCS version V-2023.12-SP1
$end

$timescale
	1ps
$end

$comment Csum: 1 4216650a24db993f $end


$scope module serial_ip_tb_top $end
$var reg 1 ! clk $end
$var reg 1 " rst $end

$scope begin unnamed$$_0 $end
$upscope $end


$scope begin unnamed$$_vcs_0 $end
$upscope $end


$scope module clk_rst_if_inst $end
$var reg 1 # clk $end
$var reg 1 $ rst $end
$var reg 1 % clk_div $end
$upscope $end


$scope module serial_if_inst $end
$var reg 1 ! clk $end
$var reg 1 " rst $end
$var reg 1 & in $end
$var reg 8 ' out_byte [7:0] $end
$var reg 1 ( done $end
$upscope $end


$scope module u_serialDP $end
$var wire 1 ) clk $end
$var wire 1 * in $end
$var wire 1 + reset $end
$var reg 8 , out_byte [7:0] $end
$var reg 1 - done $end
$var wire 1 . odd_parity $end
$var reg 1 / parity_reset $end
$var wire 1 0 parity_in $end
$var reg 4 1 bit_count [3:0] $end
$var reg 3 2 state [2:0] $end
$var reg 3 3 next_state [2:0] $end

$scope module p0 $end
$var wire 1 ) clk $end
$var wire 1 / reset $end
$var wire 1 0 in $end
$var reg 1 . odd $end
$upscope $end

$upscope $end

$upscope $end

$enddefinitions $end

#0
$dumpvars
bxxxxxxxx '
x-
x.
x0
x/
bxxxx 1
bxxx 3
bxxxxxxxx ,
bxxx 2
0#
0%
1$
0!
1"
0)
1+
x*
x(
x&
$end
#3000
1#
1!
1)
b000 2
b0000 1
b00000000 ,
b00000000 '
0-
0(
1/
b000 3
00
#6000
0#
0!
0)
#9000
1#
1!
1)
0.
#12000
1%
0#
0!
0)
#15000
1#
1!
1)
#18000
0#
0!
0)
#20000
0%
#21000
1#
1!
1)
#24000
0#
0!
0)
#27000
1#
1!
1)
#28000
1%
#30000
0#
0!
0)
#33000
1#
1!
1)
#36000
0%
0#
0!
0)
#39000
1#
1!
1)
#42000
0#
0!
0)
#44000
1%
#45000
1#
1!
1)
#48000
0#
0!
0)
#51000
1#
1!
1)
#52000
0%
#54000
0#
0!
0)
#57000
1#
1!
1)
#58000
0$
0"
0+
#60000
1%
0#
0!
0)
#63000
1#
1!
1)
0/
#66000
0#
0!
0)
#69000
1#
1!
1)
#72000
0%
0#
0!
0)
#75000
1#
1!
1)
#78000
0#
0!
0)
#81000
1#
1!
1)
#82000
0&
0*
b001 3
#84000
1%
0#
0!
0)
#87000
1#
1!
1)
b001 2
b010 3
#88000
1&
1*
#90000
0#
0!
0)
#93000
1#
1!
1)
1/
b010 2
10
#94000
0&
0*
00
#96000
0%
0#
0!
0)
#99000
1#
1!
1)
0/
b0001 1
#102000
0#
0!
0)
#105000
1#
1!
1)
b0010 1
#106000
1&
1*
10
#108000
1%
0#
0!
0)
#111000
1#
1!
1)
b00000001 ,
b00000001 '
b0011 1
1.
#112000
0&
0*
00
#114000
0#
0!
0)
#117000
1#
1!
1)
b00000010 ,
b00000010 '
b0100 1
#120000
0%
0#
0!
0)
#123000
1#
1!
1)
b00000100 ,
b00000100 '
b0101 1
#124000
1&
1*
10
#126000
0#
0!
0)
#129000
1#
1!
1)
b00001001 ,
b00001001 '
b0110 1
0.
#130000
0&
0*
00
#132000
1%
0#
0!
0)
#135000
1#
1!
1)
b00010010 ,
b00010010 '
b0111 1
b011 3
#138000
0#
0!
0)
#141000
1#
1!
1)
b011 2
b00100100 ,
b00100100 '
b1000 1
b100 3
#144000
0%
0#
0!
0)
#147000
1#
1!
1)
b100 2
b101 3
#148000
1&
1*
b000 3
#150000
0#
0!
0)
#153000
1#
1!
1)
b000 2
#156000
1%
0#
0!
0)
#159000
1#
1!
1)
b0000 1
#162000
0#
0!
0)
#165000
1#
1!
1)
#166000
0&
0*
b001 3
#168000
0%
0#
0!
0)
#171000
1#
1!
1)
b001 2
b010 3
#172000
1&
1*
#174000
0#
0!
0)
#177000
1#
1!
1)
1/
b010 2
b00000000 ,
b00000000 '
10
#178000
0&
0*
00
#180000
1%
0#
0!
0)
#183000
1#
1!
1)
0/
b0001 1
#184000
1&
1*
10
#186000
0#
0!
0)
#189000
1#
1!
1)
b00000001 ,
b00000001 '
b0010 1
1.
#190000
0&
0*
00
#192000
0%
0#
0!
0)
#195000
1#
1!
1)
b00000010 ,
b00000010 '
b0011 1
#196000
1&
1*
10
#198000
0#
0!
0)
#201000
1#
1!
1)
b00000101 ,
b00000101 '
b0100 1
0.
#202000
0&
0*
00
#204000
1%
0#
0!
0)
#207000
1#
1!
1)
b00001010 ,
b00001010 '
b0101 1
#210000
0#
0!
0)
#213000
1#
1!
1)
b00010100 ,
b00010100 '
b0110 1
#214000
1&
1*
10
#216000
0%
0#
0!
0)
#219000
1#
1!
1)
b00101001 ,
b00101001 '
b0111 1
1.
b011 3
#222000
0#
0!
0)
#225000
1#
1!
1)
b011 2
b01010011 ,
b01010011 '
b1000 1
0.
b100 3
#226000
0&
0*
00
#228000
1%
0#
0!
0)
#231000
1#
1!
1)
b100 2
b101 3
#232000
1&
1*
b000 3
#234000
0#
0!
0)
#237000
1#
1!
1)
b000 2
#240000
0%
0#
0!
0)
#243000
1#
1!
1)
b0000 1
#246000
0#
0!
0)
#249000
1#
1!
1)
#252000
1%
0#
0!
0)
#255000
1#
1!
1)
#258000
0#
0!
0)
#261000
1#
1!
1)
#264000
0%
0#
0!
0)
#267000
1#
1!
1)
#268000
0&
0*
b001 3
#270000
0#
0!
0)
#273000
1#
1!
1)
b001 2
b010 3
#274000
1&
1*
#276000
1%
0#
0!
0)
#279000
1#
1!
1)
1/
b010 2
b00000000 ,
b00000000 '
10
#282000
0#
0!
0)
#285000
1#
1!
1)
0/
b00000001 ,
b00000001 '
b0001 1
#286000
0&
0*
00
#288000
0%
0#
0!
0)
#291000
1#
1!
1)
b00000010 ,
b00000010 '
b0010 1
#292000
1&
1*
10
#294000
0#
0!
0)
#297000
1#
1!
1)
b00000101 ,
b00000101 '
b0011 1
1.
#298000
0&
0*
00
#299000
1$
1"
1+
#300000
1%
0#
0!
0)
#303000
1#
1!
1)
b000 2
b0000 1
b00000000 ,
b00000000 '
1/
b001 3
#306000
0#
0!
0)
#309000
1#
1!
1)
0.
#312000
0%
0#
0!
0)
#315000
1#
1!
1)
#318000
0#
0!
0)
#321000
1#
1!
1)
#324000
1%
0#
0!
0)
#327000
1#
1!
1)
#330000
0#
0!
0)
#333000
1#
1!
1)
#335000
0$
0"
0+
#336000
0%
0#
0!
0)
#339000
1#
1!
1)
0/
b001 2
b010 3
#342000
0#
0!
0)
#345000
1#
1!
1)
1/
b010 2
#348000
1%
0#
0!
0)
#351000
1#
1!
1)
0/
b0001 1
#354000
0#
0!
0)
#357000
1#
1!
1)
b0010 1
#358000
1&
1*
10
#360000
0%
0#
0!
0)
#363000
1#
1!
1)
b00000001 ,
b00000001 '
b0011 1
1.
#364000
0&
0*
00
#366000
0#
0!
0)
#369000
1#
1!
1)
b00000010 ,
b00000010 '
b0100 1
#372000
1%
0#
0!
0)
#375000
1#
1!
1)
b00000100 ,
b00000100 '
b0101 1
#376000
1&
1*
10
#378000
0#
0!
0)
#381000
1#
1!
1)
b00001001 ,
b00001001 '
b0110 1
0.
#384000
0%
0#
0!
0)
#387000
1#
1!
1)
b00010011 ,
b00010011 '
b0111 1
1.
b011 3
#390000
0#
0!
0)
#393000
1#
1!
1)
b011 2
b00100111 ,
b00100111 '
b1000 1
0.
b100 3
#394000
0&
0*
00
#396000
1%
0#
0!
0)
#399000
1#
1!
1)
b100 2
b101 3
#402000
0#
0!
0)
#405000
1#
1!
1)
b101 2
#408000
0%
0#
0!
0)
#411000
1#
1!
1)
#414000
0#
0!
0)
#417000
1#
1!
1)
#418000
1&
1*
b000 3
#420000
1%
0#
0!
0)
#423000
1#
1!
1)
b000 2
#424000
0&
0*
b001 3
#426000
0#
0!
0)
#429000
1#
1!
1)
b001 2
b0000 1
b010 3
#432000
0%
0#
0!
0)
#435000
1#
1!
1)
1/
b010 2
b00000000 ,
b00000000 '
#436000
1&
1*
10
#438000
0#
0!
0)
#441000
1#
1!
1)
0/
b00000001 ,
b00000001 '
b0001 1
#444000
1%
0#
0!
0)
#447000
1#
1!
1)
b00000011 ,
b00000011 '
b0010 1
1.
#448000
0&
0*
00
#450000
0#
0!
0)
#453000
1#
1!
1)
b00000110 ,
b00000110 '
b0011 1
#456000
0%
0#
0!
0)
#459000
1#
1!
1)
b00001100 ,
b00001100 '
b0100 1
#460000
1&
1*
10
#462000
0#
0!
0)
#465000
1#
1!
1)
b00011001 ,
b00011001 '
b0101 1
0.
#468000
1%
0#
0!
0)
#471000
1#
1!
1)
b00110011 ,
b00110011 '
b0110 1
1.
#474000
0#
0!
0)
#477000
1#
1!
1)
b01100111 ,
b01100111 '
b0111 1
0.
b011 3
#480000
0%
0#
0!
0)
#483000
1#
1!
1)
b011 2
b11001111 ,
b11001111 '
b1000 1
1.
b100 3
#484000
0&
0*
00
#486000
0#
0!
0)
#489000
1#
1!
1)
b100 2
b101 3
#490000
1&
1*
b000 3
#492000
1%
0#
0!
0)
#495000
1#
1!
1)
1-
1(
b000 2
#498000
0#
0!
0)
#501000
1#
1!
1)
0-
0(
b0000 1
#504000
0%
0#
0!
0)
#507000
1#
1!
1)
#510000
0#
0!
0)
#513000
1#
1!
1)
#514000
0&
0*
b001 3
#516000
1%
0#
0!
0)
#519000
1#
1!
1)
b001 2
b010 3
#520000
1&
1*
#522000
0#
0!
0)
#525000
1#
1!
1)
1/
b010 2
b00000000 ,
b00000000 '
10
#526000
0&
0*
00
#528000
0%
0#
0!
0)
#531000
1#
1!
1)
0/
b0001 1
0.
#532000
1&
1*
10
#534000
0#
0!
0)
#537000
1#
1!
1)
b00000001 ,
b00000001 '
b0010 1
1.
#540000
1%
0#
0!
0)
#543000
1#
1!
1)
b00000011 ,
b00000011 '
b0011 1
0.
#544000
0&
0*
00
#546000
0#
0!
0)
#549000
1#
1!
1)
b00000110 ,
b00000110 '
b0100 1
#550000
1&
1*
10
#552000
0%
0#
0!
0)
#555000
1#
1!
1)
b00001101 ,
b00001101 '
b0101 1
1.
#558000
0#
0!
0)
#561000
1#
1!
1)
b00011011 ,
b00011011 '
b0110 1
0.
#564000
1%
0#
0!
0)
#567000
1#
1!
1)
b00110111 ,
b00110111 '
b0111 1
1.
b011 3
#570000
0#
0!
0)
#573000
1#
1!
1)
b011 2
b01101111 ,
b01101111 '
b1000 1
0.
b100 3
#576000
0%
0#
0!
0)
#579000
1#
1!
1)
b100 2
1.
b000 3
00
#582000
0#
0!
0)
#585000
1#
1!
1)
1-
1(
b000 2
#588000
1%
0#
0!
0)
#591000
1#
1!
1)
0-
0(
b0000 1
#594000
0#
0!
0)
#597000
1#
1!
1)
#598000
0&
0*
b001 3
#600000
0%
0#
0!
0)
#603000
1#
1!
1)
b001 2
b010 3
